%!PS-Adobe-2.0 EPSF-1.2
%%Creator: MATLAB, The Mathworks, Inc.
%%Title: /home/bill/research/papers/holder-book/dipole.eps
%%CreationDate: 11/05/2003  01:08:35
%%DocumentNeededFonts: Helvetica
%%DocumentProcessColors: Cyan Magenta Yellow Black
%%Pages: 1
%%BoundingBox:   117   212   499   589
%%EndComments

%%BeginProlog
% MathWorks dictionary
/MathWorks 160 dict begin
% definition operators
/bdef {bind def} bind def
/ldef {load def} bind def
/xdef {exch def} bdef
/xstore {exch store} bdef
% operator abbreviations
/c  /clip ldef
/cc /concat ldef
/cp /closepath ldef
/gr /grestore ldef
/gs /gsave ldef
/mt /moveto ldef
/np /newpath ldef
/cm /currentmatrix ldef
/sm /setmatrix ldef
/rm /rmoveto ldef
/rl /rlineto ldef
/s /show ldef
/sc {setcmykcolor} bdef
/sr /setrgbcolor ldef
/sg /setgray ldef
/w /setlinewidth ldef
/j /setlinejoin ldef
/cap /setlinecap ldef
/rc {rectclip} bdef
/rf {rectfill} bdef
% page state control
/pgsv () def
/bpage {/pgsv save def} bdef
/epage {pgsv restore} bdef
/bplot /gsave ldef
/eplot {stroke grestore} bdef
% orientation switch
/portraitMode 0 def /landscapeMode 1 def /rotateMode 2 def
% coordinate system mappings
/dpi2point 0 def
% font control
/FontSize 0 def
/FMS {/FontSize xstore findfont [FontSize 0 0 FontSize neg 0 0]
  makefont setfont} bdef
/reencode {exch dup where {pop load} {pop StandardEncoding} ifelse
  exch dup 3 1 roll findfont dup length dict begin
  { 1 index /FID ne {def}{pop pop} ifelse } forall
  /Encoding exch def currentdict end definefont pop} bdef
/isroman {findfont /CharStrings get /Agrave known} bdef
/FMSR {3 1 roll 1 index dup isroman {reencode} {pop pop} ifelse
  exch FMS} bdef
/csm {1 dpi2point div -1 dpi2point div scale neg translate
 dup landscapeMode eq {pop -90 rotate}
  {rotateMode eq {90 rotate} if} ifelse} bdef
% line types: solid, dotted, dashed, dotdash
/SO { [] 0 setdash } bdef
/DO { [.5 dpi2point mul 4 dpi2point mul] 0 setdash } bdef
/DA { [6 dpi2point mul] 0 setdash } bdef
/DD { [.5 dpi2point mul 4 dpi2point mul 6 dpi2point mul 4
  dpi2point mul] 0 setdash } bdef
% macros for lines and objects
/L {lineto stroke} bdef
/MP {3 1 roll moveto 1 sub {rlineto} repeat} bdef
/AP {{rlineto} repeat} bdef
/PDlw -1 def
/W {/PDlw currentlinewidth def setlinewidth} def
/PP {closepath eofill} bdef
/DP {closepath stroke} bdef
/MR {4 -2 roll moveto dup  0 exch rlineto exch 0 rlineto
  neg 0 exch rlineto closepath} bdef
/FR {MR stroke} bdef
/PR {MR fill} bdef
/L1i {{currentfile picstr readhexstring pop} image} bdef
/tMatrix matrix def
/MakeOval {newpath tMatrix currentmatrix pop translate scale
0 0 1 0 360 arc tMatrix setmatrix} bdef
/FO {MakeOval stroke} bdef
/PO {MakeOval fill} bdef
/PD {currentlinewidth 2 div 0 360 arc fill
   PDlw -1 eq not {PDlw w /PDlw -1 def} if} def
/FA {newpath tMatrix currentmatrix pop translate scale
  0 0 1 5 -2 roll arc tMatrix setmatrix stroke} bdef
/PA {newpath tMatrix currentmatrix pop	translate 0 0 moveto scale
  0 0 1 5 -2 roll arc closepath tMatrix setmatrix fill} bdef
/FAn {newpath tMatrix currentmatrix pop translate scale
  0 0 1 5 -2 roll arcn tMatrix setmatrix stroke} bdef
/PAn {newpath tMatrix currentmatrix pop translate 0 0 moveto scale
  0 0 1 5 -2 roll arcn closepath tMatrix setmatrix fill} bdef
/vradius 0 def /hradius 0 def /lry 0 def
/lrx 0 def /uly 0 def /ulx 0 def /rad 0 def
/MRR {/vradius xdef /hradius xdef /lry xdef /lrx xdef /uly xdef
  /ulx xdef newpath tMatrix currentmatrix pop ulx hradius add uly
  vradius add translate hradius vradius scale 0 0 1 180 270 arc 
  tMatrix setmatrix lrx hradius sub uly vradius add translate
  hradius vradius scale 0 0 1 270 360 arc tMatrix setmatrix
  lrx hradius sub lry vradius sub translate hradius vradius scale
  0 0 1 0 90 arc tMatrix setmatrix ulx hradius add lry vradius sub
  translate hradius vradius scale 0 0 1 90 180 arc tMatrix setmatrix
  closepath} bdef
/FRR {MRR stroke } bdef
/PRR {MRR fill } bdef
/MlrRR {/lry xdef /lrx xdef /uly xdef /ulx xdef /rad lry uly sub 2 div def
  newpath tMatrix currentmatrix pop ulx rad add uly rad add translate
  rad rad scale 0 0 1 90 270 arc tMatrix setmatrix lrx rad sub lry rad
  sub translate rad rad scale 0 0 1 270 90 arc tMatrix setmatrix
  closepath} bdef
/FlrRR {MlrRR stroke } bdef
/PlrRR {MlrRR fill } bdef
/MtbRR {/lry xdef /lrx xdef /uly xdef /ulx xdef /rad lrx ulx sub 2 div def
  newpath tMatrix currentmatrix pop ulx rad add uly rad add translate
  rad rad scale 0 0 1 180 360 arc tMatrix setmatrix lrx rad sub lry rad
  sub translate rad rad scale 0 0 1 0 180 arc tMatrix setmatrix
  closepath} bdef
/FtbRR {MtbRR stroke } bdef
/PtbRR {MtbRR fill } bdef
/stri 6 array def /dtri 6 array def
/smat 6 array def /dmat 6 array def
/tmat1 6 array def /tmat2 6 array def /dif 3 array def
/asub {/ind2 exch def /ind1 exch def dup dup
  ind1 get exch ind2 get sub exch } bdef
/tri_to_matrix {
  2 0 asub 3 1 asub 4 0 asub 5 1 asub
  dup 0 get exch 1 get 7 -1 roll astore } bdef
/compute_transform {
  dmat dtri tri_to_matrix tmat1 invertmatrix 
  smat stri tri_to_matrix tmat2 concatmatrix } bdef
/ds {stri astore pop} bdef
/dt {dtri astore pop} bdef
/db {2 copy /cols xdef /rows xdef mul dup string
  currentfile exch readhexstring pop
  /bmap xdef pop pop} bdef
/it {gs np dtri aload pop moveto lineto lineto cp c
  cols rows 8 compute_transform 
  {bmap} image gr}bdef
/il {newpath moveto lineto stroke}bdef
currentdict end def
%%EndProlog

%%BeginSetup
MathWorks begin

0 cap

end
%%EndSetup

%%Page: 1 1
%%BeginPageSetup
%%PageBoundingBox:   117   212   499   589
MathWorks begin
bpage
%%EndPageSetup

%%BeginObject: obj1
bplot

/dpi2point 12 def
portraitMode 0216 7344 csm

 1191   274  4583  4518 MR c np
92 dict begin %Colortable dictionary
/c0 { 0 0 0 sr} bdef
/c1 { 1 1 1 sr} bdef
/c2 { 1 0 0 sr} bdef
/c3 { 0 1 0 sr} bdef
/c4 { 0 0 1 sr} bdef
/c5 { 1 1 0 sr} bdef
/c6 { 1 0 1 sr} bdef
/c7 { 0 1 1 sr} bdef
c0
1 j
1 sg
   0    0 6913 5191 PR
6 w
0 4230 4230 0 0 -4230 1462 4619 4 MP
PP
-4230 0 0 4230 4230 0 0 -4230 1462 4619 5 MP stroke
4 w
DO
SO
6 w
0 sg
1462 4619 mt 5692 4619 L
1462  389 mt 5692  389 L
1462 4619 mt 1462  389 L
5692 4619 mt 5692  389 L
1462 4619 mt 5692 4619 L
1462 4619 mt 1462  389 L
1462 4619 mt 1462 4576 L
1462  389 mt 1462  431 L
%%IncludeResource: font Helvetica
/Helvetica /ISOLatin1Encoding 120 FMSR

1359 4764 mt 
(-1) s
1885 4619 mt 1885 4576 L
1885  389 mt 1885  431 L
1732 4764 mt 
(-0.8) s
2308 4619 mt 2308 4576 L
2308  389 mt 2308  431 L
2155 4764 mt 
(-0.6) s
2731 4619 mt 2731 4576 L
2731  389 mt 2731  431 L
2578 4764 mt 
(-0.4) s
3154 4619 mt 3154 4576 L
3154  389 mt 3154  431 L
3001 4764 mt 
(-0.2) s
3577 4619 mt 3577 4576 L
3577  389 mt 3577  431 L
3544 4764 mt 
(0) s
4000 4619 mt 4000 4576 L
4000  389 mt 4000  431 L
3917 4764 mt 
(0.2) s
4423 4619 mt 4423 4576 L
4423  389 mt 4423  431 L
4340 4764 mt 
(0.4) s
4846 4619 mt 4846 4576 L
4846  389 mt 4846  431 L
4763 4764 mt 
(0.6) s
5269 4619 mt 5269 4576 L
5269  389 mt 5269  431 L
5186 4764 mt 
(0.8) s
5692 4619 mt 5692 4576 L
5692  389 mt 5692  431 L
5659 4764 mt 
(1) s
1462 4619 mt 1504 4619 L
5692 4619 mt 5649 4619 L
1291 4663 mt 
(-1) s
1462 4196 mt 1504 4196 L
5692 4196 mt 5649 4196 L
1191 4240 mt 
(-0.8) s
1462 3773 mt 1504 3773 L
5692 3773 mt 5649 3773 L
1191 3817 mt 
(-0.6) s
1462 3350 mt 1504 3350 L
5692 3350 mt 5649 3350 L
1191 3394 mt 
(-0.4) s
1462 2927 mt 1504 2927 L
5692 2927 mt 5649 2927 L
1191 2971 mt 
(-0.2) s
1462 2504 mt 1504 2504 L
5692 2504 mt 5649 2504 L
1361 2548 mt 
(0) s
1462 2081 mt 1504 2081 L
5692 2081 mt 5649 2081 L
1261 2125 mt 
(0.2) s
1462 1658 mt 1504 1658 L
5692 1658 mt 5649 1658 L
1261 1702 mt 
(0.4) s
1462 1234 mt 1504 1234 L
5692 1234 mt 5649 1234 L
1261 1278 mt 
(0.6) s
1462  811 mt 1504  811 L
5692  811 mt 5649  811 L
1261  855 mt 
(0.8) s
1462  389 mt 1504  389 L
5692  389 mt 5649  389 L
1361  433 mt 
(1) s
1462 4619 mt 5692 4619 L
1462  389 mt 5692  389 L
1462 4619 mt 1462  389 L
5692 4619 mt 5692  389 L
gs 1462 389 4231 4231 MR c np
3471 2609 mt 3470 2609 L
3470 2609 mt 3471 2612 L
3471 2612 mt 3571 2715 L
3571 2715 mt 3577 2718 L
3577 2718 mt 3582 2715 L
3582 2715 mt 3682 2612 L
3682 2612 mt 3683 2609 L
3683 2609 mt 3682 2609 L
3682 2609 mt 3577 2556 L
3577 2556 mt 3471 2609 L
3471 2607 mt 3466 2609 L
3466 2609 mt 3471 2623 L
3471 2623 mt 3561 2715 L
3561 2715 mt 3577 2725 L
3577 2725 mt 3592 2715 L
3592 2715 mt 3682 2623 L
3682 2623 mt 3687 2609 L
3687 2609 mt 3682 2607 L
3682 2607 mt 3577 2555 L
3577 2555 mt 3471 2607 L
3471 2605 mt 3463 2609 L
3463 2609 mt 3471 2634 L
3471 2634 mt 3550 2715 L
3550 2715 mt 3577 2731 L
3577 2731 mt 3603 2715 L
3603 2715 mt 3682 2634 L
3682 2634 mt 3690 2609 L
3690 2609 mt 3682 2605 L
3682 2605 mt 3577 2554 L
3577 2554 mt 3471 2605 L
3471 2602 mt 3459 2609 L
3459 2609 mt 3471 2645 L
3471 2645 mt 3539 2715 L
3539 2715 mt 3577 2738 L
3577 2738 mt 3614 2715 L
3614 2715 mt 3682 2645 L
3682 2645 mt 3694 2609 L
3694 2609 mt 3682 2602 L
3682 2602 mt 3577 2553 L
3577 2553 mt 3471 2602 L
3471 2600 mt 3456 2609 L
3456 2609 mt 3471 2655 L
3471 2655 mt 3529 2715 L
3529 2715 mt 3577 2744 L
3577 2744 mt 3624 2715 L
3624 2715 mt 3682 2655 L
3682 2655 mt 3697 2609 L
3697 2609 mt 3682 2600 L
3682 2600 mt 3577 2552 L
3577 2552 mt 3471 2600 L
3471 2598 mt 3452 2609 L
3452 2609 mt 3471 2666 L
3471 2666 mt 3518 2715 L
3518 2715 mt 3577 2750 L
3577 2750 mt 3635 2715 L
3635 2715 mt 3682 2666 L
3682 2666 mt 3701 2609 L
3701 2609 mt 3682 2598 L
3682 2598 mt 3577 2551 L
3577 2551 mt 3471 2598 L
3471 2596 mt 3449 2609 L
3449 2609 mt 3471 2677 L
3471 2677 mt 3508 2715 L
3508 2715 mt 3577 2757 L
3577 2757 mt 3645 2715 L
3645 2715 mt 3682 2677 L
3682 2677 mt 3704 2609 L
3704 2609 mt 3682 2596 L
3682 2596 mt 3577 2550 L
3577 2550 mt 3471 2596 L
3471 2594 mt 3445 2609 L
3445 2609 mt 3471 2688 L
3471 2688 mt 3497 2715 L
3497 2715 mt 3577 2763 L
3577 2763 mt 3656 2715 L
3656 2715 mt 3682 2688 L
3682 2688 mt 3708 2609 L
3708 2609 mt 3682 2594 L
3682 2594 mt 3577 2549 L
3577 2549 mt 3471 2594 L
3471 2592 mt 3442 2609 L
3442 2609 mt 3471 2699 L
3471 2699 mt 3487 2715 L
3487 2715 mt 3577 2770 L
3577 2770 mt 3666 2715 L
3666 2715 mt 3682 2699 L
3682 2699 mt 3711 2609 L
3711 2609 mt 3682 2592 L
3682 2592 mt 3577 2548 L
3577 2548 mt 3471 2592 L
3471 2590 mt 3438 2609 L
3438 2609 mt 3471 2710 L
3471 2710 mt 3476 2715 L
3476 2715 mt 3577 2776 L
3577 2776 mt 3677 2715 L
3677 2715 mt 3682 2710 L
3682 2710 mt 3715 2609 L
3715 2609 mt 3682 2590 L
3682 2590 mt 3577 2547 L
3577 2547 mt 3471 2590 L
3471 2588 mt 3435 2609 L
3435 2609 mt 3467 2715 L
3467 2715 mt 3471 2720 L
3471 2720 mt 3577 2783 L
3577 2783 mt 3682 2720 L
3682 2720 mt 3686 2715 L
3686 2715 mt 3718 2609 L
3718 2609 mt 3682 2588 L
3682 2588 mt 3577 2546 L
3577 2546 mt 3471 2588 L
3471 2586 mt 3431 2609 L
3431 2609 mt 3460 2715 L
3460 2715 mt 3471 2731 L
3471 2731 mt 3577 2789 L
3577 2789 mt 3682 2731 L
3682 2731 mt 3693 2715 L
3693 2715 mt 3722 2609 L
3722 2609 mt 3682 2586 L
3682 2586 mt 3577 2545 L
3577 2545 mt 3471 2586 L
3471 2583 mt 3428 2609 L
3428 2609 mt 3453 2715 L
3453 2715 mt 3471 2742 L
3471 2742 mt 3577 2796 L
3577 2796 mt 3682 2742 L
3682 2742 mt 3700 2715 L
3700 2715 mt 3725 2609 L
3725 2609 mt 3682 2583 L
3682 2583 mt 3577 2544 L
3577 2544 mt 3471 2583 L
3471 2581 mt 3424 2609 L
3424 2609 mt 3446 2715 L
3446 2715 mt 3471 2753 L
3471 2753 mt 3577 2802 L
3577 2802 mt 3682 2753 L
3682 2753 mt 3707 2715 L
3707 2715 mt 3729 2609 L
3729 2609 mt 3682 2581 L
3682 2581 mt 3577 2543 L
3577 2543 mt 3471 2581 L
3471 2579 mt 3421 2609 L
3421 2609 mt 3439 2715 L
3439 2715 mt 3471 2764 L
3471 2764 mt 3577 2808 L
3577 2808 mt 3682 2764 L
3682 2764 mt 3714 2715 L
3714 2715 mt 3732 2609 L
3732 2609 mt 3682 2579 L
3682 2579 mt 3577 2541 L
3577 2541 mt 3471 2579 L
3471 2577 mt 3417 2609 L
3417 2609 mt 3432 2715 L
3432 2715 mt 3471 2775 L
3471 2775 mt 3577 2815 L
3577 2815 mt 3682 2775 L
3682 2775 mt 3721 2715 L
3721 2715 mt 3736 2609 L
3736 2609 mt 3682 2577 L
3682 2577 mt 3577 2540 L
3577 2540 mt 3471 2577 L
3471 2575 mt 3413 2609 L
3413 2609 mt 3425 2715 L
3425 2715 mt 3471 2786 L
3471 2786 mt 3574 2821 L
3574 2821 mt 3577 2822 L
3577 2822 mt 3579 2821 L
3579 2821 mt 3682 2786 L
3682 2786 mt 3728 2715 L
3728 2715 mt 3740 2609 L
3740 2609 mt 3682 2575 L
3682 2575 mt 3577 2539 L
3577 2539 mt 3471 2575 L
3471 2573 mt 3410 2609 L
3410 2609 mt 3418 2715 L
3418 2715 mt 3471 2796 L
3471 2796 mt 3542 2821 L
3542 2821 mt 3577 2835 L
3577 2835 mt 3611 2821 L
3611 2821 mt 3682 2796 L
3682 2796 mt 3735 2715 L
3735 2715 mt 3743 2609 L
3743 2609 mt 3682 2573 L
3682 2573 mt 3577 2538 L
3577 2538 mt 3471 2573 L
3471 2571 mt 3406 2609 L
3406 2609 mt 3411 2715 L
3411 2715 mt 3471 2807 L
3471 2807 mt 3510 2821 L
3510 2821 mt 3577 2848 L
3577 2848 mt 3643 2821 L
3643 2821 mt 3682 2807 L
3682 2807 mt 3742 2715 L
3742 2715 mt 3747 2609 L
3747 2609 mt 3682 2571 L
3682 2571 mt 3577 2537 L
3577 2537 mt 3471 2571 L
3471 2569 mt 3403 2609 L
3403 2609 mt 3404 2715 L
3404 2715 mt 3471 2818 L
3471 2818 mt 3479 2821 L
3479 2821 mt 3577 2861 L
3577 2861 mt 3674 2821 L
3674 2821 mt 3682 2818 L
3682 2818 mt 3749 2715 L
3749 2715 mt 3750 2609 L
3750 2609 mt 3682 2569 L
3682 2569 mt 3577 2536 L
3577 2536 mt 3471 2569 L
3471 2567 mt 3399 2609 L
3399 2609 mt 3397 2715 L
3397 2715 mt 3459 2821 L
3459 2821 mt 3471 2834 L
3471 2834 mt 3577 2874 L
3577 2874 mt 3682 2834 L
3682 2834 mt 3694 2821 L
3694 2821 mt 3756 2715 L
3756 2715 mt 3754 2609 L
3754 2609 mt 3682 2567 L
3682 2567 mt 3577 2535 L
3577 2535 mt 3471 2567 L
3471 2565 mt 3396 2609 L
3396 2609 mt 3390 2715 L
3390 2715 mt 3444 2821 L
3444 2821 mt 3471 2851 L
3471 2851 mt 3577 2887 L
3577 2887 mt 3682 2851 L
3682 2851 mt 3709 2821 L
3709 2821 mt 3763 2715 L
3763 2715 mt 3757 2609 L
3757 2609 mt 3682 2565 L
3682 2565 mt 3577 2534 L
3577 2534 mt 3471 2565 L
3471 2562 mt 3392 2609 L
3392 2609 mt 3383 2715 L
3383 2715 mt 3429 2821 L
3429 2821 mt 3471 2868 L
3471 2868 mt 3577 2900 L
3577 2900 mt 3682 2868 L
3682 2868 mt 3724 2821 L
3724 2821 mt 3770 2715 L
3770 2715 mt 3761 2609 L
3761 2609 mt 3682 2562 L
3682 2562 mt 3577 2533 L
3577 2533 mt 3471 2562 L
3471 2560 mt 3389 2609 L
3389 2609 mt 3376 2715 L
3376 2715 mt 3413 2821 L
3413 2821 mt 3471 2885 L
3471 2885 mt 3577 2913 L
3577 2913 mt 3682 2885 L
3682 2885 mt 3740 2821 L
3740 2821 mt 3777 2715 L
3777 2715 mt 3764 2609 L
3764 2609 mt 3682 2560 L
3682 2560 mt 3577 2532 L
3577 2532 mt 3471 2560 L
3471 2558 mt 3385 2609 L
3385 2609 mt 3369 2715 L
3369 2715 mt 3398 2821 L
3398 2821 mt 3471 2902 L
3471 2902 mt 3576 2927 L
3576 2927 mt 3577 2927 L
3577 2927 mt 3577 2927 L
3577 2927 mt 3682 2902 L
3682 2902 mt 3755 2821 L
3755 2821 mt 3784 2715 L
3784 2715 mt 3768 2609 L
3768 2609 mt 3682 2558 L
3682 2558 mt 3577 2531 L
3577 2531 mt 3471 2558 L
3365 2705 mt 3360 2715 L
3360 2715 mt 3365 2747 L
3365 2747 mt 3383 2821 L
3383 2821 mt 3471 2919 L
3471 2919 mt 3505 2927 L
3505 2927 mt 3577 2949 L
3577 2949 mt 3648 2927 L
3648 2927 mt 3682 2919 L
3682 2919 mt 3770 2821 L
3770 2821 mt 3788 2747 L
3788 2747 mt 3793 2715 L
3793 2715 mt 3788 2705 L
3788 2705 mt 3771 2609 L
3771 2609 mt 3682 2556 L
3682 2556 mt 3577 2530 L
3577 2530 mt 3471 2556 L
3471 2556 mt 3382 2609 L
3382 2609 mt 3365 2705 L
3365 2685 mt 3349 2715 L
3349 2715 mt 3365 2810 L
3365 2810 mt 3368 2821 L
3368 2821 mt 3455 2927 L
3455 2927 mt 3471 2940 L
3471 2940 mt 3577 2971 L
3577 2971 mt 3682 2940 L
3682 2940 mt 3698 2927 L
3698 2927 mt 3785 2821 L
3785 2821 mt 3788 2810 L
3788 2810 mt 3804 2715 L
3804 2715 mt 3788 2685 L
3788 2685 mt 3775 2609 L
3775 2609 mt 3682 2554 L
3682 2554 mt 3577 2529 L
3577 2529 mt 3471 2554 L
3471 2554 mt 3378 2609 L
3378 2609 mt 3365 2685 L
3365 2665 mt 3338 2715 L
3338 2715 mt 3351 2821 L
3351 2821 mt 3365 2852 L
3365 2852 mt 3425 2927 L
3425 2927 mt 3471 2966 L
3471 2966 mt 3577 2993 L
3577 2993 mt 3682 2966 L
3682 2966 mt 3728 2927 L
3728 2927 mt 3788 2852 L
3788 2852 mt 3802 2821 L
3802 2821 mt 3815 2715 L
3815 2715 mt 3788 2665 L
3788 2665 mt 3778 2609 L
3778 2609 mt 3682 2552 L
3682 2552 mt 3577 2528 L
3577 2528 mt 3471 2552 L
3471 2552 mt 3375 2609 L
3375 2609 mt 3365 2665 L
3365 2644 mt 3327 2715 L
3327 2715 mt 3335 2821 L
3335 2821 mt 3365 2889 L
3365 2889 mt 3395 2927 L
3395 2927 mt 3471 2993 L
3471 2993 mt 3577 3016 L
3577 3016 mt 3682 2993 L
3682 2993 mt 3758 2927 L
3758 2927 mt 3788 2889 L
3788 2889 mt 3818 2821 L
3818 2821 mt 3826 2715 L
3826 2715 mt 3788 2644 L
3788 2644 mt 3782 2609 L
3782 2609 mt 3682 2550 L
3682 2550 mt 3577 2527 L
3577 2527 mt 3471 2550 L
3471 2550 mt 3371 2609 L
3371 2609 mt 3365 2644 L
3365 2624 mt 3316 2715 L
3316 2715 mt 3318 2821 L
3318 2821 mt 3365 2927 L
3365 2927 mt 3365 2927 L
3365 2927 mt 3471 3019 L
3471 3019 mt 3542 3032 L
3542 3032 mt 3577 3041 L
3577 3041 mt 3611 3032 L
3611 3032 mt 3682 3019 L
3682 3019 mt 3788 2927 L
3788 2927 mt 3788 2927 L
3788 2927 mt 3835 2821 L
3835 2821 mt 3837 2715 L
3837 2715 mt 3788 2624 L
3788 2624 mt 3785 2609 L
3785 2609 mt 3682 2548 L
3682 2548 mt 3577 2526 L
3577 2526 mt 3471 2548 L
3471 2548 mt 3368 2609 L
3368 2609 mt 3365 2624 L
3365 2608 mt 3362 2609 L
3362 2609 mt 3305 2715 L
3305 2715 mt 3302 2821 L
3302 2821 mt 3339 2927 L
3339 2927 mt 3365 2969 L
3365 2969 mt 3445 3032 L
3445 3032 mt 3471 3051 L
3471 3051 mt 3577 3075 L
3577 3075 mt 3682 3051 L
3682 3051 mt 3708 3032 L
3708 3032 mt 3788 2969 L
3788 2969 mt 3814 2927 L
3814 2927 mt 3851 2821 L
3851 2821 mt 3848 2715 L
3848 2715 mt 3791 2609 L
3791 2609 mt 3788 2608 L
3788 2608 mt 3682 2546 L
3682 2546 mt 3577 2525 L
3577 2525 mt 3471 2546 L
3471 2546 mt 3365 2608 L
3365 2603 mt 3352 2609 L
3352 2609 mt 3294 2715 L
3294 2715 mt 3285 2821 L
3285 2821 mt 3312 2927 L
3312 2927 mt 3365 3011 L
3365 3011 mt 3392 3032 L
3392 3032 mt 3471 3089 L
3471 3089 mt 3577 3109 L
3577 3109 mt 3682 3089 L
3682 3089 mt 3761 3032 L
3761 3032 mt 3788 3011 L
3788 3011 mt 3841 2927 L
3841 2927 mt 3868 2821 L
3868 2821 mt 3859 2715 L
3859 2715 mt 3801 2609 L
3801 2609 mt 3788 2603 L
3788 2603 mt 3682 2543 L
3682 2543 mt 3577 2524 L
3577 2524 mt 3471 2543 L
3471 2543 mt 3365 2603 L
3365 2598 mt 3341 2609 L
3341 2609 mt 3283 2715 L
3283 2715 mt 3269 2821 L
3269 2821 mt 3286 2927 L
3286 2927 mt 3345 3032 L
3345 3032 mt 3365 3058 L
3365 3058 mt 3471 3127 L
3471 3127 mt 3537 3138 L
3537 3138 mt 3577 3146 L
3577 3146 mt 3616 3138 L
3616 3138 mt 3682 3127 L
3682 3127 mt 3788 3058 L
3788 3058 mt 3808 3032 L
3808 3032 mt 3867 2927 L
3867 2927 mt 3884 2821 L
3884 2821 mt 3870 2715 L
3870 2715 mt 3812 2609 L
3812 2609 mt 3788 2598 L
3788 2598 mt 3682 2541 L
3682 2541 mt 3577 2522 L
3577 2522 mt 3471 2541 L
3471 2541 mt 3365 2598 L
3259 2792 mt 3250 2821 L
3250 2821 mt 3259 2927 L
3259 2927 mt 3259 2927 L
3259 2927 mt 3303 3032 L
3303 3032 mt 3365 3111 L
3365 3111 mt 3408 3138 L
3408 3138 mt 3471 3177 L
3471 3177 mt 3577 3196 L
3577 3196 mt 3682 3177 L
3682 3177 mt 3745 3138 L
3745 3138 mt 3788 3111 L
3788 3111 mt 3850 3032 L
3850 3032 mt 3894 2927 L
3894 2927 mt 3894 2927 L
3894 2927 mt 3903 2821 L
3903 2821 mt 3894 2792 L
3894 2792 mt 3881 2715 L
3881 2715 mt 3822 2609 L
3822 2609 mt 3788 2592 L
3788 2592 mt 3682 2539 L
3682 2539 mt 3577 2521 L
3577 2521 mt 3471 2539 L
3471 2539 mt 3365 2592 L
3365 2592 mt 3331 2609 L
3331 2609 mt 3272 2715 L
3272 2715 mt 3259 2792 L
3259 2723 mt 3227 2821 L
3227 2821 mt 3229 2927 L
3229 2927 mt 3259 3028 L
3259 3028 mt 3261 3032 L
3261 3032 mt 3333 3138 L
3333 3138 mt 3365 3172 L
3365 3172 mt 3471 3230 L
3471 3230 mt 3563 3244 L
3563 3244 mt 3577 3246 L
3577 3246 mt 3590 3244 L
3590 3244 mt 3682 3230 L
3682 3230 mt 3788 3172 L
3788 3172 mt 3820 3138 L
3820 3138 mt 3892 3032 L
3892 3032 mt 3894 3028 L
3894 3028 mt 3924 2927 L
3924 2927 mt 3926 2821 L
3926 2821 mt 3894 2723 L
3894 2723 mt 3892 2715 L
3892 2715 mt 3833 2609 L
3833 2609 mt 3788 2587 L
3788 2587 mt 3682 2537 L
3682 2537 mt 3577 2520 L
3577 2520 mt 3471 2537 L
3471 2537 mt 3365 2587 L
3365 2587 mt 3320 2609 L
3320 2609 mt 3261 2715 L
3261 2715 mt 3259 2723 L
3259 2698 mt 3242 2715 L
3242 2715 mt 3204 2821 L
3204 2821 mt 3199 2927 L
3199 2927 mt 3219 3032 L
3219 3032 mt 3259 3122 L
3259 3122 mt 3270 3138 L
3270 3138 mt 3365 3241 L
3365 3241 mt 3371 3244 L
3371 3244 mt 3471 3299 L
3471 3299 mt 3577 3315 L
3577 3315 mt 3682 3299 L
3682 3299 mt 3782 3244 L
3782 3244 mt 3788 3241 L
3788 3241 mt 3883 3138 L
3883 3138 mt 3894 3122 L
3894 3122 mt 3934 3032 L
3934 3032 mt 3954 2927 L
3954 2927 mt 3949 2821 L
3949 2821 mt 3911 2715 L
3911 2715 mt 3894 2698 L
3894 2698 mt 3844 2609 L
3844 2609 mt 3788 2582 L
3788 2582 mt 3682 2535 L
3682 2535 mt 3577 2519 L
3577 2519 mt 3471 2535 L
3471 2535 mt 3365 2582 L
3365 2582 mt 3309 2609 L
3309 2609 mt 3259 2698 L
3259 2680 mt 3222 2715 L
3222 2715 mt 3182 2821 L
3182 2821 mt 3169 2927 L
3169 2927 mt 3177 3032 L
3177 3032 mt 3210 3138 L
3210 3138 mt 3259 3225 L
3259 3225 mt 3276 3244 L
3276 3244 mt 3365 3329 L
3365 3329 mt 3411 3350 L
3411 3350 mt 3471 3380 L
3471 3380 mt 3577 3396 L
3577 3396 mt 3682 3380 L
3682 3380 mt 3742 3350 L
3742 3350 mt 3788 3329 L
3788 3329 mt 3877 3244 L
3877 3244 mt 3894 3225 L
3894 3225 mt 3943 3138 L
3943 3138 mt 3976 3032 L
3976 3032 mt 3984 2927 L
3984 2927 mt 3971 2821 L
3971 2821 mt 3931 2715 L
3931 2715 mt 3894 2680 L
3894 2680 mt 3854 2609 L
3854 2609 mt 3788 2577 L
3788 2577 mt 3682 2533 L
3682 2533 mt 3577 2518 L
3577 2518 mt 3471 2533 L
3471 2533 mt 3365 2577 L
3365 2577 mt 3299 2609 L
3299 2609 mt 3259 2680 L
3154 2856 mt 3134 2927 L
3134 2927 mt 3132 3032 L
3132 3032 mt 3151 3138 L
3151 3138 mt 3154 3146 L
3154 3146 mt 3193 3244 L
3193 3244 mt 3259 3344 L
3259 3344 mt 3265 3350 L
3265 3350 mt 3365 3437 L
3365 3437 mt 3409 3455 L
3409 3455 mt 3471 3484 L
3471 3484 mt 3577 3500 L
3577 3500 mt 3682 3484 L
3682 3484 mt 3744 3455 L
3744 3455 mt 3788 3437 L
3788 3437 mt 3888 3350 L
3888 3350 mt 3894 3344 L
3894 3344 mt 3960 3244 L
3960 3244 mt 4000 3146 L
4000 3146 mt 4002 3138 L
4002 3138 mt 4021 3032 L
4021 3032 mt 4019 2927 L
4019 2927 mt 4000 2856 L
4000 2856 mt 3994 2821 L
3994 2821 mt 3950 2715 L
3950 2715 mt 3894 2661 L
3894 2661 mt 3865 2609 L
3865 2609 mt 3788 2571 L
3788 2571 mt 3682 2531 L
3682 2531 mt 3577 2517 L
3577 2517 mt 3471 2531 L
3471 2531 mt 3365 2571 L
3365 2571 mt 3288 2609 L
3288 2609 mt 3259 2661 L
3259 2661 mt 3203 2715 L
3203 2715 mt 3159 2821 L
3159 2821 mt 3154 2856 L
3154 2785 mt 3129 2821 L
3129 2821 mt 3096 2927 L
3096 2927 mt 3084 3032 L
3084 3032 mt 3089 3138 L
3089 3138 mt 3112 3244 L
3112 3244 mt 3153 3350 L
3153 3350 mt 3154 3350 L
3154 3350 mt 3223 3455 L
3223 3455 mt 3259 3501 L
3259 3501 mt 3337 3561 L
3337 3561 mt 3365 3583 L
3365 3583 mt 3471 3628 L
3471 3628 mt 3577 3641 L
3577 3641 mt 3682 3628 L
3682 3628 mt 3788 3583 L
3788 3583 mt 3816 3561 L
3816 3561 mt 3894 3501 L
3894 3501 mt 3930 3455 L
3930 3455 mt 4000 3350 L
4000 3350 mt 4000 3350 L
4000 3350 mt 4041 3244 L
4041 3244 mt 4064 3138 L
4064 3138 mt 4069 3032 L
4069 3032 mt 4057 2927 L
4057 2927 mt 4024 2821 L
4024 2821 mt 4000 2785 L
4000 2785 mt 3970 2715 L
3970 2715 mt 3894 2642 L
3894 2642 mt 3875 2609 L
3875 2609 mt 3788 2566 L
3788 2566 mt 3682 2529 L
3682 2529 mt 3577 2516 L
3577 2516 mt 3471 2529 L
3471 2529 mt 3365 2566 L
3365 2566 mt 3278 2609 L
3278 2609 mt 3259 2642 L
3259 2642 mt 3183 2715 L
3183 2715 mt 3154 2785 L
3048 2979 mt 3033 3032 L
3033 3032 mt 3024 3138 L
3024 3138 mt 3030 3244 L
3030 3244 mt 3048 3344 L
3048 3344 mt 3049 3350 L
3049 3350 mt 3083 3455 L
3083 3455 mt 3133 3561 L
3133 3561 mt 3154 3598 L
3154 3598 mt 3208 3667 L
3208 3667 mt 3259 3727 L
3259 3727 mt 3322 3773 L
3322 3773 mt 3365 3806 L
3365 3806 mt 3471 3850 L
3471 3850 mt 3577 3863 L
3577 3863 mt 3682 3850 L
3682 3850 mt 3788 3806 L
3788 3806 mt 3831 3773 L
3831 3773 mt 3894 3727 L
3894 3727 mt 3945 3667 L
3945 3667 mt 4000 3598 L
4000 3598 mt 4020 3561 L
4020 3561 mt 4070 3455 L
4070 3455 mt 4104 3350 L
4104 3350 mt 4105 3344 L
4105 3344 mt 4123 3244 L
4123 3244 mt 4129 3138 L
4129 3138 mt 4120 3032 L
4120 3032 mt 4105 2979 L
4105 2979 mt 4096 2927 L
4096 2927 mt 4058 2821 L
4058 2821 mt 4000 2739 L
4000 2739 mt 3990 2715 L
3990 2715 mt 3894 2623 L
3894 2623 mt 3886 2609 L
3886 2609 mt 3788 2561 L
3788 2561 mt 3682 2527 L
3682 2527 mt 3577 2515 L
3577 2515 mt 3471 2527 L
3471 2527 mt 3365 2561 L
3365 2561 mt 3267 2609 L
3267 2609 mt 3259 2623 L
3259 2623 mt 3163 2715 L
3163 2715 mt 3154 2739 L
3154 2739 mt 3095 2821 L
3095 2821 mt 3057 2927 L
3057 2927 mt 3048 2979 L
3576 4619 mt 3481 4513 L
3481 4513 mt 3471 4509 L
3471 4509 mt 3390 4407 L
3390 4407 mt 3365 4387 L
3365 4387 mt 3308 4301 L
3308 4301 mt 3259 4244 L
3259 4244 mt 3234 4196 L
3234 4196 mt 3168 4090 L
3168 4090 mt 3154 4069 L
3154 4069 mt 3113 3984 L
3113 3984 mt 3064 3878 L
3064 3878 mt 3048 3844 L
3048 3844 mt 3023 3773 L
3023 3773 mt 2991 3667 L
2991 3667 mt 2966 3561 L
2966 3561 mt 2950 3455 L
2950 3455 mt 2942 3350 L
2942 3350 mt 2942 3350 L
2942 3350 mt 2942 3349 L
2942 3349 mt 2943 3244 L
2943 3244 mt 2954 3138 L
2954 3138 mt 2974 3032 L
2974 3032 mt 3009 2927 L
3009 2927 mt 3048 2859 L
3048 2859 mt 3062 2821 L
3062 2821 mt 3136 2715 L
3136 2715 mt 3154 2703 L
3154 2703 mt 3253 2609 L
3253 2609 mt 3259 2607 L
3259 2607 mt 3365 2556 L
3365 2556 mt 3471 2525 L
3471 2525 mt 3577 2514 L
3577 2514 mt 3682 2525 L
3682 2525 mt 3788 2556 L
3788 2556 mt 3894 2607 L
3894 2607 mt 3900 2609 L
3900 2609 mt 4000 2703 L
4000 2703 mt 4017 2715 L
4017 2715 mt 4091 2821 L
4091 2821 mt 4105 2859 L
4105 2859 mt 4144 2927 L
4144 2927 mt 4179 3032 L
4179 3032 mt 4199 3138 L
4199 3138 mt 4210 3244 L
4210 3244 mt 4211 3349 L
4211 3349 mt 4211 3350 L
4211 3350 mt 4211 3350 L
4211 3350 mt 4203 3455 L
4203 3455 mt 4187 3561 L
4187 3561 mt 4162 3667 L
4162 3667 mt 4130 3773 L
4130 3773 mt 4105 3844 L
4105 3844 mt 4089 3878 L
4089 3878 mt 4040 3984 L
4040 3984 mt 4000 4069 L
4000 4069 mt 3985 4090 L
3985 4090 mt 3919 4196 L
3919 4196 mt 3894 4244 L
3894 4244 mt 3845 4301 L
3845 4301 mt 3788 4387 L
3788 4387 mt 3763 4407 L
3763 4407 mt 3682 4509 L
3682 4509 mt 3672 4513 L
3672 4513 mt 3577 4619 L
2519 4619 mt 2519 4618 L
2519 4618 mt 2596 4513 L
2596 4513 mt 2625 4463 L
2625 4463 mt 2655 4407 L
2655 4407 mt 2699 4301 L
2699 4301 mt 2730 4196 L
2730 4196 mt 2731 4195 L
2731 4195 mt 2753 4090 L
2753 4090 mt 2768 3984 L
2768 3984 mt 2777 3878 L
2777 3878 mt 2785 3773 L
2785 3773 mt 2792 3667 L
2792 3667 mt 2800 3561 L
2800 3561 mt 2811 3455 L
2811 3455 mt 2826 3350 L
2826 3350 mt 2836 3304 L
2836 3304 mt 2847 3244 L
2847 3244 mt 2873 3138 L
2873 3138 mt 2909 3032 L
2909 3032 mt 2942 2970 L
2942 2970 mt 2958 2927 L
2958 2927 mt 3020 2821 L
3020 2821 mt 3048 2793 L
3048 2793 mt 3102 2715 L
3102 2715 mt 3154 2679 L
3154 2679 mt 3227 2609 L
3227 2609 mt 3259 2596 L
3259 2596 mt 3365 2551 L
3365 2551 mt 3471 2522 L
3471 2522 mt 3577 2513 L
3577 2513 mt 3682 2522 L
3682 2522 mt 3788 2551 L
3788 2551 mt 3894 2596 L
3894 2596 mt 3926 2609 L
3926 2609 mt 4000 2679 L
4000 2679 mt 4051 2715 L
4051 2715 mt 4105 2793 L
4105 2793 mt 4133 2821 L
4133 2821 mt 4195 2927 L
4195 2927 mt 4211 2970 L
4211 2970 mt 4244 3032 L
4244 3032 mt 4280 3138 L
4280 3138 mt 4306 3244 L
4306 3244 mt 4317 3304 L
4317 3304 mt 4327 3350 L
4327 3350 mt 4342 3455 L
4342 3455 mt 4353 3561 L
4353 3561 mt 4361 3667 L
4361 3667 mt 4368 3773 L
4368 3773 mt 4376 3878 L
4376 3878 mt 4385 3984 L
4385 3984 mt 4400 4090 L
4400 4090 mt 4423 4195 L
4423 4195 mt 4423 4196 L
4423 4196 mt 4454 4301 L
4454 4301 mt 4498 4407 L
4498 4407 mt 4528 4463 L
4528 4463 mt 4557 4513 L
4557 4513 mt 4634 4618 L
4634 4618 mt 4634 4619 L
1849 4619 mt 1885 4595 L
1885 4595 mt 1990 4517 L
1990 4517 mt 1995 4513 L
1995 4513 mt 2096 4427 L
2096 4427 mt 2117 4407 L
2117 4407 mt 2202 4323 L
2202 4323 mt 2221 4301 L
2221 4301 mt 2307 4196 L
2307 4196 mt 2308 4195 L
2308 4195 mt 2380 4090 L
2380 4090 mt 2413 4036 L
2413 4036 mt 2441 3984 L
2441 3984 mt 2494 3878 L
2494 3878 mt 2519 3825 L
2519 3825 mt 2540 3773 L
2540 3773 mt 2581 3667 L
2581 3667 mt 2620 3561 L
2620 3561 mt 2625 3549 L
2625 3549 mt 2656 3455 L
2656 3455 mt 2694 3350 L
2694 3350 mt 2731 3263 L
2731 3263 mt 2737 3244 L
2737 3244 mt 2780 3138 L
2780 3138 mt 2836 3032 L
2836 3032 mt 2836 3031 L
2836 3031 mt 2894 2927 L
2894 2927 mt 2942 2869 L
2942 2869 mt 2971 2821 L
2971 2821 mt 3048 2744 L
3048 2744 mt 3068 2715 L
3068 2715 mt 3154 2654 L
3154 2654 mt 3201 2609 L
3201 2609 mt 3259 2586 L
3259 2586 mt 3365 2545 L
3365 2545 mt 3471 2520 L
3471 2520 mt 3577 2512 L
3577 2512 mt 3682 2520 L
3682 2520 mt 3788 2545 L
3788 2545 mt 3894 2586 L
3894 2586 mt 3952 2609 L
3952 2609 mt 4000 2654 L
4000 2654 mt 4085 2715 L
4085 2715 mt 4105 2744 L
4105 2744 mt 4182 2821 L
4182 2821 mt 4211 2869 L
4211 2869 mt 4259 2927 L
4259 2927 mt 4317 3031 L
4317 3031 mt 4317 3032 L
4317 3032 mt 4373 3138 L
4373 3138 mt 4416 3244 L
4416 3244 mt 4423 3263 L
4423 3263 mt 4459 3350 L
4459 3350 mt 4497 3455 L
4497 3455 mt 4528 3549 L
4528 3549 mt 4533 3561 L
4533 3561 mt 4572 3667 L
4572 3667 mt 4613 3773 L
4613 3773 mt 4634 3825 L
4634 3825 mt 4659 3878 L
4659 3878 mt 4712 3984 L
4712 3984 mt 4740 4036 L
4740 4036 mt 4773 4090 L
4773 4090 mt 4846 4195 L
4846 4195 mt 4846 4196 L
4846 4196 mt 4932 4301 L
4932 4301 mt 4951 4323 L
4951 4323 mt 5036 4407 L
5036 4407 mt 5057 4427 L
5057 4427 mt 5158 4513 L
5158 4513 mt 5163 4517 L
5163 4517 mt 5269 4595 L
5269 4595 mt 5304 4619 L
1462 4413 mt 1472 4407 L
1472 4407 mt 1567 4356 L
1567 4356 mt 1657 4301 L
1657 4301 mt 1673 4292 L
1673 4292 mt 1779 4222 L
1779 4222 mt 1815 4196 L
1815 4196 mt 1885 4144 L
1885 4144 mt 1949 4090 L
1949 4090 mt 1990 4056 L
1990 4056 mt 2065 3984 L
2065 3984 mt 2096 3955 L
2096 3955 mt 2166 3878 L
2166 3878 mt 2202 3839 L
2202 3839 mt 2255 3773 L
2255 3773 mt 2308 3706 L
2308 3706 mt 2334 3667 L
2334 3667 mt 2407 3561 L
2407 3561 mt 2413 3553 L
2413 3553 mt 2474 3455 L
2474 3455 mt 2519 3387 L
2519 3387 mt 2539 3350 L
2539 3350 mt 2604 3244 L
2604 3244 mt 2625 3216 L
2625 3216 mt 2670 3138 L
2670 3138 mt 2731 3054 L
2731 3054 mt 2743 3032 L
2743 3032 mt 2822 2927 L
2822 2927 mt 2836 2913 L
2836 2913 mt 2913 2821 L
2913 2821 mt 2942 2798 L
2942 2798 mt 3026 2715 L
3026 2715 mt 3048 2702 L
3048 2702 mt 3154 2630 L
3154 2630 mt 3176 2609 L
3176 2609 mt 3259 2576 L
3259 2576 mt 3365 2540 L
3365 2540 mt 3471 2518 L
3471 2518 mt 3577 2511 L
3577 2511 mt 3682 2518 L
3682 2518 mt 3788 2540 L
3788 2540 mt 3894 2576 L
3894 2576 mt 3977 2609 L
3977 2609 mt 4000 2630 L
4000 2630 mt 4105 2702 L
4105 2702 mt 4127 2715 L
4127 2715 mt 4211 2798 L
4211 2798 mt 4240 2821 L
4240 2821 mt 4317 2913 L
4317 2913 mt 4331 2927 L
4331 2927 mt 4410 3032 L
4410 3032 mt 4423 3054 L
4423 3054 mt 4483 3138 L
4483 3138 mt 4528 3216 L
4528 3216 mt 4549 3244 L
4549 3244 mt 4614 3350 L
4614 3350 mt 4634 3387 L
4634 3387 mt 4679 3455 L
4679 3455 mt 4740 3553 L
4740 3553 mt 4746 3561 L
4746 3561 mt 4819 3667 L
4819 3667 mt 4846 3706 L
4846 3706 mt 4898 3773 L
4898 3773 mt 4951 3839 L
4951 3839 mt 4987 3878 L
4987 3878 mt 5057 3955 L
5057 3955 mt 5088 3984 L
5088 3984 mt 5163 4056 L
5163 4056 mt 5204 4090 L
5204 4090 mt 5269 4144 L
5269 4144 mt 5338 4196 L
5338 4196 mt 5374 4222 L
5374 4222 mt 5480 4292 L
5480 4292 mt 5496 4301 L
5496 4301 mt 5586 4356 L
5586 4356 mt 5681 4407 L
5681 4407 mt 5692 4413 L
1462 4037 mt 1559 3984 L
1559 3984 mt 1567 3979 L
1567 3979 mt 1673 3917 L
1673 3917 mt 1732 3878 L
1732 3878 mt 1779 3849 L
1779 3849 mt 1885 3773 L
1885 3773 mt 1885 3773 L
1885 3773 mt 1990 3690 L
1990 3690 mt 2016 3667 L
2016 3667 mt 2096 3599 L
2096 3599 mt 2134 3561 L
2134 3561 mt 2202 3498 L
2202 3498 mt 2241 3455 L
2241 3455 mt 2308 3390 L
2308 3390 mt 2342 3350 L
2342 3350 mt 2413 3274 L
2413 3274 mt 2437 3244 L
2437 3244 mt 2519 3155 L
2519 3155 mt 2532 3138 L
2532 3138 mt 2625 3038 L
2625 3038 mt 2629 3032 L
2629 3032 mt 2730 2927 L
2730 2927 mt 2731 2926 L
2731 2926 mt 2836 2827 L
2836 2827 mt 2842 2821 L
2842 2821 mt 2942 2743 L
2942 2743 mt 2970 2715 L
2970 2715 mt 3048 2670 L
3048 2670 mt 3147 2609 L
3147 2609 mt 3154 2607 L
3154 2607 mt 3259 2565 L
3259 2565 mt 3365 2535 L
3365 2535 mt 3471 2516 L
3471 2516 mt 3577 2510 L
3577 2510 mt 3682 2516 L
3682 2516 mt 3788 2535 L
3788 2535 mt 3894 2565 L
3894 2565 mt 4000 2607 L
4000 2607 mt 4006 2609 L
4006 2609 mt 4105 2670 L
4105 2670 mt 4183 2715 L
4183 2715 mt 4211 2743 L
4211 2743 mt 4311 2821 L
4311 2821 mt 4317 2827 L
4317 2827 mt 4423 2926 L
4423 2926 mt 4423 2927 L
4423 2927 mt 4524 3032 L
4524 3032 mt 4528 3038 L
4528 3038 mt 4621 3138 L
4621 3138 mt 4634 3155 L
4634 3155 mt 4716 3244 L
4716 3244 mt 4740 3274 L
4740 3274 mt 4811 3350 L
4811 3350 mt 4846 3390 L
4846 3390 mt 4912 3455 L
4912 3455 mt 4951 3498 L
4951 3498 mt 5019 3561 L
5019 3561 mt 5057 3599 L
5057 3599 mt 5137 3667 L
5137 3667 mt 5163 3690 L
5163 3690 mt 5269 3773 L
5269 3773 mt 5269 3773 L
5269 3773 mt 5374 3849 L
5374 3849 mt 5421 3878 L
5421 3878 mt 5480 3917 L
5480 3917 mt 5586 3979 L
5586 3979 mt 5594 3984 L
5594 3984 mt 5692 4037 L
1462 3709 mt 1547 3667 L
1547 3667 mt 1567 3657 L
1567 3657 mt 1673 3602 L
1673 3602 mt 1744 3561 L
1744 3561 mt 1779 3542 L
1779 3542 mt 1885 3477 L
1885 3477 mt 1916 3455 L
1916 3455 mt 1990 3407 L
1990 3407 mt 2070 3350 L
2070 3350 mt 2096 3332 L
2096 3332 mt 2202 3252 L
2202 3252 mt 2212 3244 L
2212 3244 mt 2308 3170 L
2308 3170 mt 2344 3138 L
2344 3138 mt 2413 3085 L
2413 3085 mt 2473 3032 L
2473 3032 mt 2519 2999 L
2519 2999 mt 2605 2927 L
2605 2927 mt 2625 2914 L
2625 2914 mt 2731 2834 L
2731 2834 mt 2744 2821 L
2744 2821 mt 2836 2762 L
2836 2762 mt 2899 2715 L
2899 2715 mt 2942 2694 L
2942 2694 mt 3048 2638 L
3048 2638 mt 3095 2609 L
3095 2609 mt 3154 2590 L
3154 2590 mt 3259 2555 L
3259 2555 mt 3365 2530 L
3365 2530 mt 3471 2514 L
3471 2514 mt 3577 2509 L
3577 2509 mt 3682 2514 L
3682 2514 mt 3788 2530 L
3788 2530 mt 3894 2555 L
3894 2555 mt 4000 2590 L
4000 2590 mt 4058 2609 L
4058 2609 mt 4105 2638 L
4105 2638 mt 4211 2694 L
4211 2694 mt 4254 2715 L
4254 2715 mt 4317 2762 L
4317 2762 mt 4409 2821 L
4409 2821 mt 4423 2834 L
4423 2834 mt 4528 2914 L
4528 2914 mt 4548 2927 L
4548 2927 mt 4634 2999 L
4634 2999 mt 4680 3032 L
4680 3032 mt 4740 3085 L
4740 3085 mt 4809 3138 L
4809 3138 mt 4846 3170 L
4846 3170 mt 4941 3244 L
4941 3244 mt 4951 3252 L
4951 3252 mt 5057 3332 L
5057 3332 mt 5083 3350 L
5083 3350 mt 5163 3407 L
5163 3407 mt 5237 3455 L
5237 3455 mt 5269 3477 L
5269 3477 mt 5374 3542 L
5374 3542 mt 5409 3561 L
5409 3561 mt 5480 3602 L
5480 3602 mt 5586 3657 L
5586 3657 mt 5606 3667 L
5606 3667 mt 5692 3709 L
1462 3423 mt 1567 3380 L
1567 3380 mt 1637 3350 L
1637 3350 mt 1673 3334 L
1673 3334 mt 1779 3286 L
1779 3286 mt 1863 3244 L
1863 3244 mt 1885 3234 L
1885 3234 mt 1990 3180 L
1990 3180 mt 2064 3138 L
2064 3138 mt 2096 3122 L
2096 3122 mt 2202 3063 L
2202 3063 mt 2250 3032 L
2250 3032 mt 2308 3001 L
2308 3001 mt 2413 2938 L
2413 2938 mt 2429 2927 L
2429 2927 mt 2519 2876 L
2519 2876 mt 2610 2821 L
2610 2821 mt 2625 2814 L
2625 2814 mt 2731 2757 L
2731 2757 mt 2801 2715 L
2801 2715 mt 2836 2701 L
2836 2701 mt 2942 2653 L
2942 2653 mt 3039 2609 L
3039 2609 mt 3048 2607 L
3048 2607 mt 3154 2572 L
3154 2572 mt 3259 2545 L
3259 2545 mt 3365 2524 L
3365 2524 mt 3471 2512 L
3471 2512 mt 3577 2508 L
3577 2508 mt 3682 2512 L
3682 2512 mt 3788 2524 L
3788 2524 mt 3894 2545 L
3894 2545 mt 4000 2572 L
4000 2572 mt 4105 2607 L
4105 2607 mt 4114 2609 L
4114 2609 mt 4211 2653 L
4211 2653 mt 4317 2701 L
4317 2701 mt 4352 2715 L
4352 2715 mt 4423 2757 L
4423 2757 mt 4528 2814 L
4528 2814 mt 4543 2821 L
4543 2821 mt 4634 2876 L
4634 2876 mt 4724 2927 L
4724 2927 mt 4740 2938 L
4740 2938 mt 4846 3001 L
4846 3001 mt 4903 3032 L
4903 3032 mt 4951 3063 L
4951 3063 mt 5057 3122 L
5057 3122 mt 5089 3138 L
5089 3138 mt 5163 3180 L
5163 3180 mt 5269 3234 L
5269 3234 mt 5290 3244 L
5290 3244 mt 5374 3286 L
5374 3286 mt 5480 3334 L
5480 3334 mt 5516 3350 L
5516 3350 mt 5586 3380 L
5586 3380 mt 5692 3423 L
1462 3168 mt 1558 3138 L
1558 3138 mt 1567 3135 L
1567 3135 mt 1673 3102 L
1673 3102 mt 1779 3065 L
1779 3065 mt 1868 3032 L
1868 3032 mt 1885 3027 L
1885 3027 mt 1990 2987 L
1990 2987 mt 2096 2946 L
2096 2946 mt 2139 2927 L
2139 2927 mt 2202 2903 L
2202 2903 mt 2308 2860 L
2308 2860 mt 2396 2821 L
2396 2821 mt 2413 2814 L
2413 2814 mt 2519 2772 L
2519 2772 mt 2625 2728 L
2625 2728 mt 2651 2715 L
2651 2715 mt 2731 2687 L
2731 2687 mt 2836 2648 L
2836 2648 mt 2942 2611 L
2942 2611 mt 2946 2609 L
2946 2609 mt 3048 2581 L
3048 2581 mt 3154 2555 L
3154 2555 mt 3259 2534 L
3259 2534 mt 3365 2519 L
3365 2519 mt 3471 2510 L
3471 2510 mt 3577 2507 L
3577 2507 mt 3682 2510 L
3682 2510 mt 3788 2519 L
3788 2519 mt 3894 2534 L
3894 2534 mt 4000 2555 L
4000 2555 mt 4105 2581 L
4105 2581 mt 4207 2609 L
4207 2609 mt 4211 2611 L
4211 2611 mt 4317 2648 L
4317 2648 mt 4423 2687 L
4423 2687 mt 4502 2715 L
4502 2715 mt 4528 2728 L
4528 2728 mt 4634 2772 L
4634 2772 mt 4740 2814 L
4740 2814 mt 4757 2821 L
4757 2821 mt 4846 2860 L
4846 2860 mt 4951 2903 L
4951 2903 mt 5014 2927 L
5014 2927 mt 5057 2946 L
5057 2946 mt 5163 2987 L
5163 2987 mt 5269 3027 L
5269 3027 mt 5285 3032 L
5285 3032 mt 5374 3065 L
5374 3065 mt 5480 3102 L
5480 3102 mt 5586 3135 L
5586 3135 mt 5595 3138 L
5595 3138 mt 5692 3168 L
1462 2935 mt 1502 2927 L
1502 2927 mt 1567 2914 L
1567 2914 mt 1673 2891 L
1673 2891 mt 1779 2867 L
1779 2867 mt 1885 2842 L
1885 2842 mt 1968 2821 L
1968 2821 mt 1990 2816 L
1990 2816 mt 2096 2789 L
2096 2789 mt 2202 2762 L
2202 2762 mt 2308 2733 L
2308 2733 mt 2371 2715 L
2371 2715 mt 2413 2705 L
2413 2705 mt 2519 2677 L
2519 2677 mt 2625 2650 L
2625 2650 mt 2731 2623 L
2731 2623 mt 2779 2609 L
2779 2609 mt 2836 2598 L
2836 2598 mt 2942 2575 L
2942 2575 mt 3048 2555 L
3048 2555 mt 3154 2538 L
3154 2538 mt 3259 2524 L
3259 2524 mt 3365 2514 L
3365 2514 mt 3471 2508 L
3471 2508 mt 3577 2506 L
3577 2506 mt 3682 2508 L
3682 2508 mt 3788 2514 L
3788 2514 mt 3894 2524 L
3894 2524 mt 4000 2538 L
4000 2538 mt 4105 2555 L
4105 2555 mt 4211 2575 L
4211 2575 mt 4317 2598 L
4317 2598 mt 4374 2609 L
4374 2609 mt 4423 2623 L
4423 2623 mt 4528 2650 L
4528 2650 mt 4634 2677 L
4634 2677 mt 4740 2705 L
4740 2705 mt 4782 2715 L
4782 2715 mt 4846 2733 L
4846 2733 mt 4951 2762 L
4951 2762 mt 5057 2789 L
5057 2789 mt 5163 2816 L
5163 2816 mt 5185 2821 L
5185 2821 mt 5269 2842 L
5269 2842 mt 5374 2867 L
5374 2867 mt 5480 2891 L
5480 2891 mt 5586 2914 L
5586 2914 mt 5651 2927 L
5651 2927 mt 5692 2935 L
1462 2716 mt 1471 2715 L
1471 2715 mt 1567 2705 L
1567 2705 mt 1673 2694 L
1673 2694 mt 1779 2682 L
1779 2682 mt 1885 2670 L
1885 2670 mt 1990 2657 L
1990 2657 mt 2096 2644 L
2096 2644 mt 2202 2630 L
2202 2630 mt 2308 2616 L
2308 2616 mt 2357 2609 L
2357 2609 mt 2413 2602 L
2413 2602 mt 2519 2589 L
2519 2589 mt 2625 2575 L
2625 2575 mt 2731 2563 L
2731 2563 mt 2836 2551 L
2836 2551 mt 2942 2539 L
2942 2539 mt 3048 2529 L
3048 2529 mt 3154 2521 L
3154 2521 mt 3259 2514 L
3259 2514 mt 3365 2509 L
3365 2509 mt 3471 2506 L
3471 2506 mt 3577 2505 L
3577 2505 mt 3682 2506 L
3682 2506 mt 3788 2509 L
3788 2509 mt 3894 2514 L
3894 2514 mt 4000 2521 L
4000 2521 mt 4105 2529 L
4105 2529 mt 4211 2539 L
4211 2539 mt 4317 2551 L
4317 2551 mt 4423 2563 L
4423 2563 mt 4528 2575 L
4528 2575 mt 4634 2589 L
4634 2589 mt 4740 2602 L
4740 2602 mt 4796 2609 L
4796 2609 mt 4846 2616 L
4846 2616 mt 4951 2630 L
4951 2630 mt 5057 2644 L
5057 2644 mt 5163 2657 L
5163 2657 mt 5269 2670 L
5269 2670 mt 5374 2682 L
5374 2682 mt 5480 2694 L
5480 2694 mt 5586 2705 L
5586 2705 mt 5682 2715 L
5682 2715 mt 5692 2716 L
1462 2504 mt 1567 2504 L
1567 2504 mt 1673 2504 L
1673 2504 mt 1779 2504 L
1779 2504 mt 1885 2504 L
1885 2504 mt 1990 2504 L
1990 2504 mt 2096 2504 L
2096 2504 mt 2202 2504 L
2202 2504 mt 2308 2504 L
2308 2504 mt 2413 2504 L
2413 2504 mt 2519 2504 L
2519 2504 mt 2625 2504 L
2625 2504 mt 2731 2504 L
2731 2504 mt 2836 2504 L
2836 2504 mt 2942 2504 L
2942 2504 mt 3048 2504 L
3048 2504 mt 3154 2504 L
3154 2504 mt 3259 2504 L
3259 2504 mt 3365 2504 L
3365 2504 mt 3471 2504 L
3471 2504 mt 3577 2504 L
3577 2504 mt 3682 2504 L
3682 2504 mt 3788 2504 L
3788 2504 mt 3894 2504 L
3894 2504 mt 4000 2504 L
4000 2504 mt 4105 2504 L
4105 2504 mt 4211 2504 L
4211 2504 mt 4317 2504 L
4317 2504 mt 4423 2504 L
4423 2504 mt 4528 2504 L
4528 2504 mt 4634 2504 L
4634 2504 mt 4740 2504 L
4740 2504 mt 4846 2504 L
4846 2504 mt 4951 2504 L
4951 2504 mt 5057 2504 L
5057 2504 mt 5163 2504 L
5163 2504 mt 5269 2504 L
5269 2504 mt 5374 2504 L
5374 2504 mt 5480 2504 L
5480 2504 mt 5586 2504 L
5586 2504 mt 5692 2504 L
1462 2291 mt 1471 2292 L
1471 2292 mt 1567 2302 L
1567 2302 mt 1673 2313 L
1673 2313 mt 1779 2325 L
1779 2325 mt 1885 2337 L
1885 2337 mt 1990 2350 L
1990 2350 mt 2096 2363 L
2096 2363 mt 2202 2377 L
2202 2377 mt 2308 2391 L
2308 2391 mt 2357 2398 L
2357 2398 mt 2413 2405 L
2413 2405 mt 2519 2418 L
2519 2418 mt 2625 2432 L
2625 2432 mt 2731 2444 L
2731 2444 mt 2836 2457 L
2836 2457 mt 2942 2468 L
2942 2468 mt 3048 2478 L
3048 2478 mt 3154 2486 L
3154 2486 mt 3259 2493 L
3259 2493 mt 3365 2498 L
3365 2498 mt 3471 2501 L
3471 2501 mt 3577 2502 L
3577 2502 mt 3682 2501 L
3682 2501 mt 3788 2498 L
3788 2498 mt 3894 2493 L
3894 2493 mt 4000 2486 L
4000 2486 mt 4105 2478 L
4105 2478 mt 4211 2468 L
4211 2468 mt 4317 2457 L
4317 2457 mt 4423 2444 L
4423 2444 mt 4528 2432 L
4528 2432 mt 4634 2418 L
4634 2418 mt 4740 2405 L
4740 2405 mt 4796 2398 L
4796 2398 mt 4846 2391 L
4846 2391 mt 4951 2377 L
4951 2377 mt 5057 2363 L
5057 2363 mt 5163 2350 L
5163 2350 mt 5269 2337 L
5269 2337 mt 5374 2325 L
5374 2325 mt 5480 2313 L
5480 2313 mt 5586 2302 L
5586 2302 mt 5682 2292 L
5682 2292 mt 5692 2291 L
1462 2072 mt 1502 2081 L
1502 2081 mt 1567 2093 L
1567 2093 mt 1673 2116 L
1673 2116 mt 1779 2140 L
1779 2140 mt 1885 2165 L
1885 2165 mt 1968 2186 L
1968 2186 mt 1990 2191 L
1990 2191 mt 2096 2218 L
2096 2218 mt 2202 2245 L
2202 2245 mt 2308 2274 L
2308 2274 mt 2371 2292 L
2371 2292 mt 2413 2302 L
2413 2302 mt 2519 2330 L
2519 2330 mt 2625 2357 L
2625 2357 mt 2731 2384 L
2731 2384 mt 2779 2398 L
2779 2398 mt 2836 2410 L
2836 2410 mt 2942 2432 L
2942 2432 mt 3048 2452 L
3048 2452 mt 3154 2469 L
3154 2469 mt 3259 2483 L
3259 2483 mt 3365 2493 L
3365 2493 mt 3471 2499 L
3471 2499 mt 3577 2501 L
3577 2501 mt 3682 2499 L
3682 2499 mt 3788 2493 L
3788 2493 mt 3894 2483 L
3894 2483 mt 4000 2469 L
4000 2469 mt 4105 2452 L
4105 2452 mt 4211 2432 L
4211 2432 mt 4317 2410 L
4317 2410 mt 4374 2398 L
4374 2398 mt 4423 2384 L
4423 2384 mt 4528 2357 L
4528 2357 mt 4634 2330 L
4634 2330 mt 4740 2302 L
4740 2302 mt 4782 2292 L
4782 2292 mt 4846 2274 L
4846 2274 mt 4951 2245 L
4951 2245 mt 5057 2218 L
5057 2218 mt 5163 2191 L
5163 2191 mt 5185 2186 L
5185 2186 mt 5269 2165 L
5269 2165 mt 5374 2140 L
5374 2140 mt 5480 2116 L
5480 2116 mt 5586 2093 L
5586 2093 mt 5651 2081 L
5651 2081 mt 5692 2072 L
1462 1839 mt 1558 1869 L
1558 1869 mt 1567 1872 L
1567 1872 mt 1673 1905 L
1673 1905 mt 1779 1942 L
1779 1942 mt 1868 1975 L
1868 1975 mt 1885 1980 L
1885 1980 mt 1990 2020 L
1990 2020 mt 2096 2061 L
2096 2061 mt 2139 2081 L
2139 2081 mt 2202 2104 L
2202 2104 mt 2308 2147 L
2308 2147 mt 2396 2186 L
2396 2186 mt 2413 2193 L
2413 2193 mt 2519 2235 L
2519 2235 mt 2625 2279 L
2625 2279 mt 2651 2292 L
2651 2292 mt 2731 2320 L
2731 2320 mt 2836 2359 L
2836 2359 mt 2942 2396 L
2942 2396 mt 2946 2398 L
2946 2398 mt 3048 2426 L
3048 2426 mt 3154 2452 L
3154 2452 mt 3259 2473 L
3259 2473 mt 3365 2488 L
3365 2488 mt 3471 2497 L
3471 2497 mt 3577 2500 L
3577 2500 mt 3682 2497 L
3682 2497 mt 3788 2488 L
3788 2488 mt 3894 2473 L
3894 2473 mt 4000 2452 L
4000 2452 mt 4105 2426 L
4105 2426 mt 4207 2398 L
4207 2398 mt 4211 2396 L
4211 2396 mt 4317 2359 L
4317 2359 mt 4423 2320 L
4423 2320 mt 4502 2292 L
4502 2292 mt 4528 2279 L
4528 2279 mt 4634 2235 L
4634 2235 mt 4740 2193 L
4740 2193 mt 4757 2186 L
4757 2186 mt 4846 2147 L
4846 2147 mt 4951 2104 L
4951 2104 mt 5014 2081 L
5014 2081 mt 5057 2061 L
5057 2061 mt 5163 2020 L
5163 2020 mt 5269 1980 L
5269 1980 mt 5285 1975 L
5285 1975 mt 5374 1942 L
5374 1942 mt 5480 1905 L
5480 1905 mt 5586 1872 L
5586 1872 mt 5595 1869 L
5595 1869 mt 5692 1839 L
1462 1584 mt 1567 1627 L
1567 1627 mt 1637 1658 L
1637 1658 mt 1673 1673 L
1673 1673 mt 1779 1721 L
1779 1721 mt 1863 1763 L
1863 1763 mt 1885 1773 L
1885 1773 mt 1990 1827 L
1990 1827 mt 2064 1869 L
2064 1869 mt 2096 1885 L
2096 1885 mt 2202 1944 L
2202 1944 mt 2250 1975 L
2250 1975 mt 2308 2006 L
2308 2006 mt 2413 2069 L
2413 2069 mt 2429 2081 L
2429 2081 mt 2519 2131 L
2519 2131 mt 2610 2186 L
2610 2186 mt 2625 2193 L
2625 2193 mt 2731 2250 L
2731 2250 mt 2801 2292 L
2801 2292 mt 2836 2306 L
2836 2306 mt 2942 2354 L
2942 2354 mt 3039 2398 L
3039 2398 mt 3048 2400 L
3048 2400 mt 3154 2435 L
3154 2435 mt 3259 2462 L
3259 2462 mt 3365 2483 L
3365 2483 mt 3471 2495 L
3471 2495 mt 3577 2499 L
3577 2499 mt 3682 2495 L
3682 2495 mt 3788 2483 L
3788 2483 mt 3894 2462 L
3894 2462 mt 4000 2435 L
4000 2435 mt 4105 2400 L
4105 2400 mt 4114 2398 L
4114 2398 mt 4211 2354 L
4211 2354 mt 4317 2306 L
4317 2306 mt 4352 2292 L
4352 2292 mt 4423 2250 L
4423 2250 mt 4528 2193 L
4528 2193 mt 4543 2186 L
4543 2186 mt 4634 2131 L
4634 2131 mt 4724 2081 L
4724 2081 mt 4740 2069 L
4740 2069 mt 4846 2006 L
4846 2006 mt 4903 1975 L
4903 1975 mt 4951 1944 L
4951 1944 mt 5057 1885 L
5057 1885 mt 5089 1869 L
5089 1869 mt 5163 1827 L
5163 1827 mt 5269 1773 L
5269 1773 mt 5290 1763 L
5290 1763 mt 5374 1721 L
5374 1721 mt 5480 1673 L
5480 1673 mt 5516 1658 L
5516 1658 mt 5586 1627 L
5586 1627 mt 5692 1584 L
1462 1298 mt 1547 1340 L
1547 1340 mt 1567 1350 L
1567 1350 mt 1673 1405 L
1673 1405 mt 1744 1446 L
1744 1446 mt 1779 1465 L
1779 1465 mt 1885 1530 L
1885 1530 mt 1916 1552 L
1916 1552 mt 1990 1600 L
1990 1600 mt 2070 1658 L
2070 1658 mt 2096 1675 L
2096 1675 mt 2202 1755 L
2202 1755 mt 2212 1763 L
2212 1763 mt 2308 1837 L
2308 1837 mt 2344 1869 L
2344 1869 mt 2413 1922 L
2413 1922 mt 2473 1975 L
2473 1975 mt 2519 2008 L
2519 2008 mt 2605 2081 L
2605 2081 mt 2625 2093 L
2625 2093 mt 2731 2173 L
2731 2173 mt 2744 2186 L
2744 2186 mt 2836 2245 L
2836 2245 mt 2899 2292 L
2899 2292 mt 2942 2313 L
2942 2313 mt 3048 2369 L
3048 2369 mt 3095 2398 L
3095 2398 mt 3154 2417 L
3154 2417 mt 3259 2452 L
3259 2452 mt 3365 2477 L
3365 2477 mt 3471 2493 L
3471 2493 mt 3577 2498 L
3577 2498 mt 3682 2493 L
3682 2493 mt 3788 2477 L
3788 2477 mt 3894 2452 L
3894 2452 mt 4000 2417 L
4000 2417 mt 4058 2398 L
4058 2398 mt 4105 2369 L
4105 2369 mt 4211 2313 L
4211 2313 mt 4254 2292 L
4254 2292 mt 4317 2245 L
4317 2245 mt 4409 2186 L
4409 2186 mt 4423 2173 L
4423 2173 mt 4528 2093 L
4528 2093 mt 4548 2081 L
4548 2081 mt 4634 2008 L
4634 2008 mt 4680 1975 L
4680 1975 mt 4740 1922 L
4740 1922 mt 4809 1869 L
4809 1869 mt 4846 1837 L
4846 1837 mt 4941 1763 L
4941 1763 mt 4951 1755 L
4951 1755 mt 5057 1675 L
5057 1675 mt 5083 1658 L
5083 1658 mt 5163 1600 L
5163 1600 mt 5237 1552 L
5237 1552 mt 5269 1530 L
5269 1530 mt 5374 1465 L
5374 1465 mt 5409 1446 L
5409 1446 mt 5480 1405 L
5480 1405 mt 5586 1350 L
5586 1350 mt 5606 1340 L
5606 1340 mt 5692 1298 L
1462  970 mt 1559 1023 L
1559 1023 mt 1567 1028 L
1567 1028 mt 1673 1090 L
1673 1090 mt 1732 1129 L
1732 1129 mt 1779 1158 L
1779 1158 mt 1884 1234 L
1884 1234 mt 1885 1235 L
1885 1235 mt 1990 1317 L
1990 1317 mt 2016 1340 L
2016 1340 mt 2096 1408 L
2096 1408 mt 2134 1446 L
2134 1446 mt 2202 1509 L
2202 1509 mt 2241 1552 L
2241 1552 mt 2308 1617 L
2308 1617 mt 2342 1658 L
2342 1658 mt 2413 1733 L
2413 1733 mt 2437 1763 L
2437 1763 mt 2519 1852 L
2519 1852 mt 2532 1869 L
2532 1869 mt 2625 1969 L
2625 1969 mt 2629 1975 L
2629 1975 mt 2731 2081 L
2731 2081 mt 2731 2081 L
2731 2081 mt 2836 2180 L
2836 2180 mt 2842 2186 L
2842 2186 mt 2942 2264 L
2942 2264 mt 2970 2292 L
2970 2292 mt 3048 2337 L
3048 2337 mt 3147 2398 L
3147 2398 mt 3154 2400 L
3154 2400 mt 3259 2442 L
3259 2442 mt 3365 2472 L
3365 2472 mt 3471 2491 L
3471 2491 mt 3577 2497 L
3577 2497 mt 3682 2491 L
3682 2491 mt 3788 2472 L
3788 2472 mt 3894 2442 L
3894 2442 mt 4000 2400 L
4000 2400 mt 4006 2398 L
4006 2398 mt 4105 2337 L
4105 2337 mt 4183 2292 L
4183 2292 mt 4211 2264 L
4211 2264 mt 4311 2186 L
4311 2186 mt 4317 2180 L
4317 2180 mt 4423 2081 L
4423 2081 mt 4423 2081 L
4423 2081 mt 4524 1975 L
4524 1975 mt 4528 1969 L
4528 1969 mt 4621 1869 L
4621 1869 mt 4634 1852 L
4634 1852 mt 4716 1763 L
4716 1763 mt 4740 1733 L
4740 1733 mt 4811 1658 L
4811 1658 mt 4846 1617 L
4846 1617 mt 4912 1552 L
4912 1552 mt 4951 1509 L
4951 1509 mt 5019 1446 L
5019 1446 mt 5057 1408 L
5057 1408 mt 5137 1340 L
5137 1340 mt 5163 1317 L
5163 1317 mt 5269 1235 L
5269 1235 mt 5269 1234 L
5269 1234 mt 5374 1158 L
5374 1158 mt 5421 1129 L
5421 1129 mt 5480 1090 L
5480 1090 mt 5586 1028 L
5586 1028 mt 5594 1023 L
5594 1023 mt 5692  970 L
1462  594 mt 1472  600 L
1472  600 mt 1567  651 L
1567  651 mt 1657  706 L
1657  706 mt 1673  715 L
1673  715 mt 1779  785 L
1779  785 mt 1815  811 L
1815  811 mt 1885  863 L
1885  863 mt 1949  917 L
1949  917 mt 1990  951 L
1990  951 mt 2065 1023 L
2065 1023 mt 2096 1052 L
2096 1052 mt 2166 1129 L
2166 1129 mt 2202 1168 L
2202 1168 mt 2255 1234 L
2255 1234 mt 2308 1301 L
2308 1301 mt 2334 1340 L
2334 1340 mt 2407 1446 L
2407 1446 mt 2413 1454 L
2413 1454 mt 2474 1552 L
2474 1552 mt 2519 1620 L
2519 1620 mt 2539 1658 L
2539 1658 mt 2604 1763 L
2604 1763 mt 2625 1791 L
2625 1791 mt 2670 1869 L
2670 1869 mt 2731 1953 L
2731 1953 mt 2743 1975 L
2743 1975 mt 2822 2081 L
2822 2081 mt 2836 2094 L
2836 2094 mt 2913 2186 L
2913 2186 mt 2942 2209 L
2942 2209 mt 3026 2292 L
3026 2292 mt 3048 2305 L
3048 2305 mt 3154 2377 L
3154 2377 mt 3176 2398 L
3176 2398 mt 3259 2431 L
3259 2431 mt 3365 2467 L
3365 2467 mt 3471 2489 L
3471 2489 mt 3577 2496 L
3577 2496 mt 3682 2489 L
3682 2489 mt 3788 2467 L
3788 2467 mt 3894 2431 L
3894 2431 mt 3977 2398 L
3977 2398 mt 4000 2377 L
4000 2377 mt 4105 2305 L
4105 2305 mt 4127 2292 L
4127 2292 mt 4211 2209 L
4211 2209 mt 4240 2186 L
4240 2186 mt 4317 2094 L
4317 2094 mt 4331 2081 L
4331 2081 mt 4410 1975 L
4410 1975 mt 4423 1953 L
4423 1953 mt 4483 1869 L
4483 1869 mt 4528 1791 L
4528 1791 mt 4549 1763 L
4549 1763 mt 4614 1658 L
4614 1658 mt 4634 1620 L
4634 1620 mt 4679 1552 L
4679 1552 mt 4740 1454 L
4740 1454 mt 4746 1446 L
4746 1446 mt 4819 1340 L
4819 1340 mt 4846 1301 L
4846 1301 mt 4898 1234 L
4898 1234 mt 4951 1168 L
4951 1168 mt 4987 1129 L
4987 1129 mt 5057 1052 L
5057 1052 mt 5088 1023 L
5088 1023 mt 5163  951 L
5163  951 mt 5204  917 L
5204  917 mt 5269  863 L
5269  863 mt 5338  811 L
5338  811 mt 5374  785 L
5374  785 mt 5480  715 L
5480  715 mt 5496  706 L
5496  706 mt 5586  651 L
5586  651 mt 5681  600 L
5681  600 mt 5692  594 L
1849  389 mt 1885  412 L
1885  412 mt 1990  490 L
1990  490 mt 1995  494 L
1995  494 mt 2096  580 L
2096  580 mt 2117  600 L
2117  600 mt 2202  684 L
2202  684 mt 2221  706 L
2221  706 mt 2307  811 L
2307  811 mt 2308  812 L
2308  812 mt 2380  917 L
2380  917 mt 2413  971 L
2413  971 mt 2441 1023 L
2441 1023 mt 2494 1129 L
2494 1129 mt 2519 1182 L
2519 1182 mt 2540 1234 L
2540 1234 mt 2581 1340 L
2581 1340 mt 2620 1446 L
2620 1446 mt 2625 1458 L
2625 1458 mt 2656 1552 L
2656 1552 mt 2694 1658 L
2694 1658 mt 2731 1744 L
2731 1744 mt 2737 1763 L
2737 1763 mt 2780 1869 L
2780 1869 mt 2836 1975 L
2836 1975 mt 2836 1976 L
2836 1976 mt 2894 2081 L
2894 2081 mt 2942 2138 L
2942 2138 mt 2971 2186 L
2971 2186 mt 3048 2263 L
3048 2263 mt 3068 2292 L
3068 2292 mt 3154 2353 L
3154 2353 mt 3201 2398 L
3201 2398 mt 3259 2421 L
3259 2421 mt 3365 2462 L
3365 2462 mt 3471 2487 L
3471 2487 mt 3577 2495 L
3577 2495 mt 3682 2487 L
3682 2487 mt 3788 2462 L
3788 2462 mt 3894 2421 L
3894 2421 mt 3952 2398 L
3952 2398 mt 4000 2353 L
4000 2353 mt 4085 2292 L
4085 2292 mt 4105 2263 L
4105 2263 mt 4182 2186 L
4182 2186 mt 4211 2138 L
4211 2138 mt 4259 2081 L
4259 2081 mt 4317 1976 L
4317 1976 mt 4317 1975 L
4317 1975 mt 4373 1869 L
4373 1869 mt 4416 1763 L
4416 1763 mt 4423 1744 L
4423 1744 mt 4459 1658 L
4459 1658 mt 4497 1552 L
4497 1552 mt 4528 1458 L
4528 1458 mt 4533 1446 L
4533 1446 mt 4572 1340 L
4572 1340 mt 4613 1234 L
4613 1234 mt 4634 1182 L
4634 1182 mt 4659 1129 L
4659 1129 mt 4712 1023 L
4712 1023 mt 4740  971 L
4740  971 mt 4773  917 L
4773  917 mt 4846  812 L
4846  812 mt 4846  811 L
4846  811 mt 4932  706 L
4932  706 mt 4951  684 L
4951  684 mt 5036  600 L
5036  600 mt 5057  580 L
5057  580 mt 5158  494 L
5158  494 mt 5163  490 L
5163  490 mt 5269  412 L
5269  412 mt 5304  389 L
2519  389 mt 2519  389 L
2519  389 mt 2596  494 L
2596  494 mt 2625  544 L
2625  544 mt 2655  600 L
2655  600 mt 2699  706 L
2699  706 mt 2730  811 L
2730  811 mt 2731  812 L
2731  812 mt 2753  917 L
2753  917 mt 2768 1023 L
2768 1023 mt 2777 1129 L
2777 1129 mt 2785 1234 L
2785 1234 mt 2792 1340 L
2792 1340 mt 2800 1446 L
2800 1446 mt 2811 1552 L
2811 1552 mt 2826 1658 L
2826 1658 mt 2836 1703 L
2836 1703 mt 2847 1763 L
2847 1763 mt 2873 1869 L
2873 1869 mt 2909 1975 L
2909 1975 mt 2942 2037 L
2942 2037 mt 2958 2081 L
2958 2081 mt 3020 2186 L
3020 2186 mt 3048 2214 L
3048 2214 mt 3102 2292 L
3102 2292 mt 3154 2328 L
3154 2328 mt 3227 2398 L
3227 2398 mt 3259 2411 L
3259 2411 mt 3365 2457 L
3365 2457 mt 3471 2485 L
3471 2485 mt 3577 2494 L
3577 2494 mt 3682 2485 L
3682 2485 mt 3788 2457 L
3788 2457 mt 3894 2411 L
3894 2411 mt 3926 2398 L
3926 2398 mt 4000 2328 L
4000 2328 mt 4051 2292 L
4051 2292 mt 4105 2214 L
4105 2214 mt 4133 2186 L
4133 2186 mt 4195 2081 L
4195 2081 mt 4211 2037 L
4211 2037 mt 4244 1975 L
4244 1975 mt 4280 1869 L
4280 1869 mt 4306 1763 L
4306 1763 mt 4317 1703 L
4317 1703 mt 4327 1658 L
4327 1658 mt 4342 1552 L
4342 1552 mt 4353 1446 L
4353 1446 mt 4361 1340 L
4361 1340 mt 4368 1234 L
4368 1234 mt 4376 1129 L
4376 1129 mt 4385 1023 L
4385 1023 mt 4400  917 L
4400  917 mt 4423  812 L
4423  812 mt 4423  811 L
4423  811 mt 4454  706 L
4454  706 mt 4498  600 L
4498  600 mt 4528  544 L
4528  544 mt 4557  494 L
4557  494 mt 4634  389 L
4634  389 mt 4634  389 L
3576  389 mt 3481  494 L
3481  494 mt 3471  498 L
3471  498 mt 3390  600 L
3390  600 mt 3365  620 L
3365  620 mt 3308  706 L
3308  706 mt 3259  763 L
3259  763 mt 3234  811 L
3234  811 mt 3168  917 L
3168  917 mt 3154  938 L
3154  938 mt 3113 1023 L
3113 1023 mt 3064 1129 L
3064 1129 mt 3048 1163 L
3048 1163 mt 3023 1234 L
3023 1234 mt 2991 1340 L
2991 1340 mt 2966 1446 L
2966 1446 mt 2950 1552 L
2950 1552 mt 2942 1657 L
2942 1657 mt 2942 1658 L
2942 1658 mt 2942 1658 L
2942 1658 mt 2943 1763 L
2943 1763 mt 2954 1869 L
2954 1869 mt 2974 1975 L
2974 1975 mt 3009 2081 L
3009 2081 mt 3048 2148 L
3048 2148 mt 3062 2186 L
3062 2186 mt 3136 2292 L
3136 2292 mt 3154 2304 L
3154 2304 mt 3253 2398 L
3253 2398 mt 3259 2400 L
3259 2400 mt 3365 2451 L
3365 2451 mt 3471 2482 L
3471 2482 mt 3577 2493 L
3577 2493 mt 3682 2482 L
3682 2482 mt 3788 2451 L
3788 2451 mt 3894 2400 L
3894 2400 mt 3900 2398 L
3900 2398 mt 4000 2304 L
4000 2304 mt 4017 2292 L
4017 2292 mt 4091 2186 L
4091 2186 mt 4105 2148 L
4105 2148 mt 4144 2081 L
4144 2081 mt 4179 1975 L
4179 1975 mt 4199 1869 L
4199 1869 mt 4210 1763 L
4210 1763 mt 4211 1658 L
4211 1658 mt 4211 1658 L
4211 1658 mt 4211 1657 L
4211 1657 mt 4203 1552 L
4203 1552 mt 4187 1446 L
4187 1446 mt 4162 1340 L
4162 1340 mt 4130 1234 L
4130 1234 mt 4105 1163 L
4105 1163 mt 4089 1129 L
4089 1129 mt 4040 1023 L
4040 1023 mt 4000  938 L
4000  938 mt 3985  917 L
3985  917 mt 3919  811 L
3919  811 mt 3894  763 L
3894  763 mt 3845  706 L
3845  706 mt 3788  620 L
3788  620 mt 3763  600 L
3763  600 mt 3682  498 L
3682  498 mt 3672  494 L
3672  494 mt 3577  389 L
3048 1663 mt 3049 1658 L
3049 1658 mt 3083 1552 L
3083 1552 mt 3133 1446 L
3133 1446 mt 3154 1409 L
3154 1409 mt 3208 1340 L
3208 1340 mt 3259 1280 L
3259 1280 mt 3322 1234 L
3322 1234 mt 3365 1201 L
3365 1201 mt 3471 1157 L
3471 1157 mt 3577 1144 L
3577 1144 mt 3682 1157 L
3682 1157 mt 3788 1201 L
3788 1201 mt 3831 1234 L
3831 1234 mt 3894 1280 L
3894 1280 mt 3945 1340 L
3945 1340 mt 4000 1409 L
4000 1409 mt 4020 1446 L
4020 1446 mt 4070 1552 L
4070 1552 mt 4104 1658 L
4104 1658 mt 4105 1663 L
4105 1663 mt 4123 1763 L
4123 1763 mt 4129 1869 L
4129 1869 mt 4120 1975 L
4120 1975 mt 4105 2028 L
4105 2028 mt 4096 2081 L
4096 2081 mt 4058 2186 L
4058 2186 mt 4000 2269 L
4000 2269 mt 3990 2292 L
3990 2292 mt 3894 2384 L
3894 2384 mt 3886 2398 L
3886 2398 mt 3788 2446 L
3788 2446 mt 3682 2480 L
3682 2480 mt 3577 2492 L
3577 2492 mt 3471 2480 L
3471 2480 mt 3365 2446 L
3365 2446 mt 3267 2398 L
3267 2398 mt 3259 2384 L
3259 2384 mt 3163 2292 L
3163 2292 mt 3154 2269 L
3154 2269 mt 3095 2186 L
3095 2186 mt 3057 2081 L
3057 2081 mt 3048 2028 L
3048 2028 mt 3033 1975 L
3033 1975 mt 3024 1869 L
3024 1869 mt 3030 1763 L
3030 1763 mt 3048 1663 L
3154 1657 mt 3223 1552 L
3223 1552 mt 3259 1506 L
3259 1506 mt 3337 1446 L
3337 1446 mt 3365 1424 L
3365 1424 mt 3471 1379 L
3471 1379 mt 3577 1366 L
3577 1366 mt 3682 1379 L
3682 1379 mt 3788 1424 L
3788 1424 mt 3816 1446 L
3816 1446 mt 3894 1506 L
3894 1506 mt 3930 1552 L
3930 1552 mt 4000 1657 L
4000 1657 mt 4000 1658 L
4000 1658 mt 4041 1763 L
4041 1763 mt 4064 1869 L
4064 1869 mt 4069 1975 L
4069 1975 mt 4057 2081 L
4057 2081 mt 4024 2186 L
4024 2186 mt 4000 2222 L
4000 2222 mt 3970 2292 L
3970 2292 mt 3894 2365 L
3894 2365 mt 3875 2398 L
3875 2398 mt 3788 2441 L
3788 2441 mt 3682 2478 L
3682 2478 mt 3577 2491 L
3577 2491 mt 3471 2478 L
3471 2478 mt 3365 2441 L
3365 2441 mt 3278 2398 L
3278 2398 mt 3259 2365 L
3259 2365 mt 3183 2292 L
3183 2292 mt 3154 2222 L
3154 2222 mt 3129 2186 L
3129 2186 mt 3096 2081 L
3096 2081 mt 3084 1975 L
3084 1975 mt 3089 1869 L
3089 1869 mt 3112 1763 L
3112 1763 mt 3153 1658 L
3153 1658 mt 3154 1657 L
3154 1861 mt 3193 1763 L
3193 1763 mt 3259 1663 L
3259 1663 mt 3265 1658 L
3265 1658 mt 3365 1570 L
3365 1570 mt 3409 1552 L
3409 1552 mt 3471 1523 L
3471 1523 mt 3577 1507 L
3577 1507 mt 3682 1523 L
3682 1523 mt 3744 1552 L
3744 1552 mt 3788 1570 L
3788 1570 mt 3888 1658 L
3888 1658 mt 3894 1663 L
3894 1663 mt 3960 1763 L
3960 1763 mt 4000 1861 L
4000 1861 mt 4002 1869 L
4002 1869 mt 4021 1975 L
4021 1975 mt 4019 2081 L
4019 2081 mt 4000 2151 L
4000 2151 mt 3994 2186 L
3994 2186 mt 3950 2292 L
3950 2292 mt 3894 2346 L
3894 2346 mt 3865 2398 L
3865 2398 mt 3788 2436 L
3788 2436 mt 3682 2476 L
3682 2476 mt 3577 2490 L
3577 2490 mt 3471 2476 L
3471 2476 mt 3365 2436 L
3365 2436 mt 3288 2398 L
3288 2398 mt 3259 2346 L
3259 2346 mt 3203 2292 L
3203 2292 mt 3159 2186 L
3159 2186 mt 3154 2151 L
3154 2151 mt 3134 2081 L
3134 2081 mt 3132 1975 L
3132 1975 mt 3151 1869 L
3151 1869 mt 3154 1861 L
3259 1782 mt 3276 1763 L
3276 1763 mt 3365 1678 L
3365 1678 mt 3411 1658 L
3411 1658 mt 3471 1627 L
3471 1627 mt 3577 1611 L
3577 1611 mt 3682 1627 L
3682 1627 mt 3742 1658 L
3742 1658 mt 3788 1678 L
3788 1678 mt 3877 1763 L
3877 1763 mt 3894 1782 L
3894 1782 mt 3943 1869 L
3943 1869 mt 3976 1975 L
3976 1975 mt 3984 2081 L
3984 2081 mt 3971 2186 L
3971 2186 mt 3931 2292 L
3931 2292 mt 3894 2327 L
3894 2327 mt 3854 2398 L
3854 2398 mt 3788 2430 L
3788 2430 mt 3682 2474 L
3682 2474 mt 3577 2489 L
3577 2489 mt 3471 2474 L
3471 2474 mt 3365 2430 L
3365 2430 mt 3299 2398 L
3299 2398 mt 3259 2327 L
3259 2327 mt 3222 2292 L
3222 2292 mt 3182 2186 L
3182 2186 mt 3169 2081 L
3169 2081 mt 3177 1975 L
3177 1975 mt 3210 1869 L
3210 1869 mt 3259 1782 L
3259 1885 mt 3270 1869 L
3270 1869 mt 3365 1766 L
3365 1766 mt 3371 1763 L
3371 1763 mt 3471 1708 L
3471 1708 mt 3577 1692 L
3577 1692 mt 3682 1708 L
3682 1708 mt 3782 1763 L
3782 1763 mt 3788 1766 L
3788 1766 mt 3883 1869 L
3883 1869 mt 3894 1885 L
3894 1885 mt 3934 1975 L
3934 1975 mt 3954 2081 L
3954 2081 mt 3949 2186 L
3949 2186 mt 3911 2292 L
3911 2292 mt 3894 2309 L
3894 2309 mt 3844 2398 L
3844 2398 mt 3788 2425 L
3788 2425 mt 3682 2472 L
3682 2472 mt 3577 2488 L
3577 2488 mt 3471 2472 L
3471 2472 mt 3365 2425 L
3365 2425 mt 3309 2398 L
3309 2398 mt 3259 2309 L
3259 2309 mt 3242 2292 L
3242 2292 mt 3204 2186 L
3204 2186 mt 3199 2081 L
3199 2081 mt 3219 1975 L
3219 1975 mt 3259 1885 L
3259 1979 mt 3261 1975 L
3261 1975 mt 3333 1869 L
3333 1869 mt 3365 1835 L
3365 1835 mt 3471 1777 L
3471 1777 mt 3563 1763 L
3563 1763 mt 3577 1761 L
3577 1761 mt 3590 1763 L
3590 1763 mt 3682 1777 L
3682 1777 mt 3788 1835 L
3788 1835 mt 3820 1869 L
3820 1869 mt 3892 1975 L
3892 1975 mt 3894 1979 L
3894 1979 mt 3924 2081 L
3924 2081 mt 3926 2186 L
3926 2186 mt 3894 2284 L
3894 2284 mt 3892 2292 L
3892 2292 mt 3833 2398 L
3833 2398 mt 3788 2420 L
3788 2420 mt 3682 2470 L
3682 2470 mt 3577 2487 L
3577 2487 mt 3471 2470 L
3471 2470 mt 3365 2420 L
3365 2420 mt 3320 2398 L
3320 2398 mt 3261 2292 L
3261 2292 mt 3259 2284 L
3259 2284 mt 3227 2186 L
3227 2186 mt 3229 2081 L
3229 2081 mt 3259 1979 L
3259 2080 mt 3303 1975 L
3303 1975 mt 3365 1896 L
3365 1896 mt 3408 1869 L
3408 1869 mt 3471 1830 L
3471 1830 mt 3577 1811 L
3577 1811 mt 3682 1830 L
3682 1830 mt 3745 1869 L
3745 1869 mt 3788 1896 L
3788 1896 mt 3850 1975 L
3850 1975 mt 3894 2080 L
3894 2080 mt 3894 2081 L
3894 2081 mt 3903 2186 L
3903 2186 mt 3894 2215 L
3894 2215 mt 3881 2292 L
3881 2292 mt 3822 2398 L
3822 2398 mt 3788 2415 L
3788 2415 mt 3682 2468 L
3682 2468 mt 3577 2486 L
3577 2486 mt 3471 2468 L
3471 2468 mt 3365 2415 L
3365 2415 mt 3331 2398 L
3331 2398 mt 3272 2292 L
3272 2292 mt 3259 2215 L
3259 2215 mt 3250 2186 L
3250 2186 mt 3259 2081 L
3259 2081 mt 3259 2080 L
3365 1949 mt 3471 1880 L
3471 1880 mt 3537 1869 L
3537 1869 mt 3577 1861 L
3577 1861 mt 3616 1869 L
3616 1869 mt 3682 1880 L
3682 1880 mt 3788 1949 L
3788 1949 mt 3808 1975 L
3808 1975 mt 3867 2081 L
3867 2081 mt 3884 2186 L
3884 2186 mt 3870 2292 L
3870 2292 mt 3812 2398 L
3812 2398 mt 3788 2410 L
3788 2410 mt 3682 2466 L
3682 2466 mt 3577 2485 L
3577 2485 mt 3471 2466 L
3471 2466 mt 3365 2410 L
3365 2410 mt 3341 2398 L
3341 2398 mt 3283 2292 L
3283 2292 mt 3269 2186 L
3269 2186 mt 3286 2081 L
3286 2081 mt 3345 1975 L
3345 1975 mt 3365 1949 L
3365 1996 mt 3392 1975 L
3392 1975 mt 3471 1918 L
3471 1918 mt 3577 1898 L
3577 1898 mt 3682 1918 L
3682 1918 mt 3761 1975 L
3761 1975 mt 3788 1996 L
3788 1996 mt 3841 2081 L
3841 2081 mt 3868 2186 L
3868 2186 mt 3859 2292 L
3859 2292 mt 3801 2398 L
3801 2398 mt 3788 2404 L
3788 2404 mt 3682 2464 L
3682 2464 mt 3577 2483 L
3577 2483 mt 3471 2464 L
3471 2464 mt 3365 2404 L
3365 2404 mt 3352 2398 L
3352 2398 mt 3294 2292 L
3294 2292 mt 3285 2186 L
3285 2186 mt 3312 2081 L
3312 2081 mt 3365 1996 L
3365 2038 mt 3445 1975 L
3445 1975 mt 3471 1956 L
3471 1956 mt 3577 1932 L
3577 1932 mt 3682 1956 L
3682 1956 mt 3708 1975 L
3708 1975 mt 3788 2038 L
3788 2038 mt 3814 2081 L
3814 2081 mt 3851 2186 L
3851 2186 mt 3848 2292 L
3848 2292 mt 3791 2398 L
3791 2398 mt 3788 2399 L
3788 2399 mt 3682 2461 L
3682 2461 mt 3577 2482 L
3577 2482 mt 3471 2461 L
3471 2461 mt 3365 2399 L
3365 2399 mt 3362 2398 L
3362 2398 mt 3305 2292 L
3305 2292 mt 3302 2186 L
3302 2186 mt 3339 2081 L
3339 2081 mt 3365 2038 L
3365 2080 mt 3471 1988 L
3471 1988 mt 3542 1975 L
3542 1975 mt 3577 1966 L
3577 1966 mt 3611 1975 L
3611 1975 mt 3682 1988 L
3682 1988 mt 3788 2080 L
3788 2080 mt 3788 2081 L
3788 2081 mt 3835 2186 L
3835 2186 mt 3837 2292 L
3837 2292 mt 3788 2383 L
3788 2383 mt 3785 2398 L
3785 2398 mt 3682 2459 L
3682 2459 mt 3577 2481 L
3577 2481 mt 3471 2459 L
3471 2459 mt 3368 2398 L
3368 2398 mt 3365 2383 L
3365 2383 mt 3316 2292 L
3316 2292 mt 3318 2186 L
3318 2186 mt 3365 2081 L
3365 2081 mt 3365 2080 L
3365 2118 mt 3395 2081 L
3395 2081 mt 3471 2014 L
3471 2014 mt 3577 1991 L
3577 1991 mt 3682 2014 L
3682 2014 mt 3758 2081 L
3758 2081 mt 3788 2118 L
3788 2118 mt 3818 2186 L
3818 2186 mt 3826 2292 L
3826 2292 mt 3788 2363 L
3788 2363 mt 3782 2398 L
3782 2398 mt 3682 2457 L
3682 2457 mt 3577 2480 L
3577 2480 mt 3471 2457 L
3471 2457 mt 3371 2398 L
3371 2398 mt 3365 2363 L
3365 2363 mt 3327 2292 L
3327 2292 mt 3335 2186 L
3335 2186 mt 3365 2118 L
3365 2155 mt 3425 2081 L
3425 2081 mt 3471 2041 L
3471 2041 mt 3577 2014 L
3577 2014 mt 3682 2041 L
3682 2041 mt 3728 2081 L
3728 2081 mt 3788 2155 L
3788 2155 mt 3802 2186 L
3802 2186 mt 3815 2292 L
3815 2292 mt 3788 2342 L
3788 2342 mt 3778 2398 L
3778 2398 mt 3682 2455 L
3682 2455 mt 3577 2479 L
3577 2479 mt 3471 2455 L
3471 2455 mt 3375 2398 L
3375 2398 mt 3365 2342 L
3365 2342 mt 3338 2292 L
3338 2292 mt 3351 2186 L
3351 2186 mt 3365 2155 L
3365 2197 mt 3368 2186 L
3368 2186 mt 3455 2081 L
3455 2081 mt 3471 2067 L
3471 2067 mt 3577 2036 L
3577 2036 mt 3682 2067 L
3682 2067 mt 3698 2081 L
3698 2081 mt 3785 2186 L
3785 2186 mt 3788 2197 L
3788 2197 mt 3804 2292 L
3804 2292 mt 3788 2322 L
3788 2322 mt 3775 2398 L
3775 2398 mt 3682 2453 L
3682 2453 mt 3577 2478 L
3577 2478 mt 3471 2453 L
3471 2453 mt 3378 2398 L
3378 2398 mt 3365 2322 L
3365 2322 mt 3349 2292 L
3349 2292 mt 3365 2197 L
3365 2260 mt 3383 2186 L
3383 2186 mt 3471 2089 L
3471 2089 mt 3505 2081 L
3505 2081 mt 3577 2058 L
3577 2058 mt 3648 2081 L
3648 2081 mt 3682 2089 L
3682 2089 mt 3770 2186 L
3770 2186 mt 3788 2260 L
3788 2260 mt 3793 2292 L
3793 2292 mt 3788 2302 L
3788 2302 mt 3771 2398 L
3771 2398 mt 3682 2451 L
3682 2451 mt 3577 2477 L
3577 2477 mt 3471 2451 L
3471 2451 mt 3382 2398 L
3382 2398 mt 3365 2302 L
3365 2302 mt 3360 2292 L
3360 2292 mt 3365 2260 L
3471 2106 mt 3576 2081 L
3576 2081 mt 3577 2080 L
3577 2080 mt 3577 2081 L
3577 2081 mt 3682 2106 L
3682 2106 mt 3755 2186 L
3755 2186 mt 3784 2292 L
3784 2292 mt 3768 2398 L
3768 2398 mt 3682 2449 L
3682 2449 mt 3577 2476 L
3577 2476 mt 3471 2449 L
3471 2449 mt 3385 2398 L
3385 2398 mt 3369 2292 L
3369 2292 mt 3398 2186 L
3398 2186 mt 3471 2106 L
3471 2122 mt 3577 2094 L
3577 2094 mt 3682 2122 L
3682 2122 mt 3740 2186 L
3740 2186 mt 3777 2292 L
3777 2292 mt 3764 2398 L
3764 2398 mt 3682 2447 L
3682 2447 mt 3577 2475 L
3577 2475 mt 3471 2447 L
3471 2447 mt 3389 2398 L
3389 2398 mt 3376 2292 L
3376 2292 mt 3413 2186 L
3413 2186 mt 3471 2122 L
3471 2140 mt 3577 2107 L
3577 2107 mt 3682 2140 L
3682 2140 mt 3724 2186 L
3724 2186 mt 3770 2292 L
3770 2292 mt 3761 2398 L
3761 2398 mt 3682 2445 L
3682 2445 mt 3577 2474 L
3577 2474 mt 3471 2445 L
3471 2445 mt 3392 2398 L
3392 2398 mt 3383 2292 L
3383 2292 mt 3429 2186 L
3429 2186 mt 3471 2140 L
3471 2156 mt 3577 2120 L
3577 2120 mt 3682 2156 L
3682 2156 mt 3709 2186 L
3709 2186 mt 3763 2292 L
3763 2292 mt 3757 2398 L
3757 2398 mt 3682 2442 L
3682 2442 mt 3577 2473 L
3577 2473 mt 3471 2442 L
3471 2442 mt 3396 2398 L
3396 2398 mt 3390 2292 L
3390 2292 mt 3444 2186 L
3444 2186 mt 3471 2156 L
3471 2174 mt 3577 2133 L
3577 2133 mt 3682 2174 L
3682 2174 mt 3694 2186 L
3694 2186 mt 3756 2292 L
3756 2292 mt 3754 2398 L
3754 2398 mt 3682 2440 L
3682 2440 mt 3577 2472 L
3577 2472 mt 3471 2440 L
3471 2440 mt 3399 2398 L
3399 2398 mt 3397 2292 L
3397 2292 mt 3459 2186 L
3459 2186 mt 3471 2174 L
3471 2189 mt 3479 2186 L
3479 2186 mt 3577 2146 L
3577 2146 mt 3674 2186 L
3674 2186 mt 3682 2189 L
3682 2189 mt 3749 2292 L
3749 2292 mt 3750 2398 L
3750 2398 mt 3682 2438 L
3682 2438 mt 3577 2471 L
3577 2471 mt 3471 2438 L
3471 2438 mt 3403 2398 L
3403 2398 mt 3404 2292 L
3404 2292 mt 3471 2189 L
3471 2200 mt 3510 2186 L
3510 2186 mt 3577 2159 L
3577 2159 mt 3643 2186 L
3643 2186 mt 3682 2200 L
3682 2200 mt 3742 2292 L
3742 2292 mt 3747 2398 L
3747 2398 mt 3682 2436 L
3682 2436 mt 3577 2470 L
3577 2470 mt 3471 2436 L
3471 2436 mt 3406 2398 L
3406 2398 mt 3411 2292 L
3411 2292 mt 3471 2200 L
3471 2211 mt 3542 2186 L
3542 2186 mt 3577 2172 L
3577 2172 mt 3611 2186 L
3611 2186 mt 3682 2211 L
3682 2211 mt 3735 2292 L
3735 2292 mt 3743 2398 L
3743 2398 mt 3682 2434 L
3682 2434 mt 3577 2469 L
3577 2469 mt 3471 2434 L
3471 2434 mt 3410 2398 L
3410 2398 mt 3418 2292 L
3418 2292 mt 3471 2211 L
3471 2222 mt 3574 2186 L
3574 2186 mt 3577 2185 L
3577 2185 mt 3579 2186 L
3579 2186 mt 3682 2222 L
3682 2222 mt 3728 2292 L
3728 2292 mt 3740 2398 L
3740 2398 mt 3682 2432 L
3682 2432 mt 3577 2468 L
3577 2468 mt 3471 2432 L
3471 2432 mt 3413 2398 L
3413 2398 mt 3425 2292 L
3425 2292 mt 3471 2222 L
3471 2232 mt 3577 2192 L
3577 2192 mt 3682 2232 L
3682 2232 mt 3721 2292 L
3721 2292 mt 3736 2398 L
3736 2398 mt 3682 2430 L
3682 2430 mt 3577 2467 L
3577 2467 mt 3471 2430 L
3471 2430 mt 3417 2398 L
3417 2398 mt 3432 2292 L
3432 2292 mt 3471 2232 L
3471 2243 mt 3577 2199 L
3577 2199 mt 3682 2243 L
3682 2243 mt 3714 2292 L
3714 2292 mt 3732 2398 L
3732 2398 mt 3682 2428 L
3682 2428 mt 3577 2466 L
3577 2466 mt 3471 2428 L
3471 2428 mt 3421 2398 L
3421 2398 mt 3439 2292 L
3439 2292 mt 3471 2243 L
3471 2254 mt 3577 2205 L
3577 2205 mt 3682 2254 L
3682 2254 mt 3707 2292 L
3707 2292 mt 3729 2398 L
3729 2398 mt 3682 2426 L
3682 2426 mt 3577 2464 L
3577 2464 mt 3471 2426 L
3471 2426 mt 3424 2398 L
3424 2398 mt 3446 2292 L
3446 2292 mt 3471 2254 L
3471 2265 mt 3577 2211 L
3577 2211 mt 3682 2265 L
3682 2265 mt 3700 2292 L
3700 2292 mt 3725 2398 L
3725 2398 mt 3682 2424 L
3682 2424 mt 3577 2463 L
3577 2463 mt 3471 2424 L
3471 2424 mt 3428 2398 L
3428 2398 mt 3453 2292 L
3453 2292 mt 3471 2265 L
3471 2276 mt 3577 2218 L
3577 2218 mt 3682 2276 L
3682 2276 mt 3693 2292 L
3693 2292 mt 3722 2398 L
3722 2398 mt 3682 2421 L
3682 2421 mt 3577 2462 L
3577 2462 mt 3471 2421 L
3471 2421 mt 3431 2398 L
3431 2398 mt 3460 2292 L
3460 2292 mt 3471 2276 L
3471 2287 mt 3577 2224 L
3577 2224 mt 3682 2287 L
3682 2287 mt 3686 2292 L
3686 2292 mt 3718 2398 L
3718 2398 mt 3682 2419 L
3682 2419 mt 3577 2461 L
3577 2461 mt 3471 2419 L
3471 2419 mt 3435 2398 L
3435 2398 mt 3467 2292 L
3467 2292 mt 3471 2287 L
3471 2297 mt 3476 2292 L
3476 2292 mt 3577 2231 L
3577 2231 mt 3677 2292 L
3677 2292 mt 3682 2297 L
3682 2297 mt 3715 2398 L
3715 2398 mt 3682 2417 L
3682 2417 mt 3577 2460 L
3577 2460 mt 3471 2417 L
3471 2417 mt 3438 2398 L
3438 2398 mt 3471 2297 L
3471 2308 mt 3487 2292 L
3487 2292 mt 3577 2237 L
3577 2237 mt 3666 2292 L
3666 2292 mt 3682 2308 L
3682 2308 mt 3711 2398 L
3711 2398 mt 3682 2415 L
3682 2415 mt 3577 2459 L
3577 2459 mt 3471 2415 L
3471 2415 mt 3442 2398 L
3442 2398 mt 3471 2308 L
3471 2319 mt 3497 2292 L
3497 2292 mt 3577 2244 L
3577 2244 mt 3656 2292 L
3656 2292 mt 3682 2319 L
3682 2319 mt 3708 2398 L
3708 2398 mt 3682 2413 L
3682 2413 mt 3577 2458 L
3577 2458 mt 3471 2413 L
3471 2413 mt 3445 2398 L
3445 2398 mt 3471 2319 L
3471 2330 mt 3508 2292 L
3508 2292 mt 3577 2250 L
3577 2250 mt 3645 2292 L
3645 2292 mt 3682 2330 L
3682 2330 mt 3704 2398 L
3704 2398 mt 3682 2411 L
3682 2411 mt 3577 2457 L
3577 2457 mt 3471 2411 L
3471 2411 mt 3449 2398 L
3449 2398 mt 3471 2330 L
3471 2341 mt 3518 2292 L
3518 2292 mt 3577 2257 L
3577 2257 mt 3635 2292 L
3635 2292 mt 3682 2341 L
3682 2341 mt 3701 2398 L
3701 2398 mt 3682 2409 L
3682 2409 mt 3577 2456 L
3577 2456 mt 3471 2409 L
3471 2409 mt 3452 2398 L
3452 2398 mt 3471 2341 L
3471 2352 mt 3529 2292 L
3529 2292 mt 3577 2263 L
3577 2263 mt 3624 2292 L
3624 2292 mt 3682 2352 L
3682 2352 mt 3697 2398 L
3697 2398 mt 3682 2407 L
3682 2407 mt 3577 2455 L
3577 2455 mt 3471 2407 L
3471 2407 mt 3456 2398 L
3456 2398 mt 3471 2352 L
3471 2362 mt 3539 2292 L
3539 2292 mt 3577 2269 L
3577 2269 mt 3614 2292 L
3614 2292 mt 3682 2362 L
3682 2362 mt 3694 2398 L
3694 2398 mt 3682 2405 L
3682 2405 mt 3577 2454 L
3577 2454 mt 3471 2405 L
3471 2405 mt 3459 2398 L
3459 2398 mt 3471 2362 L
3471 2373 mt 3550 2292 L
3550 2292 mt 3577 2276 L
3577 2276 mt 3603 2292 L
3603 2292 mt 3682 2373 L
3682 2373 mt 3690 2398 L
3690 2398 mt 3682 2402 L
3682 2402 mt 3577 2453 L
3577 2453 mt 3471 2402 L
3471 2402 mt 3463 2398 L
3463 2398 mt 3471 2373 L
3471 2384 mt 3561 2292 L
3561 2292 mt 3577 2282 L
3577 2282 mt 3592 2292 L
3592 2292 mt 3682 2384 L
3682 2384 mt 3687 2398 L
3687 2398 mt 3682 2400 L
3682 2400 mt 3577 2452 L
3577 2452 mt 3471 2400 L
3471 2400 mt 3466 2398 L
3466 2398 mt 3471 2384 L
3471 2395 mt 3571 2292 L
3571 2292 mt 3577 2289 L
3577 2289 mt 3582 2292 L
3582 2292 mt 3682 2395 L
3682 2395 mt 3683 2398 L
3683 2398 mt 3682 2398 L
3682 2398 mt 3577 2451 L
3577 2451 mt 3471 2398 L
3471 2398 mt 3470 2398 L
3470 2398 mt 3471 2395 L
gr


end

eplot
%%EndObject

epage
end

showpage

%%Trailer
%%EOF
