%!PS-Adobe-2.0 EPSF-2.0
%%Title: shefprotocol.dia
%%Creator: Dia v0.91
%%CreationDate: Tue Nov 18 22:15:43 2003
%%For: bill
%%Orientation: Portrait
%%Magnification: 1.0000
%%BoundingBox: 0 0 438 438
%%BeginSetup
%%EndSetup
%%EndComments
%%BeginProlog
[ /.notdef /.notdef /.notdef /.notdef /.notdef /.notdef /.notdef /.notdef /.notdef /.notdef
/.notdef /.notdef /.notdef /.notdef /.notdef /.notdef /.notdef /.notdef /.notdef /.notdef
/.notdef /.notdef /.notdef /.notdef /.notdef /.notdef /.notdef /.notdef /.notdef /.notdef
/.notdef /.notdef /space /exclam /quotedbl /numbersign /dollar /percent /ampersand /quoteright
/parenleft /parenright /asterisk /plus /comma /hyphen /period /slash /zero /one
/two /three /four /five /six /seven /eight /nine /colon /semicolon
/less /equal /greater /question /at /A /B /C /D /E
/F /G /H /I /J /K /L /M /N /O
/P /Q /R /S /T /U /V /W /X /Y
/Z /bracketleft /backslash /bracketright /asciicircum /underscore /quoteleft /a /b /c
/d /e /f /g /h /i /j /k /l /m
/n /o /p /q /r /s /t /u /v /w
/x /y /z /braceleft /bar /braceright /asciitilde /.notdef /.notdef /.notdef
/.notdef /.notdef /.notdef /.notdef /.notdef /.notdef /.notdef /.notdef /.notdef /.notdef
/.notdef /.notdef /.notdef /.notdef /.notdef /.notdef /.notdef /.notdef /.notdef /.notdef
/.notdef /.notdef /.notdef /.notdef /.notdef /.notdef /.notdef /.notdef /.notdef /.notdef
/space /exclamdown /cent /sterling /currency /yen /brokenbar /section /dieresis /copyright
/ordfeminine /guillemotleft /logicalnot /hyphen /registered /macron /degree /plusminus /twosuperior /threesuperior
/acute /mu /paragraph /periodcentered /cedilla /onesuperior /ordmasculine /guillemotright /onequarter /onehalf
/threequarters /questiondown /Agrave /Aacute /Acircumflex /Atilde /Adieresis /Aring /AE /Ccedilla
/Egrave /Eacute /Ecircumflex /Edieresis /Igrave /Iacute /Icircumflex /Idieresis /Eth /Ntilde
/Ograve /Oacute /Ocircumflex /Otilde /Odieresis /multiply /Oslash /Ugrave /Uacute /Ucircumflex
/Udieresis /Yacute /Thorn /germandbls /agrave /aacute /acircumflex /atilde /adieresis /aring
/ae /ccedilla /egrave /eacute /ecircumflex /edieresis /igrave /iacute /icircumflex /idieresis
/eth /ntilde /ograve /oacute /ocircumflex /otilde /odieresis /divide /oslash /ugrave
/uacute /ucircumflex /udieresis /yacute /thorn /ydieresis] /isolatin1encoding exch def
/cp {closepath} bind def
/c {curveto} bind def
/f {fill} bind def
/a {arc} bind def
/ef {eofill} bind def
/ex {exch} bind def
/gr {grestore} bind def
/gs {gsave} bind def
/sa {save} bind def
/rs {restore} bind def
/l {lineto} bind def
/m {moveto} bind def
/rm {rmoveto} bind def
/n {newpath} bind def
/s {stroke} bind def
/sh {show} bind def
/slc {setlinecap} bind def
/slj {setlinejoin} bind def
/slw {setlinewidth} bind def
/srgb {setrgbcolor} bind def
/rot {rotate} bind def
/sc {scale} bind def
/sd {setdash} bind def
/ff {findfont} bind def
/sf {setfont} bind def
/scf {scalefont} bind def
/sw {stringwidth pop} bind def
/tr {translate} bind def

/ellipsedict 8 dict def
ellipsedict /mtrx matrix put
/ellipse
{ ellipsedict begin
   /endangle exch def
   /startangle exch def
   /yrad exch def
   /xrad exch def
   /y exch def
   /x exch def   /savematrix mtrx currentmatrix def
   x y tr xrad yrad sc
   0 0 1 startangle endangle arc
   savematrix setmatrix
   end
} def

/mergeprocs {
dup length
3 -1 roll
dup
length
dup
5 1 roll
3 -1 roll
add
array cvx
dup
3 -1 roll
0 exch
putinterval
dup
4 2 roll
putinterval
} bind def
/dpi_x 300 def
/dpi_y 300 def
/conicto {
    /to_y exch def
    /to_x exch def
    /conic_cntrl_y exch def
    /conic_cntrl_x exch def
    currentpoint
    /p0_y exch def
    /p0_x exch def
    /p1_x p0_x conic_cntrl_x p0_x sub 2 3 div mul add def
    /p1_y p0_y conic_cntrl_y p0_y sub 2 3 div mul add def
    /p2_x p1_x to_x p0_x sub 1 3 div mul add def
    /p2_y p1_y to_y p0_y sub 1 3 div mul add def
    p1_x p1_y p2_x p2_y to_x to_y curveto
} bind def
/start_ol { gsave 1.1 dpi_x div dup scale} bind def
/end_ol { closepath fill grestore } bind def
28.346000 -28.346000 scale
-0.950000 -16.397277 translate
%%EndProlog


0.100000 slw
[] 0 sd
[] 0 sd
0 slc
0 slj
0 slc
0 slj
[] 0 sd
0.000000 0.000000 0.000000 srgb
n 1.170057 1.170057 0.170056 0.170056 0 360 ellipse cp s
0.010000 slw
0 slc
0 slj
[] 0 sd
n 1.170057 1.170057 0.170056 0.170056 0 360 ellipse cp s
0.100000 slw
[] 0 sd
[] 0 sd
0 slc
0 slj
0 slc
0 slj
[] 0 sd
n 2.173639 1.173639 0.173639 0.173639 0 360 ellipse cp s
0.010000 slw
0 slc
0 slj
[] 0 sd
n 2.173639 1.173639 0.173639 0.173639 0 360 ellipse cp s
0.100000 slw
[] 0 sd
[] 0 sd
0 slc
0 slj
0 slc
0 slj
[] 0 sd
n 11.170056 1.170057 0.170056 0.170056 0 360 ellipse f
n 11.170056 1.170057 0.170056 0.170056 0 360 ellipse cp s
0.010000 slw
0 slc
0 slj
[] 0 sd
n 11.170056 1.170057 0.170056 0.170056 0 360 ellipse cp s
0.100000 slw
[] 0 sd
[] 0 sd
0 slc
0 slj
0 slc
0 slj
[] 0 sd
n 12.170056 1.170057 0.170056 0.170056 0 360 ellipse f
n 12.170056 1.170057 0.170056 0.170056 0 360 ellipse cp s
0.010000 slw
0 slc
0 slj
[] 0 sd
n 12.170056 1.170057 0.170056 0.170056 0 360 ellipse cp s
0.100000 slw
[] 0 sd
[] 0 sd
0 slc
0 slj
0 slc
0 slj
[] 0 sd
n 13.170056 1.170057 0.170056 0.170056 0 360 ellipse f
n 13.170056 1.170057 0.170056 0.170056 0 360 ellipse cp s
0.010000 slw
0 slc
0 slj
[] 0 sd
n 13.170056 1.170057 0.170056 0.170056 0 360 ellipse cp s
0.100000 slw
[] 0 sd
[] 0 sd
0 slc
0 slj
0 slc
0 slj
[] 0 sd
n 3.170057 1.170057 0.170056 0.170056 0 360 ellipse f
n 3.170057 1.170057 0.170056 0.170056 0 360 ellipse cp s
0.010000 slw
0 slc
0 slj
[] 0 sd
n 3.170057 1.170057 0.170056 0.170056 0 360 ellipse cp s
0.100000 slw
[] 0 sd
[] 0 sd
0 slc
0 slj
0 slc
0 slj
[] 0 sd
n 4.170057 1.170057 0.170056 0.170056 0 360 ellipse f
n 4.170057 1.170057 0.170056 0.170056 0 360 ellipse cp s
0.010000 slw
0 slc
0 slj
[] 0 sd
n 4.170057 1.170057 0.170056 0.170056 0 360 ellipse cp s
0.100000 slw
[] 0 sd
[] 0 sd
0 slc
0 slj
0 slc
0 slj
[] 0 sd
n 5.170057 1.170057 0.170056 0.170056 0 360 ellipse f
n 5.170057 1.170057 0.170056 0.170056 0 360 ellipse cp s
0.010000 slw
0 slc
0 slj
[] 0 sd
n 5.170057 1.170057 0.170056 0.170056 0 360 ellipse cp s
0.100000 slw
[] 0 sd
[] 0 sd
0 slc
0 slj
0 slc
0 slj
[] 0 sd
n 6.173639 1.173639 0.173639 0.173639 0 360 ellipse f
n 6.173639 1.173639 0.173639 0.173639 0 360 ellipse cp s
0.010000 slw
0 slc
0 slj
[] 0 sd
n 6.173639 1.173639 0.173639 0.173639 0 360 ellipse cp s
0.100000 slw
[] 0 sd
[] 0 sd
0 slc
0 slj
0 slc
0 slj
[] 0 sd
n 7.170057 1.170057 0.170056 0.170056 0 360 ellipse f
n 7.170057 1.170057 0.170056 0.170056 0 360 ellipse cp s
0.010000 slw
0 slc
0 slj
[] 0 sd
n 7.170057 1.170057 0.170056 0.170056 0 360 ellipse cp s
0.100000 slw
[] 0 sd
[] 0 sd
0 slc
0 slj
0 slc
0 slj
[] 0 sd
n 8.170057 1.170057 0.170056 0.170056 0 360 ellipse f
n 8.170057 1.170057 0.170056 0.170056 0 360 ellipse cp s
0.010000 slw
0 slc
0 slj
[] 0 sd
n 8.170057 1.170057 0.170056 0.170056 0 360 ellipse cp s
0.100000 slw
[] 0 sd
[] 0 sd
0 slc
0 slj
0 slc
0 slj
[] 0 sd
n 9.170056 1.170057 0.170056 0.170056 0 360 ellipse f
n 9.170056 1.170057 0.170056 0.170056 0 360 ellipse cp s
0.010000 slw
0 slc
0 slj
[] 0 sd
n 9.170056 1.170057 0.170056 0.170056 0 360 ellipse cp s
0.100000 slw
[] 0 sd
[] 0 sd
0 slc
0 slj
0 slc
0 slj
[] 0 sd
n 10.173639 1.173639 0.173639 0.173639 0 360 ellipse f
n 10.173639 1.173639 0.173639 0.173639 0 360 ellipse cp s
0.010000 slw
0 slc
0 slj
[] 0 sd
n 10.173639 1.173639 0.173639 0.173639 0 360 ellipse cp s
0.100000 slw
[] 0 sd
[] 0 sd
0 slc
0 slj
0 slc
0 slj
[] 0 sd
n 2.170057 2.170057 0.170056 0.170056 0 360 ellipse cp s
0.010000 slw
0 slc
0 slj
[] 0 sd
n 2.170057 2.170057 0.170056 0.170056 0 360 ellipse cp s
0.100000 slw
[] 0 sd
[] 0 sd
0 slc
0 slj
0 slc
0 slj
[] 0 sd
n 3.173639 2.173639 0.173639 0.173639 0 360 ellipse cp s
0.010000 slw
0 slc
0 slj
[] 0 sd
n 3.173639 2.173639 0.173639 0.173639 0 360 ellipse cp s
0.100000 slw
[] 0 sd
[] 0 sd
0 slc
0 slj
0 slc
0 slj
[] 0 sd
n 12.170056 2.170057 0.170056 0.170056 0 360 ellipse f
n 12.170056 2.170057 0.170056 0.170056 0 360 ellipse cp s
0.010000 slw
0 slc
0 slj
[] 0 sd
n 12.170056 2.170057 0.170056 0.170056 0 360 ellipse cp s
0.100000 slw
[] 0 sd
[] 0 sd
0 slc
0 slj
0 slc
0 slj
[] 0 sd
n 13.170056 2.170057 0.170056 0.170056 0 360 ellipse f
n 13.170056 2.170057 0.170056 0.170056 0 360 ellipse cp s
0.010000 slw
0 slc
0 slj
[] 0 sd
n 13.170056 2.170057 0.170056 0.170056 0 360 ellipse cp s
0.100000 slw
[] 0 sd
[] 0 sd
0 slc
0 slj
0 slc
0 slj
[] 0 sd
n 1.173639 2.173639 0.173639 0.173639 0 360 ellipse cp s
0.010000 slw
0 slc
0 slj
[] 0 sd
n 1.173639 2.173639 0.173639 0.173639 0 360 ellipse cp s
0.100000 slw
[] 0 sd
[] 0 sd
0 slc
0 slj
0 slc
0 slj
[] 0 sd
n 4.170057 2.170057 0.170056 0.170056 0 360 ellipse f
n 4.170057 2.170057 0.170056 0.170056 0 360 ellipse cp s
0.010000 slw
0 slc
0 slj
[] 0 sd
n 4.170057 2.170057 0.170056 0.170056 0 360 ellipse cp s
0.100000 slw
[] 0 sd
[] 0 sd
0 slc
0 slj
0 slc
0 slj
[] 0 sd
n 5.170057 2.170057 0.170056 0.170056 0 360 ellipse f
n 5.170057 2.170057 0.170056 0.170056 0 360 ellipse cp s
0.010000 slw
0 slc
0 slj
[] 0 sd
n 5.170057 2.170057 0.170056 0.170056 0 360 ellipse cp s
0.100000 slw
[] 0 sd
[] 0 sd
0 slc
0 slj
0 slc
0 slj
[] 0 sd
n 6.170057 2.170057 0.170056 0.170056 0 360 ellipse f
n 6.170057 2.170057 0.170056 0.170056 0 360 ellipse cp s
0.010000 slw
0 slc
0 slj
[] 0 sd
n 6.170057 2.170057 0.170056 0.170056 0 360 ellipse cp s
0.100000 slw
[] 0 sd
[] 0 sd
0 slc
0 slj
0 slc
0 slj
[] 0 sd
n 7.173639 2.173639 0.173639 0.173639 0 360 ellipse f
n 7.173639 2.173639 0.173639 0.173639 0 360 ellipse cp s
0.010000 slw
0 slc
0 slj
[] 0 sd
n 7.173639 2.173639 0.173639 0.173639 0 360 ellipse cp s
0.100000 slw
[] 0 sd
[] 0 sd
0 slc
0 slj
0 slc
0 slj
[] 0 sd
n 8.170057 2.170057 0.170056 0.170056 0 360 ellipse f
n 8.170057 2.170057 0.170056 0.170056 0 360 ellipse cp s
0.010000 slw
0 slc
0 slj
[] 0 sd
n 8.170057 2.170057 0.170056 0.170056 0 360 ellipse cp s
0.100000 slw
[] 0 sd
[] 0 sd
0 slc
0 slj
0 slc
0 slj
[] 0 sd
n 9.170056 2.170057 0.170056 0.170056 0 360 ellipse f
n 9.170056 2.170057 0.170056 0.170056 0 360 ellipse cp s
0.010000 slw
0 slc
0 slj
[] 0 sd
n 9.170056 2.170057 0.170056 0.170056 0 360 ellipse cp s
0.100000 slw
[] 0 sd
[] 0 sd
0 slc
0 slj
0 slc
0 slj
[] 0 sd
n 10.170056 2.170057 0.170056 0.170056 0 360 ellipse f
n 10.170056 2.170057 0.170056 0.170056 0 360 ellipse cp s
0.010000 slw
0 slc
0 slj
[] 0 sd
n 10.170056 2.170057 0.170056 0.170056 0 360 ellipse cp s
0.100000 slw
[] 0 sd
[] 0 sd
0 slc
0 slj
0 slc
0 slj
[] 0 sd
n 11.173639 2.173639 0.173639 0.173639 0 360 ellipse f
n 11.173639 2.173639 0.173639 0.173639 0 360 ellipse cp s
0.010000 slw
0 slc
0 slj
[] 0 sd
n 11.173639 2.173639 0.173639 0.173639 0 360 ellipse cp s
0.100000 slw
[] 0 sd
[] 0 sd
0 slc
0 slj
0 slc
0 slj
[] 0 sd
n 3.170057 3.170057 0.170056 0.170056 0 360 ellipse cp s
0.010000 slw
0 slc
0 slj
[] 0 sd
n 3.170057 3.170057 0.170056 0.170056 0 360 ellipse cp s
0.100000 slw
[] 0 sd
[] 0 sd
0 slc
0 slj
0 slc
0 slj
[] 0 sd
n 4.173639 3.173639 0.173639 0.173639 0 360 ellipse cp s
0.010000 slw
0 slc
0 slj
[] 0 sd
n 4.173639 3.173639 0.173639 0.173639 0 360 ellipse cp s
0.100000 slw
[] 0 sd
[] 0 sd
0 slc
0 slj
0 slc
0 slj
[] 0 sd
n 13.170056 3.170057 0.170056 0.170056 0 360 ellipse f
n 13.170056 3.170057 0.170056 0.170056 0 360 ellipse cp s
0.010000 slw
0 slc
0 slj
[] 0 sd
n 13.170056 3.170057 0.170056 0.170056 0 360 ellipse cp s
0.100000 slw
[] 0 sd
[] 0 sd
0 slc
0 slj
0 slc
0 slj
[] 0 sd
n 1.170057 3.170057 0.170056 0.170056 0 360 ellipse f
n 1.170057 3.170057 0.170056 0.170056 0 360 ellipse cp s
0.010000 slw
0 slc
0 slj
[] 0 sd
n 1.170057 3.170057 0.170056 0.170056 0 360 ellipse cp s
0.100000 slw
[] 0 sd
[] 0 sd
0 slc
0 slj
0 slc
0 slj
[] 0 sd
n 2.173639 3.173639 0.173639 0.173639 0 360 ellipse cp s
0.010000 slw
0 slc
0 slj
[] 0 sd
n 2.173639 3.173639 0.173639 0.173639 0 360 ellipse cp s
0.100000 slw
[] 0 sd
[] 0 sd
0 slc
0 slj
0 slc
0 slj
[] 0 sd
n 5.170057 3.170057 0.170056 0.170056 0 360 ellipse f
n 5.170057 3.170057 0.170056 0.170056 0 360 ellipse cp s
0.010000 slw
0 slc
0 slj
[] 0 sd
n 5.170057 3.170057 0.170056 0.170056 0 360 ellipse cp s
0.100000 slw
[] 0 sd
[] 0 sd
0 slc
0 slj
0 slc
0 slj
[] 0 sd
n 6.170057 3.170057 0.170056 0.170056 0 360 ellipse f
n 6.170057 3.170057 0.170056 0.170056 0 360 ellipse cp s
0.010000 slw
0 slc
0 slj
[] 0 sd
n 6.170057 3.170057 0.170056 0.170056 0 360 ellipse cp s
0.100000 slw
[] 0 sd
[] 0 sd
0 slc
0 slj
0 slc
0 slj
[] 0 sd
n 7.170057 3.170057 0.170056 0.170056 0 360 ellipse f
n 7.170057 3.170057 0.170056 0.170056 0 360 ellipse cp s
0.010000 slw
0 slc
0 slj
[] 0 sd
n 7.170057 3.170057 0.170056 0.170056 0 360 ellipse cp s
0.100000 slw
[] 0 sd
[] 0 sd
0 slc
0 slj
0 slc
0 slj
[] 0 sd
n 8.173639 3.173639 0.173639 0.173639 0 360 ellipse f
n 8.173639 3.173639 0.173639 0.173639 0 360 ellipse cp s
0.010000 slw
0 slc
0 slj
[] 0 sd
n 8.173639 3.173639 0.173639 0.173639 0 360 ellipse cp s
0.100000 slw
[] 0 sd
[] 0 sd
0 slc
0 slj
0 slc
0 slj
[] 0 sd
n 9.170056 3.170057 0.170056 0.170056 0 360 ellipse f
n 9.170056 3.170057 0.170056 0.170056 0 360 ellipse cp s
0.010000 slw
0 slc
0 slj
[] 0 sd
n 9.170056 3.170057 0.170056 0.170056 0 360 ellipse cp s
0.100000 slw
[] 0 sd
[] 0 sd
0 slc
0 slj
0 slc
0 slj
[] 0 sd
n 10.170056 3.170057 0.170056 0.170056 0 360 ellipse f
n 10.170056 3.170057 0.170056 0.170056 0 360 ellipse cp s
0.010000 slw
0 slc
0 slj
[] 0 sd
n 10.170056 3.170057 0.170056 0.170056 0 360 ellipse cp s
0.100000 slw
[] 0 sd
[] 0 sd
0 slc
0 slj
0 slc
0 slj
[] 0 sd
n 11.170056 3.170057 0.170056 0.170056 0 360 ellipse f
n 11.170056 3.170057 0.170056 0.170056 0 360 ellipse cp s
0.010000 slw
0 slc
0 slj
[] 0 sd
n 11.170056 3.170057 0.170056 0.170056 0 360 ellipse cp s
0.100000 slw
[] 0 sd
[] 0 sd
0 slc
0 slj
0 slc
0 slj
[] 0 sd
n 12.173639 3.173639 0.173639 0.173639 0 360 ellipse f
n 12.173639 3.173639 0.173639 0.173639 0 360 ellipse cp s
0.010000 slw
0 slc
0 slj
[] 0 sd
n 12.173639 3.173639 0.173639 0.173639 0 360 ellipse cp s
0.100000 slw
[] 0 sd
[] 0 sd
0 slc
0 slj
0 slc
0 slj
[] 0 sd
n 4.170057 4.170057 0.170056 0.170056 0 360 ellipse cp s
0.010000 slw
0 slc
0 slj
[] 0 sd
n 4.170057 4.170057 0.170056 0.170056 0 360 ellipse cp s
0.100000 slw
[] 0 sd
[] 0 sd
0 slc
0 slj
0 slc
0 slj
[] 0 sd
n 5.173639 4.173639 0.173639 0.173639 0 360 ellipse cp s
0.010000 slw
0 slc
0 slj
[] 0 sd
n 5.173639 4.173639 0.173639 0.173639 0 360 ellipse cp s
0.100000 slw
[] 0 sd
[] 0 sd
0 slc
0 slj
0 slc
0 slj
[] 0 sd
n 1.170057 4.170057 0.170056 0.170056 0 360 ellipse f
n 1.170057 4.170057 0.170056 0.170056 0 360 ellipse cp s
0.010000 slw
0 slc
0 slj
[] 0 sd
n 1.170057 4.170057 0.170056 0.170056 0 360 ellipse cp s
0.100000 slw
[] 0 sd
[] 0 sd
0 slc
0 slj
0 slc
0 slj
[] 0 sd
n 2.170057 4.170057 0.170056 0.170056 0 360 ellipse f
n 2.170057 4.170057 0.170056 0.170056 0 360 ellipse cp s
0.010000 slw
0 slc
0 slj
[] 0 sd
n 2.170057 4.170057 0.170056 0.170056 0 360 ellipse cp s
0.100000 slw
[] 0 sd
[] 0 sd
0 slc
0 slj
0 slc
0 slj
[] 0 sd
n 3.173639 4.173639 0.173639 0.173639 0 360 ellipse cp s
0.010000 slw
0 slc
0 slj
[] 0 sd
n 3.173639 4.173639 0.173639 0.173639 0 360 ellipse cp s
0.100000 slw
[] 0 sd
[] 0 sd
0 slc
0 slj
0 slc
0 slj
[] 0 sd
n 6.170057 4.170057 0.170056 0.170056 0 360 ellipse f
n 6.170057 4.170057 0.170056 0.170056 0 360 ellipse cp s
0.010000 slw
0 slc
0 slj
[] 0 sd
n 6.170057 4.170057 0.170056 0.170056 0 360 ellipse cp s
0.100000 slw
[] 0 sd
[] 0 sd
0 slc
0 slj
0 slc
0 slj
[] 0 sd
n 7.170057 4.170057 0.170056 0.170056 0 360 ellipse f
n 7.170057 4.170057 0.170056 0.170056 0 360 ellipse cp s
0.010000 slw
0 slc
0 slj
[] 0 sd
n 7.170057 4.170057 0.170056 0.170056 0 360 ellipse cp s
0.100000 slw
[] 0 sd
[] 0 sd
0 slc
0 slj
0 slc
0 slj
[] 0 sd
n 8.170057 4.170057 0.170056 0.170056 0 360 ellipse f
n 8.170057 4.170057 0.170056 0.170056 0 360 ellipse cp s
0.010000 slw
0 slc
0 slj
[] 0 sd
n 8.170057 4.170057 0.170056 0.170056 0 360 ellipse cp s
0.100000 slw
[] 0 sd
[] 0 sd
0 slc
0 slj
0 slc
0 slj
[] 0 sd
n 9.173639 4.173639 0.173639 0.173639 0 360 ellipse f
n 9.173639 4.173639 0.173639 0.173639 0 360 ellipse cp s
0.010000 slw
0 slc
0 slj
[] 0 sd
n 9.173639 4.173639 0.173639 0.173639 0 360 ellipse cp s
0.100000 slw
[] 0 sd
[] 0 sd
0 slc
0 slj
0 slc
0 slj
[] 0 sd
n 10.170056 4.170057 0.170056 0.170056 0 360 ellipse f
n 10.170056 4.170057 0.170056 0.170056 0 360 ellipse cp s
0.010000 slw
0 slc
0 slj
[] 0 sd
n 10.170056 4.170057 0.170056 0.170056 0 360 ellipse cp s
0.100000 slw
[] 0 sd
[] 0 sd
0 slc
0 slj
0 slc
0 slj
[] 0 sd
n 11.170056 4.170057 0.170056 0.170056 0 360 ellipse f
n 11.170056 4.170057 0.170056 0.170056 0 360 ellipse cp s
0.010000 slw
0 slc
0 slj
[] 0 sd
n 11.170056 4.170057 0.170056 0.170056 0 360 ellipse cp s
0.100000 slw
[] 0 sd
[] 0 sd
0 slc
0 slj
0 slc
0 slj
[] 0 sd
n 12.170056 4.170057 0.170056 0.170056 0 360 ellipse f
n 12.170056 4.170057 0.170056 0.170056 0 360 ellipse cp s
0.010000 slw
0 slc
0 slj
[] 0 sd
n 12.170056 4.170057 0.170056 0.170056 0 360 ellipse cp s
0.100000 slw
[] 0 sd
[] 0 sd
0 slc
0 slj
0 slc
0 slj
[] 0 sd
n 13.173639 4.173639 0.173639 0.173639 0 360 ellipse f
n 13.173639 4.173639 0.173639 0.173639 0 360 ellipse cp s
0.010000 slw
0 slc
0 slj
[] 0 sd
n 13.173639 4.173639 0.173639 0.173639 0 360 ellipse cp s
0.100000 slw
[] 0 sd
[] 0 sd
0 slc
0 slj
0 slc
0 slj
[] 0 sd
n 5.170057 5.170057 0.170056 0.170056 0 360 ellipse cp s
0.010000 slw
0 slc
0 slj
[] 0 sd
n 5.170057 5.170057 0.170056 0.170056 0 360 ellipse cp s
0.100000 slw
[] 0 sd
[] 0 sd
0 slc
0 slj
0 slc
0 slj
[] 0 sd
n 6.173639 5.173639 0.173639 0.173639 0 360 ellipse cp s
0.010000 slw
0 slc
0 slj
[] 0 sd
n 6.173639 5.173639 0.173639 0.173639 0 360 ellipse cp s
0.100000 slw
[] 0 sd
[] 0 sd
0 slc
0 slj
0 slc
0 slj
[] 0 sd
n 1.170057 5.170057 0.170056 0.170056 0 360 ellipse f
n 1.170057 5.170057 0.170056 0.170056 0 360 ellipse cp s
0.010000 slw
0 slc
0 slj
[] 0 sd
n 1.170057 5.170057 0.170056 0.170056 0 360 ellipse cp s
0.100000 slw
[] 0 sd
[] 0 sd
0 slc
0 slj
0 slc
0 slj
[] 0 sd
n 2.170057 5.170057 0.170056 0.170056 0 360 ellipse f
n 2.170057 5.170057 0.170056 0.170056 0 360 ellipse cp s
0.010000 slw
0 slc
0 slj
[] 0 sd
n 2.170057 5.170057 0.170056 0.170056 0 360 ellipse cp s
0.100000 slw
[] 0 sd
[] 0 sd
0 slc
0 slj
0 slc
0 slj
[] 0 sd
n 3.170057 5.170057 0.170056 0.170056 0 360 ellipse f
n 3.170057 5.170057 0.170056 0.170056 0 360 ellipse cp s
0.010000 slw
0 slc
0 slj
[] 0 sd
n 3.170057 5.170057 0.170056 0.170056 0 360 ellipse cp s
0.100000 slw
[] 0 sd
[] 0 sd
0 slc
0 slj
0 slc
0 slj
[] 0 sd
n 4.173639 5.173639 0.173639 0.173639 0 360 ellipse cp s
0.010000 slw
0 slc
0 slj
[] 0 sd
n 4.173639 5.173639 0.173639 0.173639 0 360 ellipse cp s
0.100000 slw
[] 0 sd
[] 0 sd
0 slc
0 slj
0 slc
0 slj
[] 0 sd
n 7.170057 5.170057 0.170056 0.170056 0 360 ellipse f
n 7.170057 5.170057 0.170056 0.170056 0 360 ellipse cp s
0.010000 slw
0 slc
0 slj
[] 0 sd
n 7.170057 5.170057 0.170056 0.170056 0 360 ellipse cp s
0.100000 slw
[] 0 sd
[] 0 sd
0 slc
0 slj
0 slc
0 slj
[] 0 sd
n 8.170057 5.170057 0.170056 0.170056 0 360 ellipse f
n 8.170057 5.170057 0.170056 0.170056 0 360 ellipse cp s
0.010000 slw
0 slc
0 slj
[] 0 sd
n 8.170057 5.170057 0.170056 0.170056 0 360 ellipse cp s
0.100000 slw
[] 0 sd
[] 0 sd
0 slc
0 slj
0 slc
0 slj
[] 0 sd
n 9.170056 5.170057 0.170056 0.170056 0 360 ellipse f
n 9.170056 5.170057 0.170056 0.170056 0 360 ellipse cp s
0.010000 slw
0 slc
0 slj
[] 0 sd
n 9.170056 5.170057 0.170056 0.170056 0 360 ellipse cp s
0.100000 slw
[] 0 sd
[] 0 sd
0 slc
0 slj
0 slc
0 slj
[] 0 sd
n 10.173639 5.173639 0.173639 0.173639 0 360 ellipse f
n 10.173639 5.173639 0.173639 0.173639 0 360 ellipse cp s
0.010000 slw
0 slc
0 slj
[] 0 sd
n 10.173639 5.173639 0.173639 0.173639 0 360 ellipse cp s
0.100000 slw
[] 0 sd
[] 0 sd
0 slc
0 slj
0 slc
0 slj
[] 0 sd
n 11.170056 5.170057 0.170056 0.170056 0 360 ellipse f
n 11.170056 5.170057 0.170056 0.170056 0 360 ellipse cp s
0.010000 slw
0 slc
0 slj
[] 0 sd
n 11.170056 5.170057 0.170056 0.170056 0 360 ellipse cp s
0.100000 slw
[] 0 sd
[] 0 sd
0 slc
0 slj
0 slc
0 slj
[] 0 sd
n 12.170056 5.170057 0.170056 0.170056 0 360 ellipse f
n 12.170056 5.170057 0.170056 0.170056 0 360 ellipse cp s
0.010000 slw
0 slc
0 slj
[] 0 sd
n 12.170056 5.170057 0.170056 0.170056 0 360 ellipse cp s
0.100000 slw
[] 0 sd
[] 0 sd
0 slc
0 slj
0 slc
0 slj
[] 0 sd
n 13.170056 5.170057 0.170056 0.170056 0 360 ellipse f
n 13.170056 5.170057 0.170056 0.170056 0 360 ellipse cp s
0.010000 slw
0 slc
0 slj
[] 0 sd
n 13.170056 5.170057 0.170056 0.170056 0 360 ellipse cp s
0.100000 slw
[] 0 sd
[] 0 sd
0 slc
0 slj
0 slc
0 slj
[] 0 sd
n 6.170057 6.170057 0.170056 0.170056 0 360 ellipse cp s
0.010000 slw
0 slc
0 slj
[] 0 sd
n 6.170057 6.170057 0.170056 0.170056 0 360 ellipse cp s
0.100000 slw
[] 0 sd
[] 0 sd
0 slc
0 slj
0 slc
0 slj
[] 0 sd
n 7.173639 6.173639 0.173639 0.173639 0 360 ellipse cp s
0.010000 slw
0 slc
0 slj
[] 0 sd
n 7.173639 6.173639 0.173639 0.173639 0 360 ellipse cp s
0.100000 slw
[] 0 sd
[] 0 sd
0 slc
0 slj
0 slc
0 slj
[] 0 sd
n 1.170057 6.170057 0.170056 0.170056 0 360 ellipse f
n 1.170057 6.170057 0.170056 0.170056 0 360 ellipse cp s
0.010000 slw
0 slc
0 slj
[] 0 sd
n 1.170057 6.170057 0.170056 0.170056 0 360 ellipse cp s
0.100000 slw
[] 0 sd
[] 0 sd
0 slc
0 slj
0 slc
0 slj
[] 0 sd
n 2.170057 6.170057 0.170056 0.170056 0 360 ellipse f
n 2.170057 6.170057 0.170056 0.170056 0 360 ellipse cp s
0.010000 slw
0 slc
0 slj
[] 0 sd
n 2.170057 6.170057 0.170056 0.170056 0 360 ellipse cp s
0.100000 slw
[] 0 sd
[] 0 sd
0 slc
0 slj
0 slc
0 slj
[] 0 sd
n 3.170057 6.170057 0.170056 0.170056 0 360 ellipse f
n 3.170057 6.170057 0.170056 0.170056 0 360 ellipse cp s
0.010000 slw
0 slc
0 slj
[] 0 sd
n 3.170057 6.170057 0.170056 0.170056 0 360 ellipse cp s
0.100000 slw
[] 0 sd
[] 0 sd
0 slc
0 slj
0 slc
0 slj
[] 0 sd
n 4.170057 6.170057 0.170056 0.170056 0 360 ellipse f
n 4.170057 6.170057 0.170056 0.170056 0 360 ellipse cp s
0.010000 slw
0 slc
0 slj
[] 0 sd
n 4.170057 6.170057 0.170056 0.170056 0 360 ellipse cp s
0.100000 slw
[] 0 sd
[] 0 sd
0 slc
0 slj
0 slc
0 slj
[] 0 sd
n 5.173639 6.173639 0.173639 0.173639 0 360 ellipse cp s
0.010000 slw
0 slc
0 slj
[] 0 sd
n 5.173639 6.173639 0.173639 0.173639 0 360 ellipse cp s
0.100000 slw
[] 0 sd
[] 0 sd
0 slc
0 slj
0 slc
0 slj
[] 0 sd
n 8.170057 6.170057 0.170056 0.170056 0 360 ellipse f
n 8.170057 6.170057 0.170056 0.170056 0 360 ellipse cp s
0.010000 slw
0 slc
0 slj
[] 0 sd
n 8.170057 6.170057 0.170056 0.170056 0 360 ellipse cp s
0.100000 slw
[] 0 sd
[] 0 sd
0 slc
0 slj
0 slc
0 slj
[] 0 sd
n 9.170056 6.170057 0.170056 0.170056 0 360 ellipse f
n 9.170056 6.170057 0.170056 0.170056 0 360 ellipse cp s
0.010000 slw
0 slc
0 slj
[] 0 sd
n 9.170056 6.170057 0.170056 0.170056 0 360 ellipse cp s
0.100000 slw
[] 0 sd
[] 0 sd
0 slc
0 slj
0 slc
0 slj
[] 0 sd
n 10.170056 6.170057 0.170056 0.170056 0 360 ellipse f
n 10.170056 6.170057 0.170056 0.170056 0 360 ellipse cp s
0.010000 slw
0 slc
0 slj
[] 0 sd
n 10.170056 6.170057 0.170056 0.170056 0 360 ellipse cp s
0.100000 slw
[] 0 sd
[] 0 sd
0 slc
0 slj
0 slc
0 slj
[] 0 sd
n 11.173639 6.173639 0.173639 0.173639 0 360 ellipse f
n 11.173639 6.173639 0.173639 0.173639 0 360 ellipse cp s
0.010000 slw
0 slc
0 slj
[] 0 sd
n 11.173639 6.173639 0.173639 0.173639 0 360 ellipse cp s
0.100000 slw
[] 0 sd
[] 0 sd
0 slc
0 slj
0 slc
0 slj
[] 0 sd
n 12.170056 6.170057 0.170056 0.170056 0 360 ellipse f
n 12.170056 6.170057 0.170056 0.170056 0 360 ellipse cp s
0.010000 slw
0 slc
0 slj
[] 0 sd
n 12.170056 6.170057 0.170056 0.170056 0 360 ellipse cp s
0.100000 slw
[] 0 sd
[] 0 sd
0 slc
0 slj
0 slc
0 slj
[] 0 sd
n 13.170056 6.170057 0.170056 0.170056 0 360 ellipse f
n 13.170056 6.170057 0.170056 0.170056 0 360 ellipse cp s
0.010000 slw
0 slc
0 slj
[] 0 sd
n 13.170056 6.170057 0.170056 0.170056 0 360 ellipse cp s
0.100000 slw
[] 0 sd
[] 0 sd
0 slc
0 slj
0 slc
0 slj
[] 0 sd
n 7.170057 7.170057 0.170056 0.170056 0 360 ellipse cp s
0.010000 slw
0 slc
0 slj
[] 0 sd
n 7.170057 7.170057 0.170056 0.170056 0 360 ellipse cp s
0.100000 slw
[] 0 sd
[] 0 sd
0 slc
0 slj
0 slc
0 slj
[] 0 sd
n 8.173639 7.173639 0.173639 0.173639 0 360 ellipse cp s
0.010000 slw
0 slc
0 slj
[] 0 sd
n 8.173639 7.173639 0.173639 0.173639 0 360 ellipse cp s
0.100000 slw
[] 0 sd
[] 0 sd
0 slc
0 slj
0 slc
0 slj
[] 0 sd
n 2.170057 7.170057 0.170056 0.170056 0 360 ellipse f
n 2.170057 7.170057 0.170056 0.170056 0 360 ellipse cp s
0.010000 slw
0 slc
0 slj
[] 0 sd
n 2.170057 7.170057 0.170056 0.170056 0 360 ellipse cp s
0.100000 slw
[] 0 sd
[] 0 sd
0 slc
0 slj
0 slc
0 slj
[] 0 sd
n 3.170057 7.170057 0.170056 0.170056 0 360 ellipse f
n 3.170057 7.170057 0.170056 0.170056 0 360 ellipse cp s
0.010000 slw
0 slc
0 slj
[] 0 sd
n 3.170057 7.170057 0.170056 0.170056 0 360 ellipse cp s
0.100000 slw
[] 0 sd
[] 0 sd
0 slc
0 slj
0 slc
0 slj
[] 0 sd
n 4.170057 7.170057 0.170056 0.170056 0 360 ellipse f
n 4.170057 7.170057 0.170056 0.170056 0 360 ellipse cp s
0.010000 slw
0 slc
0 slj
[] 0 sd
n 4.170057 7.170057 0.170056 0.170056 0 360 ellipse cp s
0.100000 slw
[] 0 sd
[] 0 sd
0 slc
0 slj
0 slc
0 slj
[] 0 sd
n 5.170057 7.170057 0.170056 0.170056 0 360 ellipse f
n 5.170057 7.170057 0.170056 0.170056 0 360 ellipse cp s
0.010000 slw
0 slc
0 slj
[] 0 sd
n 5.170057 7.170057 0.170056 0.170056 0 360 ellipse cp s
0.100000 slw
[] 0 sd
[] 0 sd
0 slc
0 slj
0 slc
0 slj
[] 0 sd
n 6.173639 7.173639 0.173639 0.173639 0 360 ellipse cp s
0.010000 slw
0 slc
0 slj
[] 0 sd
n 6.173639 7.173639 0.173639 0.173639 0 360 ellipse cp s
0.100000 slw
[] 0 sd
[] 0 sd
0 slc
0 slj
0 slc
0 slj
[] 0 sd
n 9.170056 7.170057 0.170056 0.170056 0 360 ellipse f
n 9.170056 7.170057 0.170056 0.170056 0 360 ellipse cp s
0.010000 slw
0 slc
0 slj
[] 0 sd
n 9.170056 7.170057 0.170056 0.170056 0 360 ellipse cp s
0.100000 slw
[] 0 sd
[] 0 sd
0 slc
0 slj
0 slc
0 slj
[] 0 sd
n 10.170056 7.170057 0.170056 0.170056 0 360 ellipse f
n 10.170056 7.170057 0.170056 0.170056 0 360 ellipse cp s
0.010000 slw
0 slc
0 slj
[] 0 sd
n 10.170056 7.170057 0.170056 0.170056 0 360 ellipse cp s
0.100000 slw
[] 0 sd
[] 0 sd
0 slc
0 slj
0 slc
0 slj
[] 0 sd
n 11.170056 7.170057 0.170056 0.170056 0 360 ellipse f
n 11.170056 7.170057 0.170056 0.170056 0 360 ellipse cp s
0.010000 slw
0 slc
0 slj
[] 0 sd
n 11.170056 7.170057 0.170056 0.170056 0 360 ellipse cp s
0.100000 slw
[] 0 sd
[] 0 sd
0 slc
0 slj
0 slc
0 slj
[] 0 sd
n 12.173639 7.173639 0.173639 0.173639 0 360 ellipse f
n 12.173639 7.173639 0.173639 0.173639 0 360 ellipse cp s
0.010000 slw
0 slc
0 slj
[] 0 sd
n 12.173639 7.173639 0.173639 0.173639 0 360 ellipse cp s
0.100000 slw
[] 0 sd
[] 0 sd
0 slc
0 slj
0 slc
0 slj
[] 0 sd
n 13.170056 7.170057 0.170056 0.170056 0 360 ellipse f
n 13.170056 7.170057 0.170056 0.170056 0 360 ellipse cp s
0.010000 slw
0 slc
0 slj
[] 0 sd
n 13.170056 7.170057 0.170056 0.170056 0 360 ellipse cp s
0.100000 slw
[] 0 sd
[] 0 sd
0 slc
0 slj
0 slc
0 slj
[] 0 sd
n 1.173639 7.173639 0.173639 0.173639 0 360 ellipse f
n 1.173639 7.173639 0.173639 0.173639 0 360 ellipse cp s
0.010000 slw
0 slc
0 slj
[] 0 sd
n 1.173639 7.173639 0.173639 0.173639 0 360 ellipse cp s
0.100000 slw
[] 0 sd
[] 0 sd
0 slc
0 slj
0 slc
0 slj
[] 0 sd
n 8.170057 8.170056 0.170056 0.170056 0 360 ellipse cp s
0.010000 slw
0 slc
0 slj
[] 0 sd
n 8.170057 8.170056 0.170056 0.170056 0 360 ellipse cp s
0.100000 slw
[] 0 sd
[] 0 sd
0 slc
0 slj
0 slc
0 slj
[] 0 sd
n 9.173639 8.173638 0.173639 0.173639 0 360 ellipse cp s
0.010000 slw
0 slc
0 slj
[] 0 sd
n 9.173639 8.173638 0.173639 0.173639 0 360 ellipse cp s
0.100000 slw
[] 0 sd
[] 0 sd
0 slc
0 slj
0 slc
0 slj
[] 0 sd
n 3.170057 8.170056 0.170056 0.170056 0 360 ellipse f
n 3.170057 8.170056 0.170056 0.170056 0 360 ellipse cp s
0.010000 slw
0 slc
0 slj
[] 0 sd
n 3.170057 8.170056 0.170056 0.170056 0 360 ellipse cp s
0.100000 slw
[] 0 sd
[] 0 sd
0 slc
0 slj
0 slc
0 slj
[] 0 sd
n 4.170057 8.170056 0.170056 0.170056 0 360 ellipse f
n 4.170057 8.170056 0.170056 0.170056 0 360 ellipse cp s
0.010000 slw
0 slc
0 slj
[] 0 sd
n 4.170057 8.170056 0.170056 0.170056 0 360 ellipse cp s
0.100000 slw
[] 0 sd
[] 0 sd
0 slc
0 slj
0 slc
0 slj
[] 0 sd
n 5.170057 8.170056 0.170056 0.170056 0 360 ellipse f
n 5.170057 8.170056 0.170056 0.170056 0 360 ellipse cp s
0.010000 slw
0 slc
0 slj
[] 0 sd
n 5.170057 8.170056 0.170056 0.170056 0 360 ellipse cp s
0.100000 slw
[] 0 sd
[] 0 sd
0 slc
0 slj
0 slc
0 slj
[] 0 sd
n 6.170057 8.170056 0.170056 0.170056 0 360 ellipse f
n 6.170057 8.170056 0.170056 0.170056 0 360 ellipse cp s
0.010000 slw
0 slc
0 slj
[] 0 sd
n 6.170057 8.170056 0.170056 0.170056 0 360 ellipse cp s
0.100000 slw
[] 0 sd
[] 0 sd
0 slc
0 slj
0 slc
0 slj
[] 0 sd
n 7.173639 8.173638 0.173639 0.173639 0 360 ellipse cp s
0.010000 slw
0 slc
0 slj
[] 0 sd
n 7.173639 8.173638 0.173639 0.173639 0 360 ellipse cp s
0.100000 slw
[] 0 sd
[] 0 sd
0 slc
0 slj
0 slc
0 slj
[] 0 sd
n 10.170056 8.170056 0.170056 0.170056 0 360 ellipse f
n 10.170056 8.170056 0.170056 0.170056 0 360 ellipse cp s
0.010000 slw
0 slc
0 slj
[] 0 sd
n 10.170056 8.170056 0.170056 0.170056 0 360 ellipse cp s
0.100000 slw
[] 0 sd
[] 0 sd
0 slc
0 slj
0 slc
0 slj
[] 0 sd
n 11.170056 8.170056 0.170056 0.170056 0 360 ellipse f
n 11.170056 8.170056 0.170056 0.170056 0 360 ellipse cp s
0.010000 slw
0 slc
0 slj
[] 0 sd
n 11.170056 8.170056 0.170056 0.170056 0 360 ellipse cp s
0.100000 slw
[] 0 sd
[] 0 sd
0 slc
0 slj
0 slc
0 slj
[] 0 sd
n 12.170056 8.170056 0.170056 0.170056 0 360 ellipse f
n 12.170056 8.170056 0.170056 0.170056 0 360 ellipse cp s
0.010000 slw
0 slc
0 slj
[] 0 sd
n 12.170056 8.170056 0.170056 0.170056 0 360 ellipse cp s
0.100000 slw
[] 0 sd
[] 0 sd
0 slc
0 slj
0 slc
0 slj
[] 0 sd
n 13.173639 8.173638 0.173639 0.173639 0 360 ellipse f
n 13.173639 8.173638 0.173639 0.173639 0 360 ellipse cp s
0.010000 slw
0 slc
0 slj
[] 0 sd
n 13.173639 8.173638 0.173639 0.173639 0 360 ellipse cp s
0.100000 slw
[] 0 sd
[] 0 sd
0 slc
0 slj
0 slc
0 slj
[] 0 sd
n 1.170057 8.170056 0.170056 0.170056 0 360 ellipse f
n 1.170057 8.170056 0.170056 0.170056 0 360 ellipse cp s
0.010000 slw
0 slc
0 slj
[] 0 sd
n 1.170057 8.170056 0.170056 0.170056 0 360 ellipse cp s
0.100000 slw
[] 0 sd
[] 0 sd
0 slc
0 slj
0 slc
0 slj
[] 0 sd
n 2.173639 8.173638 0.173639 0.173639 0 360 ellipse f
n 2.173639 8.173638 0.173639 0.173639 0 360 ellipse cp s
0.010000 slw
0 slc
0 slj
[] 0 sd
n 2.173639 8.173638 0.173639 0.173639 0 360 ellipse cp s
0.100000 slw
[] 0 sd
[] 0 sd
0 slc
0 slj
0 slc
0 slj
[] 0 sd
n 9.170056 9.170057 0.170056 0.170056 0 360 ellipse cp s
0.010000 slw
0 slc
0 slj
[] 0 sd
n 9.170056 9.170057 0.170056 0.170056 0 360 ellipse cp s
0.100000 slw
[] 0 sd
[] 0 sd
0 slc
0 slj
0 slc
0 slj
[] 0 sd
n 10.173639 9.173639 0.173639 0.173639 0 360 ellipse cp s
0.010000 slw
0 slc
0 slj
[] 0 sd
n 10.173639 9.173639 0.173639 0.173639 0 360 ellipse cp s
0.100000 slw
[] 0 sd
[] 0 sd
0 slc
0 slj
0 slc
0 slj
[] 0 sd
n 4.170057 9.170057 0.170056 0.170056 0 360 ellipse f
n 4.170057 9.170057 0.170056 0.170056 0 360 ellipse cp s
0.010000 slw
0 slc
0 slj
[] 0 sd
n 4.170057 9.170057 0.170056 0.170056 0 360 ellipse cp s
0.100000 slw
[] 0 sd
[] 0 sd
0 slc
0 slj
0 slc
0 slj
[] 0 sd
n 5.170057 9.170057 0.170056 0.170056 0 360 ellipse f
n 5.170057 9.170057 0.170056 0.170056 0 360 ellipse cp s
0.010000 slw
0 slc
0 slj
[] 0 sd
n 5.170057 9.170057 0.170056 0.170056 0 360 ellipse cp s
0.100000 slw
[] 0 sd
[] 0 sd
0 slc
0 slj
0 slc
0 slj
[] 0 sd
n 6.170057 9.170057 0.170056 0.170056 0 360 ellipse f
n 6.170057 9.170057 0.170056 0.170056 0 360 ellipse cp s
0.010000 slw
0 slc
0 slj
[] 0 sd
n 6.170057 9.170057 0.170056 0.170056 0 360 ellipse cp s
0.100000 slw
[] 0 sd
[] 0 sd
0 slc
0 slj
0 slc
0 slj
[] 0 sd
n 7.170057 9.170057 0.170056 0.170056 0 360 ellipse f
n 7.170057 9.170057 0.170056 0.170056 0 360 ellipse cp s
0.010000 slw
0 slc
0 slj
[] 0 sd
n 7.170057 9.170057 0.170056 0.170056 0 360 ellipse cp s
0.100000 slw
[] 0 sd
[] 0 sd
0 slc
0 slj
0 slc
0 slj
[] 0 sd
n 8.173639 9.173639 0.173639 0.173639 0 360 ellipse cp s
0.010000 slw
0 slc
0 slj
[] 0 sd
n 8.173639 9.173639 0.173639 0.173639 0 360 ellipse cp s
0.100000 slw
[] 0 sd
[] 0 sd
0 slc
0 slj
0 slc
0 slj
[] 0 sd
n 11.170056 9.170057 0.170056 0.170056 0 360 ellipse f
n 11.170056 9.170057 0.170056 0.170056 0 360 ellipse cp s
0.010000 slw
0 slc
0 slj
[] 0 sd
n 11.170056 9.170057 0.170056 0.170056 0 360 ellipse cp s
0.100000 slw
[] 0 sd
[] 0 sd
0 slc
0 slj
0 slc
0 slj
[] 0 sd
n 12.170056 9.170057 0.170056 0.170056 0 360 ellipse f
n 12.170056 9.170057 0.170056 0.170056 0 360 ellipse cp s
0.010000 slw
0 slc
0 slj
[] 0 sd
n 12.170056 9.170057 0.170056 0.170056 0 360 ellipse cp s
0.100000 slw
[] 0 sd
[] 0 sd
0 slc
0 slj
0 slc
0 slj
[] 0 sd
n 13.170056 9.170057 0.170056 0.170056 0 360 ellipse f
n 13.170056 9.170057 0.170056 0.170056 0 360 ellipse cp s
0.010000 slw
0 slc
0 slj
[] 0 sd
n 13.170056 9.170057 0.170056 0.170056 0 360 ellipse cp s
0.100000 slw
[] 0 sd
[] 0 sd
0 slc
0 slj
0 slc
0 slj
[] 0 sd
n 1.170057 9.170057 0.170056 0.170056 0 360 ellipse f
n 1.170057 9.170057 0.170056 0.170056 0 360 ellipse cp s
0.010000 slw
0 slc
0 slj
[] 0 sd
n 1.170057 9.170057 0.170056 0.170056 0 360 ellipse cp s
0.100000 slw
[] 0 sd
[] 0 sd
0 slc
0 slj
0 slc
0 slj
[] 0 sd
n 2.170057 9.170057 0.170056 0.170056 0 360 ellipse f
n 2.170057 9.170057 0.170056 0.170056 0 360 ellipse cp s
0.010000 slw
0 slc
0 slj
[] 0 sd
n 2.170057 9.170057 0.170056 0.170056 0 360 ellipse cp s
0.100000 slw
[] 0 sd
[] 0 sd
0 slc
0 slj
0 slc
0 slj
[] 0 sd
n 3.173639 9.173639 0.173639 0.173639 0 360 ellipse f
n 3.173639 9.173639 0.173639 0.173639 0 360 ellipse cp s
0.010000 slw
0 slc
0 slj
[] 0 sd
n 3.173639 9.173639 0.173639 0.173639 0 360 ellipse cp s
0.100000 slw
[] 0 sd
[] 0 sd
0 slc
0 slj
0 slc
0 slj
[] 0 sd
n 10.170056 10.170057 0.170056 0.170056 0 360 ellipse cp s
0.010000 slw
0 slc
0 slj
[] 0 sd
n 10.170056 10.170057 0.170056 0.170056 0 360 ellipse cp s
0.100000 slw
[] 0 sd
[] 0 sd
0 slc
0 slj
0 slc
0 slj
[] 0 sd
n 11.173639 10.173639 0.173639 0.173639 0 360 ellipse cp s
0.010000 slw
0 slc
0 slj
[] 0 sd
n 11.173639 10.173639 0.173639 0.173639 0 360 ellipse cp s
0.100000 slw
[] 0 sd
[] 0 sd
0 slc
0 slj
0 slc
0 slj
[] 0 sd
n 5.170057 10.170057 0.170056 0.170056 0 360 ellipse f
n 5.170057 10.170057 0.170056 0.170056 0 360 ellipse cp s
0.010000 slw
0 slc
0 slj
[] 0 sd
n 5.170057 10.170057 0.170056 0.170056 0 360 ellipse cp s
0.100000 slw
[] 0 sd
[] 0 sd
0 slc
0 slj
0 slc
0 slj
[] 0 sd
n 6.170057 10.170057 0.170056 0.170056 0 360 ellipse f
n 6.170057 10.170057 0.170056 0.170056 0 360 ellipse cp s
0.010000 slw
0 slc
0 slj
[] 0 sd
n 6.170057 10.170057 0.170056 0.170056 0 360 ellipse cp s
0.100000 slw
[] 0 sd
[] 0 sd
0 slc
0 slj
0 slc
0 slj
[] 0 sd
n 7.170057 10.170057 0.170056 0.170056 0 360 ellipse f
n 7.170057 10.170057 0.170056 0.170056 0 360 ellipse cp s
0.010000 slw
0 slc
0 slj
[] 0 sd
n 7.170057 10.170057 0.170056 0.170056 0 360 ellipse cp s
0.100000 slw
[] 0 sd
[] 0 sd
0 slc
0 slj
0 slc
0 slj
[] 0 sd
n 8.170057 10.170057 0.170056 0.170056 0 360 ellipse f
n 8.170057 10.170057 0.170056 0.170056 0 360 ellipse cp s
0.010000 slw
0 slc
0 slj
[] 0 sd
n 8.170057 10.170057 0.170056 0.170056 0 360 ellipse cp s
0.100000 slw
[] 0 sd
[] 0 sd
0 slc
0 slj
0 slc
0 slj
[] 0 sd
n 9.173639 10.173639 0.173639 0.173639 0 360 ellipse cp s
0.010000 slw
0 slc
0 slj
[] 0 sd
n 9.173639 10.173639 0.173639 0.173639 0 360 ellipse cp s
0.100000 slw
[] 0 sd
[] 0 sd
0 slc
0 slj
0 slc
0 slj
[] 0 sd
n 12.170056 10.170057 0.170056 0.170056 0 360 ellipse f
n 12.170056 10.170057 0.170056 0.170056 0 360 ellipse cp s
0.010000 slw
0 slc
0 slj
[] 0 sd
n 12.170056 10.170057 0.170056 0.170056 0 360 ellipse cp s
0.100000 slw
[] 0 sd
[] 0 sd
0 slc
0 slj
0 slc
0 slj
[] 0 sd
n 13.170056 10.170057 0.170056 0.170056 0 360 ellipse f
n 13.170056 10.170057 0.170056 0.170056 0 360 ellipse cp s
0.010000 slw
0 slc
0 slj
[] 0 sd
n 13.170056 10.170057 0.170056 0.170056 0 360 ellipse cp s
0.100000 slw
[] 0 sd
[] 0 sd
0 slc
0 slj
0 slc
0 slj
[] 0 sd
n 1.170057 10.170057 0.170056 0.170056 0 360 ellipse f
n 1.170057 10.170057 0.170056 0.170056 0 360 ellipse cp s
0.010000 slw
0 slc
0 slj
[] 0 sd
n 1.170057 10.170057 0.170056 0.170056 0 360 ellipse cp s
0.100000 slw
[] 0 sd
[] 0 sd
0 slc
0 slj
0 slc
0 slj
[] 0 sd
n 2.170057 10.170057 0.170056 0.170056 0 360 ellipse f
n 2.170057 10.170057 0.170056 0.170056 0 360 ellipse cp s
0.010000 slw
0 slc
0 slj
[] 0 sd
n 2.170057 10.170057 0.170056 0.170056 0 360 ellipse cp s
0.100000 slw
[] 0 sd
[] 0 sd
0 slc
0 slj
0 slc
0 slj
[] 0 sd
n 3.170057 10.170057 0.170056 0.170056 0 360 ellipse f
n 3.170057 10.170057 0.170056 0.170056 0 360 ellipse cp s
0.010000 slw
0 slc
0 slj
[] 0 sd
n 3.170057 10.170057 0.170056 0.170056 0 360 ellipse cp s
0.100000 slw
[] 0 sd
[] 0 sd
0 slc
0 slj
0 slc
0 slj
[] 0 sd
n 4.173639 10.173639 0.173639 0.173639 0 360 ellipse f
n 4.173639 10.173639 0.173639 0.173639 0 360 ellipse cp s
0.010000 slw
0 slc
0 slj
[] 0 sd
n 4.173639 10.173639 0.173639 0.173639 0 360 ellipse cp s
0.100000 slw
[] 0 sd
[] 0 sd
0 slc
0 slj
0 slc
0 slj
[] 0 sd
n 11.170056 11.170057 0.170056 0.170056 0 360 ellipse cp s
0.010000 slw
0 slc
0 slj
[] 0 sd
n 11.170056 11.170057 0.170056 0.170056 0 360 ellipse cp s
0.100000 slw
[] 0 sd
[] 0 sd
0 slc
0 slj
0 slc
0 slj
[] 0 sd
n 12.173639 11.173639 0.173639 0.173639 0 360 ellipse cp s
0.010000 slw
0 slc
0 slj
[] 0 sd
n 12.173639 11.173639 0.173639 0.173639 0 360 ellipse cp s
0.100000 slw
[] 0 sd
[] 0 sd
0 slc
0 slj
0 slc
0 slj
[] 0 sd
n 6.170057 11.170057 0.170056 0.170056 0 360 ellipse f
n 6.170057 11.170057 0.170056 0.170056 0 360 ellipse cp s
0.010000 slw
0 slc
0 slj
[] 0 sd
n 6.170057 11.170057 0.170056 0.170056 0 360 ellipse cp s
0.100000 slw
[] 0 sd
[] 0 sd
0 slc
0 slj
0 slc
0 slj
[] 0 sd
n 7.170057 11.170057 0.170056 0.170056 0 360 ellipse f
n 7.170057 11.170057 0.170056 0.170056 0 360 ellipse cp s
0.010000 slw
0 slc
0 slj
[] 0 sd
n 7.170057 11.170057 0.170056 0.170056 0 360 ellipse cp s
0.100000 slw
[] 0 sd
[] 0 sd
0 slc
0 slj
0 slc
0 slj
[] 0 sd
n 8.170057 11.170057 0.170056 0.170056 0 360 ellipse f
n 8.170057 11.170057 0.170056 0.170056 0 360 ellipse cp s
0.010000 slw
0 slc
0 slj
[] 0 sd
n 8.170057 11.170057 0.170056 0.170056 0 360 ellipse cp s
0.100000 slw
[] 0 sd
[] 0 sd
0 slc
0 slj
0 slc
0 slj
[] 0 sd
n 9.170056 11.170057 0.170056 0.170056 0 360 ellipse f
n 9.170056 11.170057 0.170056 0.170056 0 360 ellipse cp s
0.010000 slw
0 slc
0 slj
[] 0 sd
n 9.170056 11.170057 0.170056 0.170056 0 360 ellipse cp s
0.100000 slw
[] 0 sd
[] 0 sd
0 slc
0 slj
0 slc
0 slj
[] 0 sd
n 10.173639 11.173639 0.173639 0.173639 0 360 ellipse cp s
0.010000 slw
0 slc
0 slj
[] 0 sd
n 10.173639 11.173639 0.173639 0.173639 0 360 ellipse cp s
0.100000 slw
[] 0 sd
[] 0 sd
0 slc
0 slj
0 slc
0 slj
[] 0 sd
n 13.170056 11.170057 0.170056 0.170056 0 360 ellipse f
n 13.170056 11.170057 0.170056 0.170056 0 360 ellipse cp s
0.010000 slw
0 slc
0 slj
[] 0 sd
n 13.170056 11.170057 0.170056 0.170056 0 360 ellipse cp s
0.100000 slw
[] 0 sd
[] 0 sd
0 slc
0 slj
0 slc
0 slj
[] 0 sd
n 1.173639 11.173639 0.173639 0.173639 0 360 ellipse f
n 1.173639 11.173639 0.173639 0.173639 0 360 ellipse cp s
0.010000 slw
0 slc
0 slj
[] 0 sd
n 1.173639 11.173639 0.173639 0.173639 0 360 ellipse cp s
0.100000 slw
[] 0 sd
[] 0 sd
0 slc
0 slj
0 slc
0 slj
[] 0 sd
n 2.170057 11.170057 0.170056 0.170056 0 360 ellipse f
n 2.170057 11.170057 0.170056 0.170056 0 360 ellipse cp s
0.010000 slw
0 slc
0 slj
[] 0 sd
n 2.170057 11.170057 0.170056 0.170056 0 360 ellipse cp s
0.100000 slw
[] 0 sd
[] 0 sd
0 slc
0 slj
0 slc
0 slj
[] 0 sd
n 3.170057 11.170057 0.170056 0.170056 0 360 ellipse f
n 3.170057 11.170057 0.170056 0.170056 0 360 ellipse cp s
0.010000 slw
0 slc
0 slj
[] 0 sd
n 3.170057 11.170057 0.170056 0.170056 0 360 ellipse cp s
0.100000 slw
[] 0 sd
[] 0 sd
0 slc
0 slj
0 slc
0 slj
[] 0 sd
n 4.170057 11.170057 0.170056 0.170056 0 360 ellipse f
n 4.170057 11.170057 0.170056 0.170056 0 360 ellipse cp s
0.010000 slw
0 slc
0 slj
[] 0 sd
n 4.170057 11.170057 0.170056 0.170056 0 360 ellipse cp s
0.100000 slw
[] 0 sd
[] 0 sd
0 slc
0 slj
0 slc
0 slj
[] 0 sd
n 5.173639 11.173639 0.173639 0.173639 0 360 ellipse f
n 5.173639 11.173639 0.173639 0.173639 0 360 ellipse cp s
0.010000 slw
0 slc
0 slj
[] 0 sd
n 5.173639 11.173639 0.173639 0.173639 0 360 ellipse cp s
0.100000 slw
[] 0 sd
[] 0 sd
0 slc
0 slj
0 slc
0 slj
[] 0 sd
n 12.170056 12.170057 0.170056 0.170056 0 360 ellipse cp s
0.010000 slw
0 slc
0 slj
[] 0 sd
n 12.170056 12.170057 0.170056 0.170056 0 360 ellipse cp s
0.100000 slw
[] 0 sd
[] 0 sd
0 slc
0 slj
0 slc
0 slj
[] 0 sd
n 13.173639 12.173639 0.173639 0.173639 0 360 ellipse cp s
0.010000 slw
0 slc
0 slj
[] 0 sd
n 13.173639 12.173639 0.173639 0.173639 0 360 ellipse cp s
0.100000 slw
[] 0 sd
[] 0 sd
0 slc
0 slj
0 slc
0 slj
[] 0 sd
n 7.170057 12.170057 0.170056 0.170056 0 360 ellipse f
n 7.170057 12.170057 0.170056 0.170056 0 360 ellipse cp s
0.010000 slw
0 slc
0 slj
[] 0 sd
n 7.170057 12.170057 0.170056 0.170056 0 360 ellipse cp s
0.100000 slw
[] 0 sd
[] 0 sd
0 slc
0 slj
0 slc
0 slj
[] 0 sd
n 8.170057 12.170057 0.170056 0.170056 0 360 ellipse f
n 8.170057 12.170057 0.170056 0.170056 0 360 ellipse cp s
0.010000 slw
0 slc
0 slj
[] 0 sd
n 8.170057 12.170057 0.170056 0.170056 0 360 ellipse cp s
0.100000 slw
[] 0 sd
[] 0 sd
0 slc
0 slj
0 slc
0 slj
[] 0 sd
n 9.170056 12.170057 0.170056 0.170056 0 360 ellipse f
n 9.170056 12.170057 0.170056 0.170056 0 360 ellipse cp s
0.010000 slw
0 slc
0 slj
[] 0 sd
n 9.170056 12.170057 0.170056 0.170056 0 360 ellipse cp s
0.100000 slw
[] 0 sd
[] 0 sd
0 slc
0 slj
0 slc
0 slj
[] 0 sd
n 10.170056 12.170057 0.170056 0.170056 0 360 ellipse f
n 10.170056 12.170057 0.170056 0.170056 0 360 ellipse cp s
0.010000 slw
0 slc
0 slj
[] 0 sd
n 10.170056 12.170057 0.170056 0.170056 0 360 ellipse cp s
0.100000 slw
[] 0 sd
[] 0 sd
0 slc
0 slj
0 slc
0 slj
[] 0 sd
n 11.173639 12.173639 0.173639 0.173639 0 360 ellipse cp s
0.010000 slw
0 slc
0 slj
[] 0 sd
n 11.173639 12.173639 0.173639 0.173639 0 360 ellipse cp s
0.100000 slw
[] 0 sd
[] 0 sd
0 slc
0 slj
0 slc
0 slj
[] 0 sd
n 1.170057 12.170057 0.170056 0.170056 0 360 ellipse f
n 1.170057 12.170057 0.170056 0.170056 0 360 ellipse cp s
0.010000 slw
0 slc
0 slj
[] 0 sd
n 1.170057 12.170057 0.170056 0.170056 0 360 ellipse cp s
0.100000 slw
[] 0 sd
[] 0 sd
0 slc
0 slj
0 slc
0 slj
[] 0 sd
n 2.173639 12.173639 0.173639 0.173639 0 360 ellipse f
n 2.173639 12.173639 0.173639 0.173639 0 360 ellipse cp s
0.010000 slw
0 slc
0 slj
[] 0 sd
n 2.173639 12.173639 0.173639 0.173639 0 360 ellipse cp s
0.100000 slw
[] 0 sd
[] 0 sd
0 slc
0 slj
0 slc
0 slj
[] 0 sd
n 3.170057 12.170057 0.170056 0.170056 0 360 ellipse f
n 3.170057 12.170057 0.170056 0.170056 0 360 ellipse cp s
0.010000 slw
0 slc
0 slj
[] 0 sd
n 3.170057 12.170057 0.170056 0.170056 0 360 ellipse cp s
0.100000 slw
[] 0 sd
[] 0 sd
0 slc
0 slj
0 slc
0 slj
[] 0 sd
n 4.170057 12.170057 0.170056 0.170056 0 360 ellipse f
n 4.170057 12.170057 0.170056 0.170056 0 360 ellipse cp s
0.010000 slw
0 slc
0 slj
[] 0 sd
n 4.170057 12.170057 0.170056 0.170056 0 360 ellipse cp s
0.100000 slw
[] 0 sd
[] 0 sd
0 slc
0 slj
0 slc
0 slj
[] 0 sd
n 5.170057 12.170057 0.170056 0.170056 0 360 ellipse f
n 5.170057 12.170057 0.170056 0.170056 0 360 ellipse cp s
0.010000 slw
0 slc
0 slj
[] 0 sd
n 5.170057 12.170057 0.170056 0.170056 0 360 ellipse cp s
0.100000 slw
[] 0 sd
[] 0 sd
0 slc
0 slj
0 slc
0 slj
[] 0 sd
n 6.173639 12.173639 0.173639 0.173639 0 360 ellipse f
n 6.173639 12.173639 0.173639 0.173639 0 360 ellipse cp s
0.010000 slw
0 slc
0 slj
[] 0 sd
n 6.173639 12.173639 0.173639 0.173639 0 360 ellipse cp s
0.100000 slw
[] 0 sd
[] 0 sd
0 slc
0 slj
0 slc
0 slj
[] 0 sd
n 13.170056 13.170057 0.170056 0.170056 0 360 ellipse cp s
0.010000 slw
0 slc
0 slj
[] 0 sd
n 13.170056 13.170057 0.170056 0.170056 0 360 ellipse cp s
0.100000 slw
[] 0 sd
[] 0 sd
0 slc
0 slj
0 slc
0 slj
[] 0 sd
n 8.170057 13.170057 0.170056 0.170056 0 360 ellipse f
n 8.170057 13.170057 0.170056 0.170056 0 360 ellipse cp s
0.010000 slw
0 slc
0 slj
[] 0 sd
n 8.170057 13.170057 0.170056 0.170056 0 360 ellipse cp s
0.100000 slw
[] 0 sd
[] 0 sd
0 slc
0 slj
0 slc
0 slj
[] 0 sd
n 9.170056 13.170057 0.170056 0.170056 0 360 ellipse f
n 9.170056 13.170057 0.170056 0.170056 0 360 ellipse cp s
0.010000 slw
0 slc
0 slj
[] 0 sd
n 9.170056 13.170057 0.170056 0.170056 0 360 ellipse cp s
0.100000 slw
[] 0 sd
[] 0 sd
0 slc
0 slj
0 slc
0 slj
[] 0 sd
n 10.170056 13.170057 0.170056 0.170056 0 360 ellipse f
n 10.170056 13.170057 0.170056 0.170056 0 360 ellipse cp s
0.010000 slw
0 slc
0 slj
[] 0 sd
n 10.170056 13.170057 0.170056 0.170056 0 360 ellipse cp s
0.100000 slw
[] 0 sd
[] 0 sd
0 slc
0 slj
0 slc
0 slj
[] 0 sd
n 11.170056 13.170057 0.170056 0.170056 0 360 ellipse f
n 11.170056 13.170057 0.170056 0.170056 0 360 ellipse cp s
0.010000 slw
0 slc
0 slj
[] 0 sd
n 11.170056 13.170057 0.170056 0.170056 0 360 ellipse cp s
0.100000 slw
[] 0 sd
[] 0 sd
0 slc
0 slj
0 slc
0 slj
[] 0 sd
n 12.173639 13.173639 0.173639 0.173639 0 360 ellipse cp s
0.010000 slw
0 slc
0 slj
[] 0 sd
n 12.173639 13.173639 0.173639 0.173639 0 360 ellipse cp s
0.100000 slw
[] 0 sd
[] 0 sd
0 slc
0 slj
0 slc
0 slj
[] 0 sd
n 1.170057 13.170057 0.170056 0.170056 0 360 ellipse f
n 1.170057 13.170057 0.170056 0.170056 0 360 ellipse cp s
0.010000 slw
0 slc
0 slj
[] 0 sd
n 1.170057 13.170057 0.170056 0.170056 0 360 ellipse cp s
0.100000 slw
[] 0 sd
[] 0 sd
0 slc
0 slj
0 slc
0 slj
[] 0 sd
n 2.170057 13.170057 0.170056 0.170056 0 360 ellipse f
n 2.170057 13.170057 0.170056 0.170056 0 360 ellipse cp s
0.010000 slw
0 slc
0 slj
[] 0 sd
n 2.170057 13.170057 0.170056 0.170056 0 360 ellipse cp s
0.100000 slw
[] 0 sd
[] 0 sd
0 slc
0 slj
0 slc
0 slj
[] 0 sd
n 3.173639 13.173639 0.173639 0.173639 0 360 ellipse f
n 3.173639 13.173639 0.173639 0.173639 0 360 ellipse cp s
0.010000 slw
0 slc
0 slj
[] 0 sd
n 3.173639 13.173639 0.173639 0.173639 0 360 ellipse cp s
0.100000 slw
[] 0 sd
[] 0 sd
0 slc
0 slj
0 slc
0 slj
[] 0 sd
n 4.170057 13.170057 0.170056 0.170056 0 360 ellipse f
n 4.170057 13.170057 0.170056 0.170056 0 360 ellipse cp s
0.010000 slw
0 slc
0 slj
[] 0 sd
n 4.170057 13.170057 0.170056 0.170056 0 360 ellipse cp s
0.100000 slw
[] 0 sd
[] 0 sd
0 slc
0 slj
0 slc
0 slj
[] 0 sd
n 5.170057 13.170057 0.170056 0.170056 0 360 ellipse f
n 5.170057 13.170057 0.170056 0.170056 0 360 ellipse cp s
0.010000 slw
0 slc
0 slj
[] 0 sd
n 5.170057 13.170057 0.170056 0.170056 0 360 ellipse cp s
0.100000 slw
[] 0 sd
[] 0 sd
0 slc
0 slj
0 slc
0 slj
[] 0 sd
n 6.170057 13.170057 0.170056 0.170056 0 360 ellipse f
n 6.170057 13.170057 0.170056 0.170056 0 360 ellipse cp s
0.010000 slw
0 slc
0 slj
[] 0 sd
n 6.170057 13.170057 0.170056 0.170056 0 360 ellipse cp s
0.100000 slw
[] 0 sd
[] 0 sd
0 slc
0 slj
0 slc
0 slj
[] 0 sd
n 7.173639 13.173639 0.173639 0.173639 0 360 ellipse f
n 7.173639 13.173639 0.173639 0.173639 0 360 ellipse cp s
0.010000 slw
0 slc
0 slj
[] 0 sd
n 7.173639 13.173639 0.173639 0.173639 0 360 ellipse cp s
0.100000 slw
[] 0 sd
[] 0 sd
0 slc
0 slj
0 slc
0 slj
[] 0 sd
n 14.173638 1.173639 0.173638 0.173638 0 360 ellipse f
n 14.173638 1.173639 0.173638 0.173638 0 360 ellipse cp s
0.010000 slw
0 slc
0 slj
[] 0 sd
n 14.173638 1.173639 0.173638 0.173638 0 360 ellipse cp s
0.100000 slw
[] 0 sd
[] 0 sd
0 slc
0 slj
0 slc
0 slj
[] 0 sd
n 14.170056 2.170057 0.170056 0.170056 0 360 ellipse f
n 14.170056 2.170057 0.170056 0.170056 0 360 ellipse cp s
0.010000 slw
0 slc
0 slj
[] 0 sd
n 14.170056 2.170057 0.170056 0.170056 0 360 ellipse cp s
0.100000 slw
[] 0 sd
[] 0 sd
0 slc
0 slj
0 slc
0 slj
[] 0 sd
n 14.170056 3.170057 0.170056 0.170056 0 360 ellipse f
n 14.170056 3.170057 0.170056 0.170056 0 360 ellipse cp s
0.010000 slw
0 slc
0 slj
[] 0 sd
n 14.170056 3.170057 0.170056 0.170056 0 360 ellipse cp s
0.100000 slw
[] 0 sd
[] 0 sd
0 slc
0 slj
0 slc
0 slj
[] 0 sd
n 14.170056 4.170057 0.170056 0.170056 0 360 ellipse f
n 14.170056 4.170057 0.170056 0.170056 0 360 ellipse cp s
0.010000 slw
0 slc
0 slj
[] 0 sd
n 14.170056 4.170057 0.170056 0.170056 0 360 ellipse cp s
0.100000 slw
[] 0 sd
[] 0 sd
0 slc
0 slj
0 slc
0 slj
[] 0 sd
n 14.170056 5.170057 0.170056 0.170056 0 360 ellipse f
n 14.170056 5.170057 0.170056 0.170056 0 360 ellipse cp s
0.010000 slw
0 slc
0 slj
[] 0 sd
n 14.170056 5.170057 0.170056 0.170056 0 360 ellipse cp s
0.100000 slw
[] 0 sd
[] 0 sd
0 slc
0 slj
0 slc
0 slj
[] 0 sd
n 14.173639 6.173639 0.173639 0.173639 0 360 ellipse f
n 14.173639 6.173639 0.173639 0.173639 0 360 ellipse cp s
0.010000 slw
0 slc
0 slj
[] 0 sd
n 14.173639 6.173639 0.173639 0.173639 0 360 ellipse cp s
0.100000 slw
[] 0 sd
[] 0 sd
0 slc
0 slj
0 slc
0 slj
[] 0 sd
n 14.170056 7.170057 0.170056 0.170056 0 360 ellipse f
n 14.170056 7.170057 0.170056 0.170056 0 360 ellipse cp s
0.010000 slw
0 slc
0 slj
[] 0 sd
n 14.170056 7.170057 0.170056 0.170056 0 360 ellipse cp s
0.100000 slw
[] 0 sd
[] 0 sd
0 slc
0 slj
0 slc
0 slj
[] 0 sd
n 14.170056 8.170056 0.170056 0.170056 0 360 ellipse f
n 14.170056 8.170056 0.170056 0.170056 0 360 ellipse cp s
0.010000 slw
0 slc
0 slj
[] 0 sd
n 14.170056 8.170056 0.170056 0.170056 0 360 ellipse cp s
0.100000 slw
[] 0 sd
[] 0 sd
0 slc
0 slj
0 slc
0 slj
[] 0 sd
n 14.170056 9.170057 0.170056 0.170056 0 360 ellipse f
n 14.170056 9.170057 0.170056 0.170056 0 360 ellipse cp s
0.010000 slw
0 slc
0 slj
[] 0 sd
n 14.170056 9.170057 0.170056 0.170056 0 360 ellipse cp s
0.100000 slw
[] 0 sd
[] 0 sd
0 slc
0 slj
0 slc
0 slj
[] 0 sd
n 14.173639 10.173639 0.173639 0.173639 0 360 ellipse f
n 14.173639 10.173639 0.173639 0.173639 0 360 ellipse cp s
0.010000 slw
0 slc
0 slj
[] 0 sd
n 14.173639 10.173639 0.173639 0.173639 0 360 ellipse cp s
0.100000 slw
[] 0 sd
[] 0 sd
0 slc
0 slj
0 slc
0 slj
[] 0 sd
n 14.170056 11.170057 0.170056 0.170056 0 360 ellipse f
n 14.170056 11.170057 0.170056 0.170056 0 360 ellipse cp s
0.010000 slw
0 slc
0 slj
[] 0 sd
n 14.170056 11.170057 0.170056 0.170056 0 360 ellipse cp s
0.100000 slw
[] 0 sd
[] 0 sd
0 slc
0 slj
0 slc
0 slj
[] 0 sd
n 14.170056 12.170057 0.170056 0.170056 0 360 ellipse f
n 14.170056 12.170057 0.170056 0.170056 0 360 ellipse cp s
0.010000 slw
0 slc
0 slj
[] 0 sd
n 14.170056 12.170057 0.170056 0.170056 0 360 ellipse cp s
0.100000 slw
[] 0 sd
[] 0 sd
0 slc
0 slj
0 slc
0 slj
[] 0 sd
n 14.170056 13.170057 0.170057 0.170057 0 360 ellipse cp s
0.010000 slw
0 slc
0 slj
[] 0 sd
n 14.170056 13.170057 0.170057 0.170057 0 360 ellipse cp s
0.100000 slw
[] 0 sd
[] 0 sd
0 slc
0 slj
0 slc
0 slj
[] 0 sd
n 14.170056 14.170057 0.170056 0.170056 0 360 ellipse cp s
0.010000 slw
0 slc
0 slj
[] 0 sd
n 14.170056 14.170057 0.170056 0.170056 0 360 ellipse cp s
0.100000 slw
[] 0 sd
[] 0 sd
0 slc
0 slj
0 slc
0 slj
[] 0 sd
n 9.170056 14.170057 0.170056 0.170056 0 360 ellipse f
n 9.170056 14.170057 0.170056 0.170056 0 360 ellipse cp s
0.010000 slw
0 slc
0 slj
[] 0 sd
n 9.170056 14.170057 0.170056 0.170056 0 360 ellipse cp s
0.100000 slw
[] 0 sd
[] 0 sd
0 slc
0 slj
0 slc
0 slj
[] 0 sd
n 10.170056 14.170057 0.170056 0.170056 0 360 ellipse f
n 10.170056 14.170057 0.170056 0.170056 0 360 ellipse cp s
0.010000 slw
0 slc
0 slj
[] 0 sd
n 10.170056 14.170057 0.170056 0.170056 0 360 ellipse cp s
0.100000 slw
[] 0 sd
[] 0 sd
0 slc
0 slj
0 slc
0 slj
[] 0 sd
n 11.170056 14.170057 0.170056 0.170056 0 360 ellipse f
n 11.170056 14.170057 0.170056 0.170056 0 360 ellipse cp s
0.010000 slw
0 slc
0 slj
[] 0 sd
n 11.170056 14.170057 0.170056 0.170056 0 360 ellipse cp s
0.100000 slw
[] 0 sd
[] 0 sd
0 slc
0 slj
0 slc
0 slj
[] 0 sd
n 12.170056 14.170057 0.170056 0.170056 0 360 ellipse f
n 12.170056 14.170057 0.170056 0.170056 0 360 ellipse cp s
0.010000 slw
0 slc
0 slj
[] 0 sd
n 12.170056 14.170057 0.170056 0.170056 0 360 ellipse cp s
0.100000 slw
[] 0 sd
[] 0 sd
0 slc
0 slj
0 slc
0 slj
[] 0 sd
n 13.173639 14.173639 0.173639 0.173639 0 360 ellipse cp s
0.010000 slw
0 slc
0 slj
[] 0 sd
n 13.173639 14.173639 0.173639 0.173639 0 360 ellipse cp s
0.100000 slw
[] 0 sd
[] 0 sd
0 slc
0 slj
0 slc
0 slj
[] 0 sd
n 1.170057 14.170057 0.170056 0.170056 0 360 ellipse f
n 1.170057 14.170057 0.170056 0.170056 0 360 ellipse cp s
0.010000 slw
0 slc
0 slj
[] 0 sd
n 1.170057 14.170057 0.170056 0.170056 0 360 ellipse cp s
0.100000 slw
[] 0 sd
[] 0 sd
0 slc
0 slj
0 slc
0 slj
[] 0 sd
n 2.170057 14.170057 0.170056 0.170056 0 360 ellipse f
n 2.170057 14.170057 0.170056 0.170056 0 360 ellipse cp s
0.010000 slw
0 slc
0 slj
[] 0 sd
n 2.170057 14.170057 0.170056 0.170056 0 360 ellipse cp s
0.100000 slw
[] 0 sd
[] 0 sd
0 slc
0 slj
0 slc
0 slj
[] 0 sd
n 3.170057 14.170057 0.170056 0.170056 0 360 ellipse f
n 3.170057 14.170057 0.170056 0.170056 0 360 ellipse cp s
0.010000 slw
0 slc
0 slj
[] 0 sd
n 3.170057 14.170057 0.170056 0.170056 0 360 ellipse cp s
0.100000 slw
[] 0 sd
[] 0 sd
0 slc
0 slj
0 slc
0 slj
[] 0 sd
n 4.173639 14.173639 0.173639 0.173639 0 360 ellipse f
n 4.173639 14.173639 0.173639 0.173639 0 360 ellipse cp s
0.010000 slw
0 slc
0 slj
[] 0 sd
n 4.173639 14.173639 0.173639 0.173639 0 360 ellipse cp s
0.100000 slw
[] 0 sd
[] 0 sd
0 slc
0 slj
0 slc
0 slj
[] 0 sd
n 5.170057 14.170057 0.170056 0.170056 0 360 ellipse f
n 5.170057 14.170057 0.170056 0.170056 0 360 ellipse cp s
0.010000 slw
0 slc
0 slj
[] 0 sd
n 5.170057 14.170057 0.170056 0.170056 0 360 ellipse cp s
0.100000 slw
[] 0 sd
[] 0 sd
0 slc
0 slj
0 slc
0 slj
[] 0 sd
n 6.170057 14.170057 0.170056 0.170056 0 360 ellipse f
n 6.170057 14.170057 0.170056 0.170056 0 360 ellipse cp s
0.010000 slw
0 slc
0 slj
[] 0 sd
n 6.170057 14.170057 0.170056 0.170056 0 360 ellipse cp s
0.100000 slw
[] 0 sd
[] 0 sd
0 slc
0 slj
0 slc
0 slj
[] 0 sd
n 7.170057 14.170057 0.170056 0.170056 0 360 ellipse f
n 7.170057 14.170057 0.170056 0.170056 0 360 ellipse cp s
0.010000 slw
0 slc
0 slj
[] 0 sd
n 7.170057 14.170057 0.170056 0.170056 0 360 ellipse cp s
0.100000 slw
[] 0 sd
[] 0 sd
0 slc
0 slj
0 slc
0 slj
[] 0 sd
n 8.173639 14.173639 0.173639 0.173639 0 360 ellipse f
n 8.173639 14.173639 0.173639 0.173639 0 360 ellipse cp s
0.010000 slw
0 slc
0 slj
[] 0 sd
n 8.173639 14.173639 0.173639 0.173639 0 360 ellipse cp s
0.100000 slw
[] 0 sd
[] 0 sd
0 slc
0 slj
0 slc
0 slj
[] 0 sd
n 15.170056 1.170057 0.170056 0.170056 0 360 ellipse f
n 15.170056 1.170057 0.170056 0.170056 0 360 ellipse cp s
0.010000 slw
0 slc
0 slj
[] 0 sd
n 15.170056 1.170057 0.170056 0.170056 0 360 ellipse cp s
0.100000 slw
[] 0 sd
[] 0 sd
0 slc
0 slj
0 slc
0 slj
[] 0 sd
n 15.170056 2.170057 0.170056 0.170056 0 360 ellipse f
n 15.170056 2.170057 0.170056 0.170056 0 360 ellipse cp s
0.010000 slw
0 slc
0 slj
[] 0 sd
n 15.170056 2.170057 0.170056 0.170056 0 360 ellipse cp s
0.100000 slw
[] 0 sd
[] 0 sd
0 slc
0 slj
0 slc
0 slj
[] 0 sd
n 15.170056 3.170057 0.170056 0.170056 0 360 ellipse f
n 15.170056 3.170057 0.170056 0.170056 0 360 ellipse cp s
0.010000 slw
0 slc
0 slj
[] 0 sd
n 15.170056 3.170057 0.170056 0.170056 0 360 ellipse cp s
0.100000 slw
[] 0 sd
[] 0 sd
0 slc
0 slj
0 slc
0 slj
[] 0 sd
n 15.170056 4.170057 0.170056 0.170056 0 360 ellipse f
n 15.170056 4.170057 0.170056 0.170056 0 360 ellipse cp s
0.010000 slw
0 slc
0 slj
[] 0 sd
n 15.170056 4.170057 0.170056 0.170056 0 360 ellipse cp s
0.100000 slw
[] 0 sd
[] 0 sd
0 slc
0 slj
0 slc
0 slj
[] 0 sd
n 15.173639 5.173639 0.173639 0.173639 0 360 ellipse f
n 15.173639 5.173639 0.173639 0.173639 0 360 ellipse cp s
0.010000 slw
0 slc
0 slj
[] 0 sd
n 15.173639 5.173639 0.173639 0.173639 0 360 ellipse cp s
0.100000 slw
[] 0 sd
[] 0 sd
0 slc
0 slj
0 slc
0 slj
[] 0 sd
n 15.170056 6.170057 0.170056 0.170056 0 360 ellipse f
n 15.170056 6.170057 0.170056 0.170056 0 360 ellipse cp s
0.010000 slw
0 slc
0 slj
[] 0 sd
n 15.170056 6.170057 0.170056 0.170056 0 360 ellipse cp s
0.100000 slw
[] 0 sd
[] 0 sd
0 slc
0 slj
0 slc
0 slj
[] 0 sd
n 15.170056 7.170057 0.170056 0.170056 0 360 ellipse f
n 15.170056 7.170057 0.170056 0.170056 0 360 ellipse cp s
0.010000 slw
0 slc
0 slj
[] 0 sd
n 15.170056 7.170057 0.170056 0.170056 0 360 ellipse cp s
0.100000 slw
[] 0 sd
[] 0 sd
0 slc
0 slj
0 slc
0 slj
[] 0 sd
n 15.170056 8.170056 0.170056 0.170056 0 360 ellipse f
n 15.170056 8.170056 0.170056 0.170056 0 360 ellipse cp s
0.010000 slw
0 slc
0 slj
[] 0 sd
n 15.170056 8.170056 0.170056 0.170056 0 360 ellipse cp s
0.100000 slw
[] 0 sd
[] 0 sd
0 slc
0 slj
0 slc
0 slj
[] 0 sd
n 15.173639 9.173639 0.173639 0.173639 0 360 ellipse f
n 15.173639 9.173639 0.173639 0.173639 0 360 ellipse cp s
0.010000 slw
0 slc
0 slj
[] 0 sd
n 15.173639 9.173639 0.173639 0.173639 0 360 ellipse cp s
0.100000 slw
[] 0 sd
[] 0 sd
0 slc
0 slj
0 slc
0 slj
[] 0 sd
n 15.170056 10.170057 0.170056 0.170056 0 360 ellipse f
n 15.170056 10.170057 0.170056 0.170056 0 360 ellipse cp s
0.010000 slw
0 slc
0 slj
[] 0 sd
n 15.170056 10.170057 0.170056 0.170056 0 360 ellipse cp s
0.100000 slw
[] 0 sd
[] 0 sd
0 slc
0 slj
0 slc
0 slj
[] 0 sd
n 15.170056 11.170057 0.170056 0.170056 0 360 ellipse f
n 15.170056 11.170057 0.170056 0.170056 0 360 ellipse cp s
0.010000 slw
0 slc
0 slj
[] 0 sd
n 15.170056 11.170057 0.170056 0.170056 0 360 ellipse cp s
0.100000 slw
[] 0 sd
[] 0 sd
0 slc
0 slj
0 slc
0 slj
[] 0 sd
n 15.170056 12.170057 0.170056 0.170056 0 360 ellipse f
n 15.170056 12.170057 0.170056 0.170056 0 360 ellipse cp s
0.010000 slw
0 slc
0 slj
[] 0 sd
n 15.170056 12.170057 0.170056 0.170056 0 360 ellipse cp s
0.100000 slw
[] 0 sd
[] 0 sd
0 slc
0 slj
0 slc
0 slj
[] 0 sd
n 15.173639 13.173639 0.173639 0.173639 0 360 ellipse f
n 15.173639 13.173639 0.173639 0.173639 0 360 ellipse cp s
0.010000 slw
0 slc
0 slj
[] 0 sd
n 15.173639 13.173639 0.173639 0.173639 0 360 ellipse cp s
0.100000 slw
[] 0 sd
[] 0 sd
0 slc
0 slj
0 slc
0 slj
[] 0 sd
n 15.170056 14.170057 0.170057 0.170057 0 360 ellipse cp s
0.010000 slw
0 slc
0 slj
[] 0 sd
n 15.170056 14.170057 0.170057 0.170057 0 360 ellipse cp s
0.100000 slw
[] 0 sd
[] 0 sd
0 slc
0 slj
0 slc
0 slj
[] 0 sd
n 16.173638 1.173639 0.173639 0.173639 0 360 ellipse cp s
0.010000 slw
0 slc
0 slj
[] 0 sd
n 16.173638 1.173639 0.173639 0.173639 0 360 ellipse cp s
0.100000 slw
[] 0 sd
[] 0 sd
0 slc
0 slj
0 slc
0 slj
[] 0 sd
n 16.170057 2.170057 0.170056 0.170056 0 360 ellipse f
n 16.170057 2.170057 0.170056 0.170056 0 360 ellipse cp s
0.010000 slw
0 slc
0 slj
[] 0 sd
n 16.170057 2.170057 0.170056 0.170056 0 360 ellipse cp s
0.100000 slw
[] 0 sd
[] 0 sd
0 slc
0 slj
0 slc
0 slj
[] 0 sd
n 16.170057 3.170057 0.170056 0.170056 0 360 ellipse f
n 16.170057 3.170057 0.170056 0.170056 0 360 ellipse cp s
0.010000 slw
0 slc
0 slj
[] 0 sd
n 16.170057 3.170057 0.170056 0.170056 0 360 ellipse cp s
0.100000 slw
[] 0 sd
[] 0 sd
0 slc
0 slj
0 slc
0 slj
[] 0 sd
n 16.170057 4.170057 0.170056 0.170056 0 360 ellipse f
n 16.170057 4.170057 0.170056 0.170056 0 360 ellipse cp s
0.010000 slw
0 slc
0 slj
[] 0 sd
n 16.170057 4.170057 0.170056 0.170056 0 360 ellipse cp s
0.100000 slw
[] 0 sd
[] 0 sd
0 slc
0 slj
0 slc
0 slj
[] 0 sd
n 16.170057 5.170057 0.170056 0.170056 0 360 ellipse f
n 16.170057 5.170057 0.170056 0.170056 0 360 ellipse cp s
0.010000 slw
0 slc
0 slj
[] 0 sd
n 16.170057 5.170057 0.170056 0.170056 0 360 ellipse cp s
0.100000 slw
[] 0 sd
[] 0 sd
0 slc
0 slj
0 slc
0 slj
[] 0 sd
n 16.173638 6.173639 0.173639 0.173639 0 360 ellipse f
n 16.173638 6.173639 0.173639 0.173639 0 360 ellipse cp s
0.010000 slw
0 slc
0 slj
[] 0 sd
n 16.173638 6.173639 0.173639 0.173639 0 360 ellipse cp s
0.100000 slw
[] 0 sd
[] 0 sd
0 slc
0 slj
0 slc
0 slj
[] 0 sd
n 16.170057 7.170057 0.170056 0.170056 0 360 ellipse f
n 16.170057 7.170057 0.170056 0.170056 0 360 ellipse cp s
0.010000 slw
0 slc
0 slj
[] 0 sd
n 16.170057 7.170057 0.170056 0.170056 0 360 ellipse cp s
0.100000 slw
[] 0 sd
[] 0 sd
0 slc
0 slj
0 slc
0 slj
[] 0 sd
n 16.170057 8.170056 0.170056 0.170056 0 360 ellipse f
n 16.170057 8.170056 0.170056 0.170056 0 360 ellipse cp s
0.010000 slw
0 slc
0 slj
[] 0 sd
n 16.170057 8.170056 0.170056 0.170056 0 360 ellipse cp s
0.100000 slw
[] 0 sd
[] 0 sd
0 slc
0 slj
0 slc
0 slj
[] 0 sd
n 16.170057 9.170057 0.170056 0.170056 0 360 ellipse f
n 16.170057 9.170057 0.170056 0.170056 0 360 ellipse cp s
0.010000 slw
0 slc
0 slj
[] 0 sd
n 16.170057 9.170057 0.170056 0.170056 0 360 ellipse cp s
0.100000 slw
[] 0 sd
[] 0 sd
0 slc
0 slj
0 slc
0 slj
[] 0 sd
n 16.173638 10.173639 0.173639 0.173639 0 360 ellipse f
n 16.173638 10.173639 0.173639 0.173639 0 360 ellipse cp s
0.010000 slw
0 slc
0 slj
[] 0 sd
n 16.173638 10.173639 0.173639 0.173639 0 360 ellipse cp s
0.100000 slw
[] 0 sd
[] 0 sd
0 slc
0 slj
0 slc
0 slj
[] 0 sd
n 16.170057 11.170057 0.170056 0.170056 0 360 ellipse f
n 16.170057 11.170057 0.170056 0.170056 0 360 ellipse cp s
0.010000 slw
0 slc
0 slj
[] 0 sd
n 16.170057 11.170057 0.170056 0.170056 0 360 ellipse cp s
0.100000 slw
[] 0 sd
[] 0 sd
0 slc
0 slj
0 slc
0 slj
[] 0 sd
n 16.170057 12.170057 0.170056 0.170056 0 360 ellipse f
n 16.170057 12.170057 0.170056 0.170056 0 360 ellipse cp s
0.010000 slw
0 slc
0 slj
[] 0 sd
n 16.170057 12.170057 0.170056 0.170056 0 360 ellipse cp s
0.100000 slw
[] 0 sd
[] 0 sd
0 slc
0 slj
0 slc
0 slj
[] 0 sd
n 16.170057 13.170057 0.170056 0.170056 0 360 ellipse f
n 16.170057 13.170057 0.170056 0.170056 0 360 ellipse cp s
0.010000 slw
0 slc
0 slj
[] 0 sd
n 16.170057 13.170057 0.170056 0.170056 0 360 ellipse cp s
0.100000 slw
[] 0 sd
[] 0 sd
0 slc
0 slj
0 slc
0 slj
[] 0 sd
n 16.173638 14.173639 0.173639 0.173639 0 360 ellipse f
n 16.173638 14.173639 0.173639 0.173639 0 360 ellipse cp s
0.010000 slw
0 slc
0 slj
[] 0 sd
n 16.173638 14.173639 0.173639 0.173639 0 360 ellipse cp s
0.100000 slw
[] 0 sd
[] 0 sd
0 slc
0 slj
0 slc
0 slj
[] 0 sd
n 15.170056 15.170057 0.170056 0.170056 0 360 ellipse cp s
0.010000 slw
0 slc
0 slj
[] 0 sd
n 15.170056 15.170057 0.170056 0.170056 0 360 ellipse cp s
0.100000 slw
[] 0 sd
[] 0 sd
0 slc
0 slj
0 slc
0 slj
[] 0 sd
n 10.170056 15.170057 0.170056 0.170056 0 360 ellipse f
n 10.170056 15.170057 0.170056 0.170056 0 360 ellipse cp s
0.010000 slw
0 slc
0 slj
[] 0 sd
n 10.170056 15.170057 0.170056 0.170056 0 360 ellipse cp s
0.100000 slw
[] 0 sd
[] 0 sd
0 slc
0 slj
0 slc
0 slj
[] 0 sd
n 11.170056 15.170057 0.170056 0.170056 0 360 ellipse f
n 11.170056 15.170057 0.170056 0.170056 0 360 ellipse cp s
0.010000 slw
0 slc
0 slj
[] 0 sd
n 11.170056 15.170057 0.170056 0.170056 0 360 ellipse cp s
0.100000 slw
[] 0 sd
[] 0 sd
0 slc
0 slj
0 slc
0 slj
[] 0 sd
n 12.170056 15.170057 0.170056 0.170056 0 360 ellipse f
n 12.170056 15.170057 0.170056 0.170056 0 360 ellipse cp s
0.010000 slw
0 slc
0 slj
[] 0 sd
n 12.170056 15.170057 0.170056 0.170056 0 360 ellipse cp s
0.100000 slw
[] 0 sd
[] 0 sd
0 slc
0 slj
0 slc
0 slj
[] 0 sd
n 13.170056 15.170057 0.170056 0.170056 0 360 ellipse f
n 13.170056 15.170057 0.170056 0.170056 0 360 ellipse cp s
0.010000 slw
0 slc
0 slj
[] 0 sd
n 13.170056 15.170057 0.170056 0.170056 0 360 ellipse cp s
0.100000 slw
[] 0 sd
[] 0 sd
0 slc
0 slj
0 slc
0 slj
[] 0 sd
n 14.173639 15.173639 0.173639 0.173639 0 360 ellipse cp s
0.010000 slw
0 slc
0 slj
[] 0 sd
n 14.173639 15.173639 0.173639 0.173639 0 360 ellipse cp s
0.100000 slw
[] 0 sd
[] 0 sd
0 slc
0 slj
0 slc
0 slj
[] 0 sd
n 2.170057 15.170057 0.170056 0.170056 0 360 ellipse f
n 2.170057 15.170057 0.170056 0.170056 0 360 ellipse cp s
0.010000 slw
0 slc
0 slj
[] 0 sd
n 2.170057 15.170057 0.170056 0.170056 0 360 ellipse cp s
0.100000 slw
[] 0 sd
[] 0 sd
0 slc
0 slj
0 slc
0 slj
[] 0 sd
n 3.170057 15.170057 0.170056 0.170056 0 360 ellipse f
n 3.170057 15.170057 0.170056 0.170056 0 360 ellipse cp s
0.010000 slw
0 slc
0 slj
[] 0 sd
n 3.170057 15.170057 0.170056 0.170056 0 360 ellipse cp s
0.100000 slw
[] 0 sd
[] 0 sd
0 slc
0 slj
0 slc
0 slj
[] 0 sd
n 4.170057 15.170057 0.170056 0.170056 0 360 ellipse f
n 4.170057 15.170057 0.170056 0.170056 0 360 ellipse cp s
0.010000 slw
0 slc
0 slj
[] 0 sd
n 4.170057 15.170057 0.170056 0.170056 0 360 ellipse cp s
0.100000 slw
[] 0 sd
[] 0 sd
0 slc
0 slj
0 slc
0 slj
[] 0 sd
n 5.173639 15.173639 0.173639 0.173639 0 360 ellipse f
n 5.173639 15.173639 0.173639 0.173639 0 360 ellipse cp s
0.010000 slw
0 slc
0 slj
[] 0 sd
n 5.173639 15.173639 0.173639 0.173639 0 360 ellipse cp s
0.100000 slw
[] 0 sd
[] 0 sd
0 slc
0 slj
0 slc
0 slj
[] 0 sd
n 6.170057 15.170057 0.170056 0.170056 0 360 ellipse f
n 6.170057 15.170057 0.170056 0.170056 0 360 ellipse cp s
0.010000 slw
0 slc
0 slj
[] 0 sd
n 6.170057 15.170057 0.170056 0.170056 0 360 ellipse cp s
0.100000 slw
[] 0 sd
[] 0 sd
0 slc
0 slj
0 slc
0 slj
[] 0 sd
n 7.170057 15.170057 0.170056 0.170056 0 360 ellipse f
n 7.170057 15.170057 0.170056 0.170056 0 360 ellipse cp s
0.010000 slw
0 slc
0 slj
[] 0 sd
n 7.170057 15.170057 0.170056 0.170056 0 360 ellipse cp s
0.100000 slw
[] 0 sd
[] 0 sd
0 slc
0 slj
0 slc
0 slj
[] 0 sd
n 8.170057 15.170057 0.170056 0.170056 0 360 ellipse f
n 8.170057 15.170057 0.170056 0.170056 0 360 ellipse cp s
0.010000 slw
0 slc
0 slj
[] 0 sd
n 8.170057 15.170057 0.170056 0.170056 0 360 ellipse cp s
0.100000 slw
[] 0 sd
[] 0 sd
0 slc
0 slj
0 slc
0 slj
[] 0 sd
n 9.173639 15.173639 0.173639 0.173639 0 360 ellipse f
n 9.173639 15.173639 0.173639 0.173639 0 360 ellipse cp s
0.010000 slw
0 slc
0 slj
[] 0 sd
n 9.173639 15.173639 0.173639 0.173639 0 360 ellipse cp s
0.100000 slw
[] 0 sd
[] 0 sd
0 slc
0 slj
0 slc
0 slj
[] 0 sd
n 16.170057 15.170057 0.170057 0.170057 0 360 ellipse cp s
0.010000 slw
0 slc
0 slj
[] 0 sd
n 16.170057 15.170057 0.170057 0.170057 0 360 ellipse cp s
0.100000 slw
[] 0 sd
[] 0 sd
0 slc
0 slj
0 slc
0 slj
[] 0 sd
n 1.173639 15.173639 0.173639 0.173639 0 360 ellipse f
n 1.173639 15.173639 0.173639 0.173639 0 360 ellipse cp s
0.010000 slw
0 slc
0 slj
[] 0 sd
n 1.173639 15.173639 0.173639 0.173639 0 360 ellipse cp s
0.100000 slw
[] 0 sd
[] 0 sd
0 slc
0 slj
0 slc
0 slj
[] 0 sd
n 16.170057 16.170057 0.170056 0.170056 0 360 ellipse cp s
0.010000 slw
0 slc
0 slj
[] 0 sd
n 16.170057 16.170057 0.170056 0.170056 0 360 ellipse cp s
0.100000 slw
[] 0 sd
[] 0 sd
0 slc
0 slj
0 slc
0 slj
[] 0 sd
n 11.170056 16.170057 0.170056 0.170056 0 360 ellipse f
n 11.170056 16.170057 0.170056 0.170056 0 360 ellipse cp s
0.010000 slw
0 slc
0 slj
[] 0 sd
n 11.170056 16.170057 0.170056 0.170056 0 360 ellipse cp s
0.100000 slw
[] 0 sd
[] 0 sd
0 slc
0 slj
0 slc
0 slj
[] 0 sd
n 12.170056 16.170057 0.170056 0.170056 0 360 ellipse f
n 12.170056 16.170057 0.170056 0.170056 0 360 ellipse cp s
0.010000 slw
0 slc
0 slj
[] 0 sd
n 12.170056 16.170057 0.170056 0.170056 0 360 ellipse cp s
0.100000 slw
[] 0 sd
[] 0 sd
0 slc
0 slj
0 slc
0 slj
[] 0 sd
n 13.170056 16.170057 0.170056 0.170056 0 360 ellipse f
n 13.170056 16.170057 0.170056 0.170056 0 360 ellipse cp s
0.010000 slw
0 slc
0 slj
[] 0 sd
n 13.170056 16.170057 0.170056 0.170056 0 360 ellipse cp s
0.100000 slw
[] 0 sd
[] 0 sd
0 slc
0 slj
0 slc
0 slj
[] 0 sd
n 14.170056 16.170057 0.170056 0.170056 0 360 ellipse f
n 14.170056 16.170057 0.170056 0.170056 0 360 ellipse cp s
0.010000 slw
0 slc
0 slj
[] 0 sd
n 14.170056 16.170057 0.170056 0.170056 0 360 ellipse cp s
0.100000 slw
[] 0 sd
[] 0 sd
0 slc
0 slj
0 slc
0 slj
[] 0 sd
n 15.173639 16.173638 0.173639 0.173639 0 360 ellipse cp s
0.010000 slw
0 slc
0 slj
[] 0 sd
n 15.173639 16.173638 0.173639 0.173639 0 360 ellipse cp s
0.100000 slw
[] 0 sd
[] 0 sd
0 slc
0 slj
0 slc
0 slj
[] 0 sd
n 3.170057 16.170057 0.170056 0.170056 0 360 ellipse f
n 3.170057 16.170057 0.170056 0.170056 0 360 ellipse cp s
0.010000 slw
0 slc
0 slj
[] 0 sd
n 3.170057 16.170057 0.170056 0.170056 0 360 ellipse cp s
0.100000 slw
[] 0 sd
[] 0 sd
0 slc
0 slj
0 slc
0 slj
[] 0 sd
n 4.170057 16.170057 0.170056 0.170056 0 360 ellipse f
n 4.170057 16.170057 0.170056 0.170056 0 360 ellipse cp s
0.010000 slw
0 slc
0 slj
[] 0 sd
n 4.170057 16.170057 0.170056 0.170056 0 360 ellipse cp s
0.100000 slw
[] 0 sd
[] 0 sd
0 slc
0 slj
0 slc
0 slj
[] 0 sd
n 5.170057 16.170057 0.170056 0.170056 0 360 ellipse f
n 5.170057 16.170057 0.170056 0.170056 0 360 ellipse cp s
0.010000 slw
0 slc
0 slj
[] 0 sd
n 5.170057 16.170057 0.170056 0.170056 0 360 ellipse cp s
0.100000 slw
[] 0 sd
[] 0 sd
0 slc
0 slj
0 slc
0 slj
[] 0 sd
n 6.173639 16.173638 0.173639 0.173639 0 360 ellipse f
n 6.173639 16.173638 0.173639 0.173639 0 360 ellipse cp s
0.010000 slw
0 slc
0 slj
[] 0 sd
n 6.173639 16.173638 0.173639 0.173639 0 360 ellipse cp s
0.100000 slw
[] 0 sd
[] 0 sd
0 slc
0 slj
0 slc
0 slj
[] 0 sd
n 7.170057 16.170057 0.170056 0.170056 0 360 ellipse f
n 7.170057 16.170057 0.170056 0.170056 0 360 ellipse cp s
0.010000 slw
0 slc
0 slj
[] 0 sd
n 7.170057 16.170057 0.170056 0.170056 0 360 ellipse cp s
0.100000 slw
[] 0 sd
[] 0 sd
0 slc
0 slj
0 slc
0 slj
[] 0 sd
n 8.170057 16.170057 0.170056 0.170056 0 360 ellipse f
n 8.170057 16.170057 0.170056 0.170056 0 360 ellipse cp s
0.010000 slw
0 slc
0 slj
[] 0 sd
n 8.170057 16.170057 0.170056 0.170056 0 360 ellipse cp s
0.100000 slw
[] 0 sd
[] 0 sd
0 slc
0 slj
0 slc
0 slj
[] 0 sd
n 9.170056 16.170057 0.170056 0.170056 0 360 ellipse f
n 9.170056 16.170057 0.170056 0.170056 0 360 ellipse cp s
0.010000 slw
0 slc
0 slj
[] 0 sd
n 9.170056 16.170057 0.170056 0.170056 0 360 ellipse cp s
0.100000 slw
[] 0 sd
[] 0 sd
0 slc
0 slj
0 slc
0 slj
[] 0 sd
n 10.173639 16.173638 0.173639 0.173639 0 360 ellipse f
n 10.173639 16.173638 0.173639 0.173639 0 360 ellipse cp s
0.010000 slw
0 slc
0 slj
[] 0 sd
n 10.173639 16.173638 0.173639 0.173639 0 360 ellipse cp s
0.100000 slw
[] 0 sd
[] 0 sd
0 slc
0 slj
0 slc
0 slj
[] 0 sd
n 1.170057 16.170057 0.170057 0.170057 0 360 ellipse cp s
0.010000 slw
0 slc
0 slj
[] 0 sd
n 1.170057 16.170057 0.170057 0.170057 0 360 ellipse cp s
0.100000 slw
[] 0 sd
[] 0 sd
0 slc
0 slj
0 slc
0 slj
[] 0 sd
n 2.173639 16.173639 0.173639 0.173639 0 360 ellipse f
n 2.173639 16.173639 0.173639 0.173639 0 360 ellipse cp s
0.010000 slw
0 slc
0 slj
[] 0 sd
n 2.173639 16.173639 0.173639 0.173639 0 360 ellipse cp s
showpage
